"Store","Customer","JO#","Received By","Date Collected","Payment Type","Amount"
"ASMM-01","Lizet Dayandante","0000285","Mencho Navorra","Dec 21 2017 09:50 PM","CASH","130.00"
"ASMM-01","Albert Bietas","0000426","Mencho Navorra","Dec 20 2017 08:30 PM","CASH","286.00"
"ASMM-01","Larry Frias","0000487","Mencho Navorra","Dec 26 2017 08:54 PM","CASH","143.50"
"ASMM-01","Bernadel Villena","0000509","Mencho Navorra","Dec 22 2017 09:20 PM","CASH","150.00"
"ASMM-01","Celine Galvan","0000510","Mencho Navorra","Dec 28 2017 04:47 PM","CASH","910.00"
"ASMM-01","Jebealyn Arienza","0000511","Mencho Navorra","Dec 22 2017 09:20 PM","CASH","125.00"
"ASMM-01","Vergel Ambe","0000516","Mencho Navorra","Dec 20 2017 08:15 PM","CASH","112.50"
"ASMM-01","Janine Illescas","0000518","Mencho Navorra","Dec 21 2017 09:45 PM","CASH","77.50"
"ASMM-01","Abbi Garcia","0000519","Mencho Navorra","Dec 27 2017 04:15 PM","CASH","137.50"
"ASMM-01","Sarah Jane Arellano","0000520","Mencho Navorra","Dec 20 2017 07:36 PM","CASH","225.00"
"ASMM-01","Leandro Dela Rosa Jr","0000521","Mencho Navorra","Dec 20 2017 08:17 PM","CASH","84.00"
"ASMM-01","Micah Redito","0000524","Mencho Navorra","Dec 20 2017 08:15 PM","CASH","140.00"
"ASMM-01","Christine Therese Brazula","0000527","Mencho Navorra","Dec 21 2017 09:48 PM","CASH","100.00"
"ASMM-01","Angelina Fonciara","0000528","Mencho Navorra","Dec 20 2017 07:37 PM","CASH","70.00"
"ASMM-01","Richard Borlagdan","0000531","Mencho Navorra","Dec 21 2017 09:44 PM","CASH","85.00"
"ASMM-01","Maricris Francisco","0000533","Mencho Navorra","Dec 27 2017 08:30 PM","CASH","280.00"
"ASMM-01","Mary Rose  Sanchez","0000534","Mencho Navorra","Dec 26 2017 08:19 PM","CASH","317.50"
"ASMM-01","Alden Ace Laguitan","0000535","Mencho Navorra","Dec 21 2017 09:45 PM","CASH","132.50"
"ASMM-01","Jayvee Victoria","0000536","Mencho Navorra","Dec 21 2017 09:46 PM","CASH","95.00"
"ASMM-01","Arnold Resurreccion","0000537","Mencho Navorra","Dec 21 2017 09:46 PM","CASH","110.00"
"ASMM-01","Raiza Agana","0000538","Mencho Navorra","Dec 26 2017 08:23 PM","CASH","50.00"
"ASMM-01","Hyra Valdorenas","0000539","Mencho Navorra","Dec 23 2017 02:25 PM","CASH","77.00"
"ASMM-01","Ariane Buentiempo","0000540","Mencho Navorra","Dec 22 2017 09:19 PM","CASH","90.00"
"ASMM-01","Riain Villarosa","0000542","Mencho Navorra","Dec 26 2017 08:24 PM","CASH","157.50"
"ASMM-01","Mailyn Sayson","0000543","Mencho Navorra","Dec 21 2017 09:43 PM","CASH","100.00"
"ASMM-01","Benedict Volante","0000544","Mencho Navorra","Dec 23 2017 02:24 PM","CASH","262.50"
"ASMM-01","Oliver San juan","0000545","Mencho Navorra","Dec 28 2017 07:51 PM","CASH","102.50"
"ASMM-01","Dhave Fernandez","0000547","Mencho Navorra","Dec 21 2017 09:47 PM","CASH","197.00"
"ASMM-01","Tim B","0000548","Mencho Navorra","Dec 26 2017 08:22 PM","CASH","175.00"
"ASMM-01","Jhogie lorenzo","0000549","Mencho Navorra","Dec 20 2017 08:22 PM","CASH","100.00"
"ASMM-01","Mark Samonte","0000550","Mencho Navorra","Dec 26 2017 08:23 PM","CASH","87.50"
"ASMM-01","Cedrick Dela Cruz","0000553","Mencho Navorra","Dec 22 2017 09:52 PM","CASH","70.00"
"ASMM-01","Adrian Tejada","0000557","Mencho Navorra","Dec 26 2017 08:55 PM","CASH","266.00"
"ASMM-01","Jebealyn Arienza","0000558","Mencho Navorra","Dec 27 2017 04:15 PM","CASH","102.50"
"ASMM-01","Aries Suetos","0000559","Mencho Navorra","Dec 27 2017 06:57 PM","CASH","105.00"
"ASMM-01","Janine Illescas","0000560","Mencho Navorra","Dec 26 2017 08:20 PM","CASH","77.50"
"ASMM-01","Paula Bianca Pabuna","0000561","Mencho Navorra","Dec 27 2017 04:13 PM","CASH","130.00"
"ASMM-01","Mark Flores","0000562","Mencho Navorra","Dec 26 2017 08:10 PM","CASH","264.50"
"ASMM-01","Bernadel Villena","0000563","Mencho Navorra","Dec 27 2017 04:14 PM","CASH","169.50"
"ASMM-01","Jeriza Dichoso","0000564","Mencho Navorra","Dec 28 2017 07:51 PM","CASH","100.00"
"ASMM-01","Riain Villarosa","0000566","Mencho Navorra","Dec 28 2017 07:52 PM","CASH","192.50"
"ASMM-01","Riain Villarosa","0000567","Mencho Navorra","Dec 28 2017 07:52 PM","CASH","137.50"
