"Store-JO#","Status","Customer","Cashier","Date","Amount"
"QPMM-01-3319","paid","Domingo Saludares","Kristine  Oli","Jul 01 2018 08:43 AM","90.00"
"FRMC-01-1068","paid","Normanfran Tungkol","Jommel Minranda","Jul 01 2018 09:54 AM","92.50"
"FRMC-01-1069","paid","Ryan Bagaipo","Jommel Minranda","Jul 01 2018 10:15 AM","132.50"
"FRMC-01-1070","paid","Jewel Gavino","Jommel Minranda","Jul 01 2018 10:40 AM","100.50"
"QPMM-01-3320","paid","Melchor Casumpang","Kristine  Oli","Jul 01 2018 10:43 AM","260.00"
"FRMC-01-1071","paid","Mikolo Kylo Manalang","Jommel Minranda","Jul 01 2018 11:01 AM","256.00"
"BHCT-01-4111","paid","Mita Palawan","Christine  Monrtealegree ","Jul 01 2018 11:14 AM","262.50"
"BHCT-01-4112","paid","Daphne Lontajo","Christine  Monrtealegree ","Jul 01 2018 11:33 AM","125.00"
"BHCT-01-4113","paid","Tats Luna","Christine  Monrtealegree ","Jul 01 2018 11:47 AM","125.00"
"FRMC-01-1072","paid","Mikolo Kylo Manalang","Jommel Minranda","Jul 01 2018 11:48 AM","73.00"
"BHCT-01-4114","paid","Nizelda Caubat","Christine  Monrtealegree ","Jul 01 2018 11:53 AM","354.50"
"QPMM-01-3321","paid","Jennifer  Manalo","Kristine  Oli","Jul 01 2018 12:03 PM","112.50"
"BHCT-01-4115","paid","Jean  Rien","Christine  Monrtealegree ","Jul 01 2018 12:10 PM","214.00"
"BHCT-01-4116","paid","Ross Teodoro","Christine  Monrtealegree ","Jul 01 2018 12:35 PM","125.00"
"BHCT-01-4117","paid","Ross Teodoro","Christine  Monrtealegree ","Jul 01 2018 12:40 PM","300.00"
"BHCT-01-4118","paid","Jia Yu","Christine  Monrtealegree ","Jul 01 2018 12:52 PM","463.50"
"BHCT-01-4119","paid","Nikki Alcantara","Christine  Monrtealegree ","Jul 01 2018 01:02 PM","125.00"
"BHCT-01-4120","paid","Tasha Levinna","Christine  Monrtealegree ","Jul 01 2018 01:13 PM","186.00"
"BHCT-01-4121","paid","Nel Alcanzare","Christine  Monrtealegree ","Jul 01 2018 01:39 PM","260.50"
"FRMC-01-1073","paid","Jerus Camus","Jommel Minranda","Jul 01 2018 01:47 PM","157.50"
"BHCT-01-4122","paid","Warlito Teodoro","Christine  Monrtealegree ","Jul 01 2018 01:54 PM","265.50"
"BHCT-01-4123","paid","Richard Roxas","Christine  Monrtealegree ","Jul 01 2018 02:13 PM","800.00"
"FRMC-01-1074","paid","Isip Alaiza","Jommel Minranda","Jul 01 2018 02:48 PM","151.00"
"BHCT-01-4124","paid","Reina Ramirez","Christine  Monrtealegree ","Jul 01 2018 02:53 PM","173.00"
"QPMM-01-3322","paid","jorge madridano","Kristine  Oli","Jul 01 2018 03:42 PM","235.00"
"CCC-01-1667","unpaid","Novel Grooming Concepts, Inc. (Ascott) ","Joebert  Batain ","Jul 01 2018 03:47 PM","540.96"
"QPMM-01-3323","paid","Cloyd Insipne","Kristine  Oli","Jul 01 2018 03:49 PM","92.50"
"CCC-01-1668","unpaid","Novel  Grooming Concepts, Inc. (Somerset)","Joebert  Batain ","Jul 01 2018 03:57 PM","1078.84"
"QPMM-01-3324","paid","Erenaldo Poller","Kristine  Oli","Jul 01 2018 04:05 PM","175.00"
"CCC-01-1669","paid","Eastwest Biointegrative Health Center ","Joebert  Batain ","Jul 01 2018 04:06 PM","620.00"
"QPMM-01-3325","unpaid","DALAL ALADED","Kristine  Oli","Jul 01 2018 04:30 PM","125.00"
"QPMM-01-3326","paid","Jervis Gangan","Kristine  Oli","Jul 01 2018 06:09 PM","62.50"
"FRMC-01-1075","paid","Mc Casimiro","Jommel Minranda","Jul 01 2018 06:30 PM","200.00"
"QPMM-01-3327","paid","Rustom Lapaz","Kristine  Oli","Jul 01 2018 07:48 PM","50.00"
"QPMM-01-3328","paid","Carlo Agno","Kristine  Oli","Jul 02 2018 08:19 AM","82.50"
"QPMM-01-3329","paid","rebecca de leon","Kristine  Oli","Jul 02 2018 08:26 AM","112.50"
"QPMM-01-3330","paid","tristan maceda","Kristine  Oli","Jul 02 2018 09:18 AM","197.50"
"FRMC-01-1076","paid","Terrence Salonga","Jommel Minranda","Jul 02 2018 10:38 AM","650.00"
"BHCT-01-4125","paid","Jeane Iglesia","Rey Jhon Lofranco","Jul 02 2018 11:21 AM","763.50"
"BHCT-01-4126","paid","Ma Teresa Cruz","Rey Jhon Lofranco","Jul 02 2018 11:29 AM","163.50"
"BHCT-01-4127","paid","John Panes","Rey Jhon Lofranco","Jul 02 2018 11:52 AM","172.50"
"BHCT-01-4128","paid","Judith Azucena","Rey Jhon Lofranco","Jul 02 2018 12:04 PM","131.00"
"FRMC-01-1077","paid","Austin Esguerra","Jommel Minranda","Jul 02 2018 12:10 PM","80.00"
"BHCT-01-4129","paid","Camille Escudero","Rey Jhon Lofranco","Jul 02 2018 12:20 PM","170.00"
"QPMM-01-3331","paid","Ria Sioxion","Kristine  Oli","Jul 02 2018 12:37 PM","195.00"
"BHCT-01-4130","paid","Rodin Victoriano","Rey Jhon Lofranco","Jul 02 2018 12:46 PM","230.00"
"QPMM-01-3332","paid","Josa Mary Rato","Kristine  Oli","Jul 02 2018 01:02 PM","62.50"
"BHCT-01-4131","paid","Raymund Danao","Rey Jhon Lofranco","Jul 02 2018 01:04 PM","372.50"
"BHCT-01-4132","paid","Gold Manlosa","Rey Jhon Lofranco","Jul 02 2018 01:19 PM","265.00"
"FRMC-01-1078","paid","Marrie  Murallo","Jommel Minranda","Jul 02 2018 02:45 PM","117.50"
"BHCT-01-4133","paid","Abraham Ajoc","Rey Jhon Lofranco","Jul 02 2018 02:45 PM","150.00"
"BHCT-01-4134","paid","Eleanor Quinay","Rey Jhon Lofranco","Jul 02 2018 02:49 PM","660.50"
"BHCT-01-4135","paid","Alexis Alexis ","Rey Jhon Lofranco","Jul 02 2018 03:01 PM","370.50"
"BHCT-01-4136","paid","Reiza Bañega","Rey Jhon Lofranco","Jul 02 2018 03:06 PM","640.00"
"BHCT-01-4137","paid","Tristan Castillo","Rey Jhon Lofranco","Jul 02 2018 03:14 PM","670.00"
"QPMM-01-3333","paid","Jun Paulo Verano","Kristine  Oli","Jul 02 2018 03:28 PM","132.50"
"QPMM-01-3334","paid","Irish Erwin Fulgencio","Kristine  Oli","Jul 02 2018 03:34 PM","288.00"
"QPMM-01-3335","paid","Tintin Mangubat","Kristine  Oli","Jul 02 2018 04:42 PM","57.50"
"FRMC-01-1079","paid","Excel Cuenca ","Jommel Minranda","Jul 02 2018 07:43 PM","224.00"
"QPMM-01-3336","paid","Danielle Anne Pelino","Kristine  Oli","Jul 02 2018 07:49 PM","62.50"
"CCC-01-1670","unpaid","Novel Grooming Concepts, Inc. (Ascott) ","Joebert  Batain ","Jul 02 2018 07:52 PM","702.52"
"CCC-01-1671","unpaid","Novel  Grooming Concepts, Inc. (Somerset)","Joebert  Batain ","Jul 02 2018 07:57 PM","591.36"
"CCC-01-1672","unpaid","Museum Cafe ","Joebert  Batain ","Jul 02 2018 08:09 PM","80.64"
"CCC-01-1673","unpaid","HEY HANDSOME  RESTAURANT","Joebert  Batain ","Jul 02 2018 08:15 PM","563.36"
"BHCT-01-4138","paid","Uzziel Palolan","Rey Jhon Lofranco","Jul 02 2018 09:16 PM","570.00"
"FRMC-01-1080","paid","Dante Cape","Jommel Minranda","Jul 03 2018 09:14 AM","398.00"
"QPMM-01-3337","paid","Alex Sambilay","Kristine  Oli","Jul 03 2018 09:30 AM","257.50"
"QPMM-01-3338","paid","Romeo Laconsay","Kristine  Oli","Jul 03 2018 09:32 AM","155.00"
"QPMM-01-3339","paid","jimnest mendoza","Kristine  Oli","Jul 03 2018 09:39 AM","522.50"
"FRMC-01-1081","paid","Dianne Galang","Jommel Minranda","Jul 03 2018 10:02 AM","126.50"
"QPMM-01-3340","paid","marry ann acosta","Kristine  Oli","Jul 03 2018 10:19 AM","59.50"
"BHCT-01-4139","paid","Rhea Figueroa","Christine  Monrtealegree ","Jul 03 2018 10:25 AM","416.00"
"FRMC-01-1082","paid","Reginald Ramos","Jommel Minranda","Jul 03 2018 10:26 AM","322.00"
"BHCT-01-4140","paid","Geeann Anuada","Christine  Monrtealegree ","Jul 03 2018 10:40 AM","178.50"
"BHCT-01-4141","paid","Paolo  Dela Cuesta","Christine  Monrtealegree ","Jul 03 2018 11:02 AM","574.00"
"BHCT-01-4142","paid","Abegyl Albano","Christine  Monrtealegree ","Jul 03 2018 11:38 AM","830.00"
"QPMM-01-3341","unpaid","ROWEL  CORTEZ","Kristine  Oli","Jul 03 2018 12:40 PM","137.50"
"QPMM-01-3342","unpaid","ROWEL  CORTEZ","Kristine  Oli","Jul 03 2018 12:42 PM","192.50"
"BHCT-01-4143","paid","Joselito Abalahin","Christine  Monrtealegree ","Jul 03 2018 01:48 PM","920.00"
"BHCT-01-4144","paid","Mary Rose Antonio","Christine  Monrtealegree ","Jul 03 2018 01:59 PM","218.00"
"BHCT-01-4145","paid","Kyle Grandea","Christine  Monrtealegree ","Jul 03 2018 02:12 PM","625.00"
"BHCT-01-4146","paid","Kevin Nico Eniego","Christine  Monrtealegree ","Jul 03 2018 02:19 PM","257.50"
"BHCT-01-4147","paid","Fred Lanado","Christine  Monrtealegree ","Jul 03 2018 02:25 PM","300.00"
"BHCT-01-4148","paid","Roland Ian Medel","Christine  Monrtealegree ","Jul 03 2018 02:29 PM","125.00"
"BHCT-01-4149","paid","Royce Angelie Medel","Christine  Monrtealegree ","Jul 03 2018 02:31 PM","130.00"
"BHCT-01-4150","paid","Daisy Lyn  Arcenas ","Christine  Monrtealegree ","Jul 03 2018 02:36 PM","600.00"
"CCC-01-1674","unpaid","Wessenxals - Anne Villanueva","Joebert  Batain ","Jul 03 2018 05:45 PM","329.00"
"BHCT-01-4151","paid","Tasha Levinna","Christine  Monrtealegree ","Jul 03 2018 06:41 PM","178.00"
"BHCT-01-4152","paid","Mita Palawan","Christine  Monrtealegree ","Jul 03 2018 07:08 PM","435.00"
"QPMM-01-3343","paid","Maria Antonio","Kristine  Oli","Jul 03 2018 07:17 PM","162.00"
"QPMM-01-3344","paid","Larken De Oca","Kristine  Oli","Jul 03 2018 07:37 PM","87.50"
"QPMM-01-3345","paid","bombay bombay","Kristine  Oli","Jul 03 2018 07:38 PM","205.00"
"FRMC-01-1083","paid","Von Salas","Jommel Minranda","Jul 03 2018 07:40 PM","107.50"
"QPMM-01-3346","paid","Joan Lumawag","Kristine  Oli","Jul 03 2018 08:39 PM","145.00"
"CCC-01-1675","unpaid","Terraz  By Raintree ","Joebert  Batain ","Jul 04 2018 06:19 AM","287.28"
"CCC-01-1676","unpaid","Palm Garden Spa","Joebert  Batain ","Jul 04 2018 06:22 AM","604.00"
"CCC-01-1677","unpaid","Novel  Grooming Concepts, Inc. (Somerset)","Joebert  Batain ","Jul 04 2018 06:26 AM","418.60"
"CCC-01-1678","unpaid","Novel Grooming Concepts, Inc. (Ascott) ","Joebert  Batain ","Jul 04 2018 06:29 AM","498.40"
"QPMM-01-3347","paid","Edwin  Concha","Kristine  Oli","Jul 04 2018 08:20 AM","90.00"
"QPMM-01-3348","paid","Ronald Tila","Kristine  Oli","Jul 04 2018 09:19 AM","107.50"
"BHCT-01-4153","paid","Cathy Carangan","Rey Jhon Lofranco","Jul 04 2018 10:38 AM","171.00"
"BHCT-01-4154","paid","Edwin Reyes","Rey Jhon Lofranco","Jul 04 2018 11:06 AM","359.00"
"QPMM-01-3349","paid","Brigilda Francisco","Kristine  Oli","Jul 04 2018 11:14 AM","282.50"
"BHCT-01-4155","paid","Emma Vailoces","Rey Jhon Lofranco","Jul 04 2018 11:20 AM","125.00"
"BHCT-01-4156","paid","Anne Klein Olma Hernandez","Rey Jhon Lofranco","Jul 04 2018 11:35 AM","186.50"
"BHCT-01-4157","paid","Aster Valdellon","Rey Jhon Lofranco","Jul 04 2018 11:53 AM","133.50"
"BHCT-01-4158","paid","Nel Alcanzare","Rey Jhon Lofranco","Jul 04 2018 12:22 PM","181.50"
"BHCT-01-4159","paid","Luis Lozano","Rey Jhon Lofranco","Jul 04 2018 12:37 PM","130.00"
"BHCT-01-4160","paid","Isay Octava","Rey Jhon Lofranco","Jul 04 2018 01:04 PM","333.50"
"BHCT-01-4161","paid","Alvin Baculanta","Rey Jhon Lofranco","Jul 04 2018 01:22 PM","405.00"
"QPMM-01-3350","paid","Ch. Tirso  Estoque","Kristine  Oli","Jul 04 2018 01:39 PM","375.00"
"BHCT-01-4162","paid","Emmanuel Escalante","Rey Jhon Lofranco","Jul 04 2018 01:42 PM","125.00"
"BHCT-01-4163","paid","Mary Rose Antonio","Rey Jhon Lofranco","Jul 04 2018 01:52 PM","284.50"
"BHCT-01-4164","unpaid","Cesar Ramboanga","Rey Jhon Lofranco","Jul 04 2018 02:11 PM","765.00"
"BHCT-01-4165","paid","Cesar Ramboanga","Rey Jhon Lofranco","Jul 04 2018 02:14 PM","220.00"
"BHCT-01-4166","paid","Michelle Llevado","Rey Jhon Lofranco","Jul 04 2018 04:03 PM","751.00"
"QPMM-01-3351","unpaid","jonathan fernandez","Kristine  Oli","Jul 04 2018 04:33 PM","102.50"
"FRMC-01-1084","paid","Shary Torrecampo","Jommel Minranda","Jul 04 2018 04:48 PM","121.50"
"FRMC-01-1085","paid","Raymund Danas","Jommel Minranda","Jul 04 2018 05:24 PM","77.50"
"BHCT-01-4167","paid","Jeane Iglesia","Rey Jhon Lofranco","Jul 04 2018 05:42 PM","1111.00"
"QPMM-01-3352","paid","Genaro Lumanlan","Kristine  Oli","Jul 04 2018 05:57 PM","92.00"
"PUDV-01-1679","paid","Clear Value Medical Center (Manila Vision) (Attn: Jiselle Vergara ) ","Joebert  Batain ","Jul 04 2018 06:15 PM","837.50"
"BHCT-01-4168","paid","Elise Ednaco","Rey Jhon Lofranco","Jul 04 2018 06:19 PM","291.00"
"PUDV-01-1680","paid","Tower 3 Tonsy","Joebert  Batain ","Jul 04 2018 06:35 PM","365.00"
"PUDV-01-1681","paid","Gary Iribarren","Joebert  Batain ","Jul 04 2018 06:52 PM","250.00"
"PUDV-01-1682","paid","Perla Roy","Joebert  Batain ","Jul 04 2018 07:05 PM","472.00"
"QPMM-01-3353","unpaid","Jovelino Ballesteros","Kristine  Oli","Jul 04 2018 07:29 PM","155.00"
"CCC-01-1683","unpaid","Novel  Grooming Concepts, Inc. (Somerset)","Joebert  Batain ","Jul 04 2018 07:35 PM","226.80"
"CCC-01-1684","unpaid","Novel Grooming Concepts, Inc. (Ascott) ","Joebert  Batain ","Jul 04 2018 07:40 PM","333.20"
"CCC-01-1685","unpaid","HEY HANDSOME  RESTAURANT","Joebert  Batain ","Jul 04 2018 07:47 PM","187.04"
"QPMM-01-3354","paid","Mary Grace Palomeras","Kristine  Oli","Jul 04 2018 07:55 PM","297.50"
"FRMC-01-1086","unpaid","Francesca Camille Escano","Jommel Minranda","Jul 04 2018 08:31 PM","285.50"
"BHCT-01-4169","paid","Marielle Ong","Rey Jhon Lofranco","Jul 05 2018 10:08 AM","187.50"
"BHCT-01-4170","paid","Sid Chun","Rey Jhon Lofranco","Jul 05 2018 10:20 AM","125.00"
"BHCT-01-4171","paid","Abegyl Albano","Rey Jhon Lofranco","Jul 05 2018 10:30 AM","400.00"
"BHCT-01-4172","paid","Sid Chun","Rey Jhon Lofranco","Jul 05 2018 10:45 AM","125.00"
"QPMM-01-3355","paid","Carmela Callos","Kristine  Oli","Jul 05 2018 10:50 AM","378.00"
"BHCT-01-4173","paid","Shaun Smith ","Rey Jhon Lofranco","Jul 05 2018 11:03 AM","155.00"
"BHCT-01-4174","paid","Racelo Raz","Rey Jhon Lofranco","Jul 05 2018 11:12 AM","147.50"
"BHCT-01-4175","paid","Jay Chan","Rey Jhon Lofranco","Jul 05 2018 11:46 AM","232.50"
"BHCT-01-4176","paid","Leah Padernal","Rey Jhon Lofranco","Jul 05 2018 12:03 PM","285.00"
"BHCT-01-4177","paid","Mrs. Albert","Rey Jhon Lofranco","Jul 05 2018 12:30 PM","266.00"
"QPMM-01-3356","paid","Mark Bryan Bechayda","Kristine  Oli","Jul 05 2018 01:59 PM","62.50"
"BHCT-01-4178","paid","Regis Leveriza","Rey Jhon Lofranco","Jul 05 2018 03:41 PM","352.50"
"QPMM-01-3357","paid","Bernie Liwanag","Kristine  Oli","Jul 05 2018 03:51 PM","357.50"
"BHCT-01-4179","paid","Gino Etrone","Rey Jhon Lofranco","Jul 05 2018 03:55 PM","213.00"
"QPMM-01-3358","paid","Mark Bryan Bechayda","Kristine  Oli","Jul 05 2018 04:04 PM","50.00"
"QPMM-01-3359","paid","Ronald  Villaester","Kristine  Oli","Jul 05 2018 04:51 PM","75.00"
"QPMM-01-3360","paid","yoko jenny  lim","Kristine  Oli","Jul 05 2018 04:56 PM","87.50"
"BHCT-01-4180","paid","Christian Sowa","Rey Jhon Lofranco","Jul 05 2018 05:58 PM","250.00"
"BHCT-01-4181","unpaid","Edward Alberto","Rey Jhon Lofranco","Jul 05 2018 06:17 PM","367.50"
"BHCT-01-4182","paid","Charles  Llagas","Rey Jhon Lofranco","Jul 05 2018 06:27 PM","238.00"
"BHCT-01-4183","paid","Racelo Raz","Rey Jhon Lofranco","Jul 05 2018 06:35 PM","127.50"
"QPMM-01-3361","paid","Joerian Viola","Kristine  Oli","Jul 05 2018 07:07 PM","143.00"
"QPMM-01-3362","paid","Emma Lopez","Kristine  Oli","Jul 05 2018 07:15 PM","300.00"
"CCC-01-1686","unpaid","Terraz  By Raintree ","Joebert  Batain ","Jul 05 2018 07:28 PM","706.50"
"CCC-01-1687","unpaid","Museum Cafe ","Joebert  Batain ","Jul 05 2018 07:31 PM","321.44"
"CCC-01-1688","unpaid","HEY HANDSOME  RESTAURANT","Joebert  Batain ","Jul 05 2018 07:37 PM","178.08"
"CCC-01-1689","unpaid","Novel  Grooming Concepts, Inc. (Somerset)","Joebert  Batain ","Jul 05 2018 07:43 PM","373.24"
"CCC-01-1690","unpaid","Novel Grooming Concepts, Inc. (Ascott) ","Joebert  Batain ","Jul 05 2018 07:48 PM","284.20"
"BHCT-01-4184","paid","Alden Kelvin Policar","Rey Jhon Lofranco","Jul 05 2018 08:41 PM","562.00"
"QPMM-01-3363","paid","Mandy Avinanto","Kristine  Oli","Jul 05 2018 08:56 PM","75.00"
"FRMC-01-1087","paid","Dianne Galang","Jommel Minranda","Jul 06 2018 09:28 AM","79.50"
"FRMC-01-1088","paid","Reginald Ramos","Jommel Minranda","Jul 06 2018 10:01 AM","129.00"
"FRMC-01-1089","paid","Yollie Bristol","Jommel Minranda","Jul 06 2018 10:15 AM","159.00"
"FRMC-01-1090","paid","Yollie Bristol","Jommel Minranda","Jul 06 2018 10:34 AM","240.00"
"BHCT-01-4185","paid","Paulo Adraneda","Christine  Monrtealegree ","Jul 06 2018 11:06 AM","192.50"
"BHCT-01-4186","paid","Oscar Lopez","Christine  Monrtealegree ","Jul 06 2018 11:24 AM","500.00"
"BHCT-01-4187","paid","Jomel Lozano","Christine  Monrtealegree ","Jul 06 2018 11:56 AM","288.50"
"BHCT-01-4188","paid","Rowin Angkico","Christine  Monrtealegree ","Jul 06 2018 12:25 PM","246.00"
"BHCT-01-4189","paid","Honey Santiago","Christine  Monrtealegree ","Jul 06 2018 12:47 PM","233.00"
"BHCT-01-4190","paid","Nel Alcanzare","Christine  Monrtealegree ","Jul 06 2018 01:05 PM","294.50"
"BHCT-01-4191","paid","Myles  Dela Rosa","Christine  Monrtealegree ","Jul 06 2018 01:32 PM","328.50"
"BHCT-01-4192","unpaid","Jo Tesalona ","Christine  Monrtealegree ","Jul 06 2018 02:08 PM","380.00"
"PUDV-01-1691","paid","Hannah May  Bagares ","Joebert  Batain ","Jul 06 2018 02:16 PM","478.50"
"BHCT-01-4193","paid","Michael Yee","Christine  Monrtealegree ","Jul 06 2018 02:26 PM","128.50"
"PUDV-01-1692","paid","Maricarr Palmero","Joebert  Batain ","Jul 06 2018 02:34 PM","345.00"
"BHCT-01-4194","paid","Kyle Baculanta","Christine  Monrtealegree ","Jul 06 2018 02:37 PM","127.50"
"CCC-01-1693","unpaid","Terraz  By Raintree ","Joebert  Batain ","Jul 06 2018 02:46 PM","453.60"
"BHCT-01-4195","paid","Celyne Zarraga","Christine  Monrtealegree ","Jul 06 2018 02:49 PM","158.50"
"CCC-01-1694","unpaid","HEY HANDSOME  RESTAURANT","Joebert  Batain ","Jul 06 2018 02:50 PM","1435.00"
"CCC-01-1695","unpaid","Novel Grooming Concepts, Inc. (Ascott) ","Joebert  Batain ","Jul 06 2018 02:54 PM","409.64"
"CCC-01-1696","unpaid","Palm Garden Spa","Joebert  Batain ","Jul 06 2018 03:24 PM","404.00"
"BHCT-01-4196","paid","Jeh Villarmino","Christine  Monrtealegree ","Jul 06 2018 03:24 PM","405.50"
"CCC-01-1697","unpaid","Novel  Grooming Concepts, Inc. (Somerset)","Joebert  Batain ","Jul 06 2018 03:29 PM","374.36"
"BHCT-01-4197","paid","Mita Palawan","Christine  Monrtealegree ","Jul 06 2018 03:58 PM","412.50"
"BHCT-01-4198","paid","Xandro Pincaro","Christine  Monrtealegree ","Jul 06 2018 04:37 PM","323.50"
"FRMC-01-1091","paid","Angelica Gonzales","Jommel Minranda","Jul 06 2018 05:09 PM","237.50"
"BHCT-01-4199","paid","Joseph Vital ","Christine  Monrtealegree ","Jul 06 2018 05:20 PM","133.00"
"BHCT-01-4200","paid","Samejon Rene","Christine  Monrtealegree ","Jul 06 2018 05:41 PM","125.00"
"QPMM-01-3364","paid","arnold azul","Kristine  Oli","Jul 06 2018 05:43 PM","258.50"
"BHCT-01-4201","paid","Anthony Mangahas","Christine  Monrtealegree ","Jul 06 2018 06:02 PM","125.00"
"FRMC-01-1092","paid","Bernard Ampeloquio","Jommel Minranda","Jul 06 2018 06:15 PM","357.50"
"FRMC-01-1093","unpaid","Michelle De Vera ","Jommel Minranda","Jul 06 2018 07:01 PM","127.00"
"QPMM-01-3365","paid","ronnie canto","Kristine  Oli","Jul 06 2018 08:10 PM","116.50"
"FRMC-01-1094","paid","Jeremias Paras","Jommel Minranda","Jul 07 2018 09:14 AM","247.00"
"QPMM-01-3366","paid","Anne  Scott","Kristine  Oli","Jul 07 2018 09:38 AM","220.50"
"QPMM-01-3367","paid","Nilo Generoso","Kristine  Oli","Jul 07 2018 09:40 AM","101.50"
"PUDV-01-1698","paid","Veronica Aguas","Joebert  Batain ","Jul 07 2018 09:42 AM","250.00"
"FRMC-01-1095","paid","Gem Villarico","Jommel Minranda","Jul 07 2018 10:03 AM","337.50"
"BHCT-01-4202","paid","Lenita Nakpil","Rey Jhon Lofranco","Jul 07 2018 10:19 AM","295.00"
"BHCT-01-4203","paid","Nikko Decembrano","Rey Jhon Lofranco","Jul 07 2018 10:41 AM","214.00"
"QPMM-01-3368","paid","Sonny Boyaljecera","Kristine  Oli","Jul 07 2018 10:55 AM","60.00"
"QPMM-01-3369","paid","Jennifer  Manalo","Kristine  Oli","Jul 07 2018 10:58 AM","210.00"
"BHCT-01-4204","paid","Kenneth Samonte","Rey Jhon Lofranco","Jul 07 2018 11:04 AM","138.00"
"BHCT-01-4205","paid","Mary Joanne Vargas","Rey Jhon Lofranco","Jul 07 2018 11:33 AM","335.00"
"BHCT-01-4206","paid","Mary Rose Antonio","Rey Jhon Lofranco","Jul 07 2018 11:50 AM","125.00"
"BHCT-01-4207","paid","Zean Razon","Rey Jhon Lofranco","Jul 07 2018 11:59 AM","187.50"
"QPMM-01-3370","paid","Gabrielle  Adina","Kristine  Oli","Jul 07 2018 12:11 PM","70.00"
"BHCT-01-4208","paid","Aldovs Tirona","Rey Jhon Lofranco","Jul 07 2018 12:23 PM","170.00"
"BHCT-01-4209","paid","Aldovs Tirona","Rey Jhon Lofranco","Jul 07 2018 12:32 PM","170.00"
"BHCT-01-4210","paid","Aldovs Tirona","Rey Jhon Lofranco","Jul 07 2018 12:36 PM","200.00"
"QPMM-01-3371","paid","john carlo  tierra","Kristine  Oli","Jul 07 2018 01:02 PM","167.50"
"BHCT-01-4211","paid","Luisa Gonzales","Rey Jhon Lofranco","Jul 07 2018 01:02 PM","125.00"
"FRMC-01-1096","paid","Leven Cerezo","Jommel Minranda","Jul 07 2018 01:11 PM","132.00"
"BHCT-01-4212","paid","Marita Connor","Rey Jhon Lofranco","Jul 07 2018 01:30 PM","333.50"
"QPMM-01-3372","paid","Algerico Dangco","Kristine  Oli","Jul 07 2018 01:33 PM","87.50"
"QPMM-01-3373","paid","rowel tolentino","Kristine  Oli","Jul 07 2018 01:53 PM","77.50"
"BHCT-01-4213","unpaid","Gina Atienza","Rey Jhon Lofranco","Jul 07 2018 02:09 PM","131.50"
"BHCT-01-4214","paid","Aldovs Tirona","Rey Jhon Lofranco","Jul 07 2018 02:19 PM","690.00"
"BHCT-01-4215","paid","Jeane  Torento","Rey Jhon Lofranco","Jul 07 2018 03:06 PM","379.00"
"BHCT-01-4216","paid","Robert Gregorio","Rey Jhon Lofranco","Jul 07 2018 03:19 PM","344.50"
"BHCT-01-4217","paid","Erik Balaoing","Rey Jhon Lofranco","Jul 07 2018 03:28 PM","205.50"
"QPMM-01-3374","paid","Marco Paolo Dayap","Kristine  Oli","Jul 07 2018 03:35 PM","131.50"
"BHCT-01-4218","paid","Carlos Ruiz","Rey Jhon Lofranco","Jul 07 2018 03:41 PM","180.00"
"QPMM-01-3375","paid","Tim Crisologo","Kristine  Oli","Jul 07 2018 04:40 PM","165.00"
"QPMM-01-3376","paid","virgilio alicabo","Kristine  Oli","Jul 07 2018 04:54 PM","200.00"
"CCC-01-1699","unpaid","Terraz  By Raintree ","Joebert  Batain ","Jul 07 2018 05:23 PM","961.52"
"QPMM-01-3377","paid","Larken De Oca","Kristine  Oli","Jul 07 2018 05:30 PM","102.50"
"QPMM-01-3378","paid","renato alivia","Kristine  Oli","Jul 07 2018 05:32 PM","113.50"
"FRMC-01-1097","paid","Joel Tambalong","Jommel Minranda","Jul 07 2018 05:53 PM","236.50"
"CCC-01-1700","unpaid","HEY HANDSOME  RESTAURANT","Joebert  Batain ","Jul 07 2018 05:58 PM","318.00"
"CCC-01-1701","unpaid","Museum Cafe ","Joebert  Batain ","Jul 07 2018 06:02 PM","60.48"
"BHCT-01-4219","unpaid","Mary Grace Llorada","Rey Jhon Lofranco","Jul 07 2018 06:04 PM","175.00"
"CCC-01-1702","unpaid","Novel  Grooming Concepts, Inc. (Somerset)","Joebert  Batain ","Jul 07 2018 06:06 PM","356.72"
"CCC-01-1703","unpaid","Novel Grooming Concepts, Inc. (Ascott) ","Joebert  Batain ","Jul 07 2018 06:15 PM","380.80"
"CCC-01-1704","unpaid","Novel Grooming Concepts, Inc. (Ascott) ","Joebert  Batain ","Jul 07 2018 06:25 PM","144.76"
"CCC-01-1705","unpaid","Novel  Grooming Concepts, Inc. (Somerset)","Joebert  Batain ","Jul 07 2018 06:31 PM","464.25"
"FRMC-01-1098","paid","Mackie Yee","Jommel Minranda","Jul 07 2018 06:40 PM","300.00"
"CCC-01-1706","unpaid","Palm Garden Spa","Joebert  Batain ","Jul 07 2018 06:42 PM","488.00"
"CCC-01-1707","unpaid","HEY HANDSOME  RESTAURANT","Joebert  Batain ","Jul 07 2018 06:48 PM","152.32"
"QPMM-01-3379","paid","Carmela Callos","Kristine  Oli","Jul 07 2018 07:02 PM","175.00"
"QPMM-01-3380","paid","Joel Gayda","Kristine  Oli","Jul 07 2018 07:06 PM","162.50"
"QPMM-01-3381","paid","Lorina Oyales","Kristine  Oli","Jul 07 2018 07:42 PM","150.00"
"FRMC-01-1099","paid","Ryan Bagaipo","Jommel Minranda","Jul 08 2018 09:01 AM","102.50"
"FRMC-01-1100","paid","Sherwin Montano","Jommel Minranda","Jul 08 2018 09:59 AM","286.50"
"BHCT-01-4220","paid","Criselle  Tung","Christine  Monrtealegree ","Jul 08 2018 10:35 AM","126.00"
"BHCT-01-4221","paid","Anna Zhang","Christine  Monrtealegree ","Jul 08 2018 10:57 AM","125.00"
"BHCT-01-4222","paid","Allen Santos","Christine  Monrtealegree ","Jul 08 2018 11:11 AM","125.00"
"PUDV-01-1708","paid","Eastwest Biointegrative Health Center ","Joebert  Batain ","Jul 08 2018 11:25 AM","317.50"
"BHCT-01-4223","paid","Ericka Pambid","Christine  Monrtealegree ","Jul 08 2018 11:42 AM","140.50"
"BHCT-01-4224","paid","Isay Octava","Christine  Monrtealegree ","Jul 08 2018 12:11 PM","158.00"
"BHCT-01-4225","paid","Abraham Ajoc","Christine  Monrtealegree ","Jul 08 2018 12:42 PM","173.50"
"BHCT-01-4226","paid","Valencia Isabela","Christine  Monrtealegree ","Jul 08 2018 01:15 PM","183.00"
"BHCT-01-4227","paid","Xuxia Concepcion","Christine  Monrtealegree ","Jul 08 2018 01:48 PM","130.00"
"BHCT-01-4228","paid","Ivy Joy Tolentino","Christine  Monrtealegree ","Jul 08 2018 02:18 PM","291.00"
"BHCT-01-4229","paid","Warlito Teodoro","Christine  Monrtealegree ","Jul 08 2018 03:02 PM","347.50"
"FRMC-01-1101","unpaid","Mikolo Kylo Manalang","Jommel Minranda","Jul 08 2018 03:23 PM","452.50"
"BHCT-01-4230","paid","Paolo  Dela Cuesta","Christine  Monrtealegree ","Jul 08 2018 03:24 PM","439.00"
"BHCT-01-4231","paid","Kent Joseph Gabucan","Christine  Monrtealegree ","Jul 08 2018 04:05 PM","172.50"
"BHCT-01-4232","paid","Reyah Masalunga","Christine  Monrtealegree ","Jul 08 2018 04:44 PM","286.00"
"BHCT-01-4233","paid","Kyle Imperio","Christine  Monrtealegree ","Jul 08 2018 05:21 PM","211.00"
"CCC-01-1709","unpaid","HEY HANDSOME  RESTAURANT","Joebert  Batain ","Jul 08 2018 05:32 PM","701.12"
"CCC-01-1710","unpaid","Novel Grooming Concepts, Inc. (Ascott) ","Joebert  Batain ","Jul 08 2018 05:38 PM","441.56"
"CCC-01-1711","unpaid","Novel  Grooming Concepts, Inc. (Somerset)","Joebert  Batain ","Jul 08 2018 05:51 PM","585.00"
"BHCT-01-4234","paid","Raymund Danao","Christine  Monrtealegree ","Jul 08 2018 05:54 PM","425.00"
"CCC-01-1712","unpaid","Museum Cafe ","Joebert  Batain ","Jul 08 2018 05:57 PM","181.44"
"BHCT-01-4235","paid","Raymund Danao","Christine  Monrtealegree ","Jul 08 2018 06:01 PM","538.50"
"PUDV-01-1713","paid","Tatsuki Takimoto","Joebert  Batain ","Jul 08 2018 06:17 PM","250.00"
"QPMM-01-3382","paid","ronaldo  espanola","Kristine  Oli","Jul 08 2018 06:25 PM","134.00"
"QPMM-01-3383","paid","Ross Rivera","Kristine  Oli","Jul 08 2018 06:27 PM","85.00"
"QPMM-01-3384","paid","charisma  mani","Kristine  Oli","Jul 08 2018 06:33 PM","280.00"
"QPMM-01-3385","paid","ROLAND SOLIVA","Kristine  Oli","Jul 08 2018 06:40 PM","179.00"
"QPMM-01-3386","paid","Dexter Alicabo","Kristine  Oli","Jul 08 2018 07:01 PM","175.00"
"QPMM-01-3387","unpaid","valentino reyes","Kristine  Oli","Jul 08 2018 07:05 PM","277.00"
"QPMM-01-3388","paid","Leo Anzano","Kristine  Oli","Jul 08 2018 07:07 PM","170.00"
"BHCT-01-4236","paid","Ron Irvin Marcelino","Christine  Monrtealegree ","Jul 08 2018 07:51 PM","306.00"
"BHCT-01-4237","paid","Leomar Zafra","Christine  Monrtealegree ","Jul 08 2018 07:59 PM","435.00"
"QPMM-01-3389","paid","Mary Grace Palomeras","Kristine  Oli","Jul 08 2018 08:52 PM","170.00"
"QPMM-01-3390","paid","marry ann acosta","Kristine  Oli","Jul 09 2018 08:07 AM","162.50"
"QPMM-01-3391","paid","Norman Oquino","Kristine  Oli","Jul 09 2018 09:09 AM","617.50"
"QPMM-01-3392","paid","Anne  Scott","Kristine  Oli","Jul 09 2018 10:02 AM","175.00"
"QPMM-01-3393","paid","Naths Labado","Kristine  Oli","Jul 09 2018 10:25 AM","150.00"
"QPMM-01-3395","paid","Anne  Scott","Kristine  Oli","Jul 09 2018 11:12 AM","347.50"
"BHCT-01-4238","paid","Shaun Smith ","Christine  Monrtealegree ","Jul 09 2018 11:50 AM","125.00"
"FRMC-01-1102","paid","Dette Granada","Jommel Minranda","Jul 09 2018 12:06 PM","148.00"
"BHCT-01-4239","paid","Errol Pontillas","Christine  Monrtealegree ","Jul 09 2018 12:17 PM","125.00"
"BHCT-01-4240","paid","Mary Rose Antonio","Christine  Monrtealegree ","Jul 09 2018 12:48 PM","208.00"
"BHCT-01-4241","paid","Tristan Castillo","Christine  Monrtealegree ","Jul 09 2018 01:16 PM","430.50"
"BHCT-01-4242","paid","Carlos Aboga","Christine  Monrtealegree ","Jul 09 2018 01:38 PM","175.00"
"BHCT-01-4243","paid","Erick Evangelista","Christine  Monrtealegree ","Jul 09 2018 01:50 PM","193.50"
"BHCT-01-4244","paid","Kenneth Santos","Christine  Monrtealegree ","Jul 09 2018 02:05 PM","125.50"
"BHCT-01-4245","paid","Teena Barretto","Christine  Monrtealegree ","Jul 09 2018 02:25 PM","262.50"
"FRMC-01-1103","paid","Vryx Manalo","Jommel Minranda","Jul 09 2018 02:29 PM","205.00"
"BHCT-01-4246","paid","Nel Alcanzare","Christine  Monrtealegree ","Jul 09 2018 02:38 PM","125.00"
"QPMM-01-3396","paid","Banjo Carino","Kristine  Oli","Jul 09 2018 03:53 PM","112.50"
"QPMM-01-3397","paid","Maribel Posadas","Kristine  Oli","Jul 09 2018 03:57 PM","162.50"
"QPMM-01-3398","unpaid","veronica sunga","Kristine  Oli","Jul 09 2018 04:09 PM","228.00"
"QPMM-01-3399","paid","Irish Erwin Fulgencio","Kristine  Oli","Jul 09 2018 04:38 PM","247.50"
"QPMM-01-3400","paid","Larken De Oca","Kristine  Oli","Jul 09 2018 05:25 PM","50.00"
"PUDV-01-1714","paid","Aida Timbreza","Joebert  Batain ","Jul 09 2018 05:44 PM","502.50"
"QPMM-01-3401","paid","Mj Santos","Kristine  Oli","Jul 09 2018 05:54 PM","162.50"
"PUDV-01-1715","unpaid","Gary Iribarren","Joebert  Batain ","Jul 09 2018 05:56 PM","405.50"
"BHCT-01-4247","paid","Camille Escudero","Christine  Monrtealegree ","Jul 09 2018 06:03 PM","210.50"
"FRMC-01-1104","paid","Joan Castulo","Jommel Minranda","Jul 09 2018 06:11 PM","216.00"
"QPMM-01-3402","paid","Ryan  Guevarra","Kristine  Oli","Jul 09 2018 06:17 PM","187.50"
"BHCT-01-4248","paid","Andrew Phiri","Christine  Monrtealegree ","Jul 09 2018 06:25 PM","125.00"
"QPMM-01-3403","paid","Glenn Dano","Kristine  Oli","Jul 09 2018 06:37 PM","85.00"
"BHCT-01-4249","paid","Bryan Oscar Ong","Christine  Monrtealegree ","Jul 09 2018 06:40 PM","267.50"
"BHCT-01-4250","paid","Rudolph Madara","Christine  Monrtealegree ","Jul 09 2018 06:54 PM","383.00"
"QPMM-01-3404","paid","Edwin  Concha","Kristine  Oli","Jul 09 2018 07:04 PM","112.50"
"FRMC-01-1105","unpaid","Excel Cuenca ","Jommel Minranda","Jul 09 2018 07:06 PM","215.50"
"BHCT-01-4251","paid","Joan Gumtang","Christine  Monrtealegree ","Jul 09 2018 07:18 PM","694.50"
"QPMM-01-3405","paid","Amgad Naif","Kristine  Oli","Jul 09 2018 08:42 PM","162.50"
"QPMM-01-3406","paid","sherly cancino","Kristine  Oli","Jul 10 2018 09:04 AM","164.00"
"QPMM-01-3407","paid","Hazel Balaba","Kristine  Oli","Jul 10 2018 09:08 AM","112.50"
"QPMM-01-3408","paid","tristan maceda","Kristine  Oli","Jul 10 2018 09:13 AM","173.00"
"FRMC-01-1106","paid","Ivan Vincent  Barrientos","Jommel Minranda","Jul 10 2018 09:26 AM","132.50"
"BHCT-01-4252","paid","Sam Ramos ","Christine  Monrtealegree ","Jul 10 2018 10:59 AM","235.00"
"BHCT-01-4253","paid","Abegyl Albano","Christine  Monrtealegree ","Jul 10 2018 11:54 AM","1092.50"
"QPMM-01-3409","paid","Paul  Heyres","Kristine  Oli","Jul 10 2018 12:23 PM","50.00"
"QPMM-01-3410","paid","Diane Samaniego","Kristine  Oli","Jul 10 2018 12:29 PM","50.00"
"QPMM-01-3411","paid","jonathan fernandez","Kristine  Oli","Jul 10 2018 12:58 PM","75.00"
"BHCT-01-4254","unpaid","Jeanette Rabacio","Christine  Monrtealegree ","Jul 10 2018 01:15 PM","590.00"
"QPMM-01-3412","paid","Gabrielle  Adina","Kristine  Oli","Jul 10 2018 01:54 PM","87.50"
"QPMM-01-3413","paid","Erenaldo Poller","Kristine  Oli","Jul 10 2018 01:57 PM","187.50"
"BHCT-01-4255","paid","Fred Lanado","Christine  Monrtealegree ","Jul 10 2018 01:59 PM","243.50"
"QPMM-01-3414","paid","Jojo Casipit","Kristine  Oli","Jul 10 2018 02:13 PM","67.50"
"BHCT-01-4256","paid","Daryl Bautista","Christine  Monrtealegree ","Jul 10 2018 02:14 PM","125.00"
"QPMM-01-3415","paid","rogie cesario","Kristine  Oli","Jul 10 2018 02:19 PM","57.50"
"BHCT-01-4257","paid","Frances Feranil","Christine  Monrtealegree ","Jul 10 2018 02:32 PM","180.50"
"BHCT-01-4258","paid","Dox Gomez","Christine  Monrtealegree ","Jul 10 2018 02:52 PM","2065.00"
"FRMC-01-1107","paid","Rafael Jose Militante","Jommel Minranda","Jul 10 2018 02:55 PM","210.00"
"CCC-01-1716","unpaid","Palm Garden Spa","Joebert  Batain ","Jul 10 2018 03:19 PM","804.00"
"CCC-01-1717","unpaid","Novel Grooming Concepts, Inc. (Ascott) ","Joebert  Batain ","Jul 10 2018 03:28 PM","458.92"
"BHCT-01-4259","paid","Julius De Jesus","Christine  Monrtealegree ","Jul 10 2018 03:35 PM","668.00"
"CCC-01-1718","unpaid","Terraz  By Raintree ","Joebert  Batain ","Jul 10 2018 03:41 PM","918.40"
"QPMM-01-3416","paid","Myrna Bello","Kristine  Oli","Jul 10 2018 03:53 PM","137.50"
"CCC-01-1719","unpaid","Novel  Grooming Concepts, Inc. (Somerset)","Joebert  Batain ","Jul 10 2018 04:02 PM","502.60"
"BHCT-01-4260","paid","May Angelique Bagio","Christine  Monrtealegree ","Jul 10 2018 04:14 PM","230.00"
"QPMM-01-3417","paid","Ester Pilapil","Kristine  Oli","Jul 10 2018 04:45 PM","234.00"
"BHCT-01-4261","paid","Maricris Labrador","Christine  Monrtealegree ","Jul 10 2018 04:51 PM","387.50"
"BHCT-01-4262","paid","Daisy Lyn  Arcenas ","Christine  Monrtealegree ","Jul 10 2018 05:35 PM","628.50"
"QPMM-01-3418","paid","Alex Sambilay","Kristine  Oli","Jul 10 2018 06:42 PM","285.00"
"FRMC-01-1108","paid","Jelynne Wabe","Jommel Minranda","Jul 10 2018 07:08 PM","458.50"
"QPMM-01-3419","paid","Flover Soberano","Kristine  Oli","Jul 10 2018 07:22 PM","67.00"
"QPMM-01-3420","paid","Corazon Opena","Kristine  Oli","Jul 10 2018 09:30 PM","250.00"
"QPMM-01-3421","paid","Rico  Abuena","Kristine  Oli","Jul 11 2018 08:58 AM","55.00"
"QPMM-01-3422","paid","jc manalo","Kristine  Oli","Jul 11 2018 09:39 AM","312.50"
"QPMM-01-3423","paid","jorge madridano","Kristine  Oli","Jul 11 2018 09:44 AM","200.00"
"QPMM-01-3424","paid","Tintin Mangubat","Kristine  Oli","Jul 11 2018 10:21 AM","50.00"
"BHCT-01-4263","paid","Marielle Ong","Christine  Monrtealegree ","Jul 11 2018 10:38 AM","216.00"
"BHCT-01-4264","unpaid","Lilibeth Maria Luga","Christine  Monrtealegree ","Jul 11 2018 11:07 AM","360.00"
"BHCT-01-4265","unpaid","Lilibeth Maria Luga","Christine  Monrtealegree ","Jul 11 2018 11:11 AM","414.50"
"BHCT-01-4266","unpaid","Lilibeth Maria Luga","Christine  Monrtealegree ","Jul 11 2018 11:13 AM","263.50"
"FRMC-01-1109","unpaid","Marsey Tolentino","Jommel Minranda","Jul 11 2018 11:29 AM","410.50"
"BHCT-01-4267","paid","Riebyy Ann Montesa","Christine  Monrtealegree ","Jul 11 2018 12:03 PM","223.50"
"FRMC-01-1110","paid","Dianne Galang","Jommel Minranda","Jul 11 2018 12:16 PM","83.00"
"BHCT-01-4268","paid","Leah Padernal","Christine  Monrtealegree ","Jul 11 2018 12:48 PM","203.50"
"BHCT-01-4269","unpaid","Ma Teresa Cruz","Christine  Monrtealegree ","Jul 11 2018 01:12 PM","271.00"
"BHCT-01-4270","paid","Paolo  Dela Cuesta","Christine  Monrtealegree ","Jul 11 2018 01:57 PM","378.50"
"FRMC-01-1111","paid","Alexies Corpuz","Jommel Minranda","Jul 11 2018 02:11 PM","150.00"
"BHCT-01-4271","paid","Tasha Levinna","Christine  Monrtealegree ","Jul 11 2018 02:37 PM","264.00"
"BHCT-01-4272","paid","Maybell Torres","Christine  Monrtealegree ","Jul 11 2018 03:18 PM","160.00"
"QPMM-01-3425","paid","Myrna Bello","Kristine  Oli","Jul 11 2018 03:37 PM","125.00"
"PUDV-01-1720","unpaid","Dra. Quincy Raya","Joebert  Batain ","Jul 11 2018 04:26 PM","559.00"
"QPMM-01-3426","paid","Donato Macapagal","Kristine  Oli","Jul 11 2018 04:39 PM","135.00"
"QPMM-01-3427","paid","Maria Antonio","Kristine  Oli","Jul 11 2018 04:54 PM","348.00"
"BHCT-01-4273","paid","Kenneth Santos","Christine  Monrtealegree ","Jul 11 2018 06:47 PM","147.50"
"QPMM-01-3428","paid","elena bautista","Kristine  Oli","Jul 11 2018 06:49 PM","185.00"
"CCC-01-1721","unpaid","Novel Grooming Concepts, Inc. (Ascott) ","Joebert  Batain ","Jul 11 2018 07:00 PM","275.80"
"BHCT-01-4274","paid","Mita Palawan","Christine  Monrtealegree ","Jul 11 2018 07:02 PM","262.50"
"CCC-01-1722","unpaid","HEY HANDSOME  RESTAURANT","Joebert  Batain ","Jul 11 2018 07:27 PM","418.88"
"BHCT-01-4275","paid","Vilma Mediante","Christine  Monrtealegree ","Jul 11 2018 07:29 PM","250.00"
"CCC-01-1723","unpaid","Museum Cafe ","Joebert  Batain ","Jul 11 2018 07:35 PM","206.64"
"CCC-01-1724","unpaid","Novel  Grooming Concepts, Inc. (Somerset)","Joebert  Batain ","Jul 11 2018 07:41 PM","411.32"
"FRMC-01-1112","paid","Nembres Tungcul","Jommel Minranda","Jul 11 2018 07:58 PM","210.00"
"QPMM-01-3429","paid","kenneth garcia","Kristine  Oli","Jul 11 2018 08:03 PM","125.00"
"QPMM-01-3430","paid","Carmela Callos","Kristine  Oli","Jul 12 2018 10:16 AM","205.50"
"PUDV-01-1725","paid","Liza Reyes","Joebert  Batain ","Jul 12 2018 10:34 AM","825.00"
"FRMC-01-1113","unpaid","Joel Orovo","Jommel Minranda","Jul 12 2018 10:54 AM","214.50"
"BHCT-01-4276","unpaid","Karlous CO","Rey Jhon Lofranco","Jul 12 2018 11:19 AM","300.00"
"BHCT-01-4277","unpaid","Uzziel Palolan","Rey Jhon Lofranco","Jul 12 2018 11:25 AM","350.00"
"BHCT-01-4278","paid","Dimesh G","Rey Jhon Lofranco","Jul 12 2018 12:34 PM","346.00"
"BHCT-01-4279","unpaid","Tats Luna","Rey Jhon Lofranco","Jul 12 2018 12:59 PM","182.50"
"FRMC-01-1114","paid","Liza Asis","Jommel Minranda","Jul 12 2018 01:05 PM","260.00"
"BHCT-01-4280","paid","Mary Rose Antonio","Rey Jhon Lofranco","Jul 12 2018 01:13 PM","130.00"
"BHCT-01-4281","unpaid","Mary joy Penaflorida","Rey Jhon Lofranco","Jul 12 2018 01:29 PM","411.00"
"BHCT-01-4282","unpaid","Mita Neogi","Rey Jhon Lofranco","Jul 12 2018 01:52 PM","141.50"
"BHCT-01-4283","paid","Richard Roxas","Rey Jhon Lofranco","Jul 12 2018 02:25 PM","1051.00"
"BHCT-01-4284","paid","Geeann Anuada","Rey Jhon Lofranco","Jul 12 2018 02:57 PM","396.00"
"BHCT-01-4285","paid","Tasha Levinna","Rey Jhon Lofranco","Jul 12 2018 03:36 PM","125.00"
"FRMC-01-1115","paid","Kimberly Cruz","Jommel Minranda","Jul 12 2018 03:45 PM","240.00"
"BHCT-01-4286","paid","Bea Dugay","Rey Jhon Lofranco","Jul 12 2018 04:40 PM","145.00"
"QPMM-01-3431","unpaid","charisma  mani","Kristine  Oli","Jul 12 2018 04:46 PM","210.00"
"BHCT-01-4287","paid","Vilma Mediante","Rey Jhon Lofranco","Jul 12 2018 04:53 PM","238.50"
"PUDV-01-1726","paid","Clear Value Medical Center (Manila Vision) (Attn: Jiselle Vergara ) ","Joebert  Batain ","Jul 12 2018 06:32 PM","730.00"
"PUDV-01-1727","unpaid","Tower 3 Tonsy","Joebert  Batain ","Jul 12 2018 06:44 PM","577.50"
"CCC-01-1728","unpaid","Novel Grooming Concepts, Inc. (Ascott) ","Joebert  Batain ","Jul 12 2018 07:05 PM","188.44"
"CCC-01-1729","unpaid","Terraz  By Raintree ","Joebert  Batain ","Jul 12 2018 07:11 PM","342.72"
"CCC-01-1730","unpaid","Novel  Grooming Concepts, Inc. (Somerset)","Joebert  Batain ","Jul 12 2018 07:31 PM","471.25"
"BHCT-01-4288","unpaid","abraham celzo","Rey Jhon Lofranco","Jul 12 2018 08:33 PM","700.00"
"QPMM-01-3432","paid","angeline ladio","Kristine  Oli","Jul 13 2018 08:13 AM","412.50"
"FRMC-01-1116","unpaid","Hans Villanueva","Jommel Minranda","Jul 13 2018 10:07 AM","123.00"
"BHCT-01-4289","unpaid","Lilibeth Maria Luga","Rey Jhon Lofranco","Jul 13 2018 10:19 AM","283.50"
"BHCT-01-4290","unpaid","Lilibeth Maria Luga","Rey Jhon Lofranco","Jul 13 2018 10:24 AM","813.00"
"BHCT-01-4291","paid","Marielle Ong","Rey Jhon Lofranco","Jul 13 2018 11:16 AM","125.00"
"FRMC-01-1117","unpaid","Austin Esguerra","Jommel Minranda","Jul 13 2018 11:19 AM","140.00"
"BHCT-01-4292","paid","Mary Joanne Vargas","Rey Jhon Lofranco","Jul 13 2018 11:40 AM","183.50"
"BHCT-01-4293","paid","Charles  Llagas","Rey Jhon Lofranco","Jul 13 2018 11:56 AM","228.00"
"BHCT-01-4294","paid","Sly Vargas","Rey Jhon Lofranco","Jul 13 2018 12:18 PM","142.50"
"BHCT-01-4295","paid","Oscar Lopez","Rey Jhon Lofranco","Jul 13 2018 12:32 PM","580.00"
"FRMC-01-1118","unpaid","Belen Hernandes","Jommel Minranda","Jul 13 2018 12:35 PM","197.50"
"BHCT-01-4296","unpaid","Joanne Quezon","Rey Jhon Lofranco","Jul 13 2018 12:45 PM","183.00"
"BHCT-01-4297","paid","Andrea David","Rey Jhon Lofranco","Jul 13 2018 01:08 PM","128.50"
"BHCT-01-4298","paid","Rowin Angkico","Rey Jhon Lofranco","Jul 13 2018 01:39 PM","325.00"
"BHCT-01-4299","paid","Mark Serrano","Rey Jhon Lofranco","Jul 13 2018 02:29 PM","445.00"
"PUDV-01-1731","unpaid","George Salud","Joebert  Batain ","Jul 13 2018 02:51 PM","1217.50"
"FRMC-01-1119","unpaid","Jewel Gavino","Jommel Minranda","Jul 13 2018 02:52 PM","115.00"
"FRMC-01-1120","unpaid","Jewel Gavino","Jommel Minranda","Jul 13 2018 03:02 PM","113.00"
"BHCT-01-4300","paid","Reyah Masalunga","Rey Jhon Lofranco","Jul 13 2018 03:15 PM","351.00"
"PUDV-01-1732","paid","Maricarr Palmero","Joebert  Batain ","Jul 13 2018 03:25 PM","322.50"
"BHCT-01-4301","unpaid","Nicole Gimenez","Rey Jhon Lofranco","Jul 13 2018 03:36 PM","362.50"
"CCC-01-1733","unpaid","Terraz  By Raintree ","Joebert  Batain ","Jul 13 2018 03:37 PM","977.76"
"CCC-01-1734","unpaid","Novel Grooming Concepts, Inc. (Ascott) ","Joebert  Batain ","Jul 13 2018 03:42 PM","457.52"
"CCC-01-1735","unpaid","Museum Cafe ","Joebert  Batain ","Jul 13 2018 03:52 PM","89.60"
"CCC-01-1736","unpaid","HEY HANDSOME  RESTAURANT","Joebert  Batain ","Jul 13 2018 04:01 PM","458.08"
"CCC-01-1737","unpaid","Novel  Grooming Concepts, Inc. (Somerset)","Joebert  Batain ","Jul 13 2018 04:04 PM","251.44"
"CCC-01-1738","unpaid","Palm Garden Spa","Joebert  Batain ","Jul 13 2018 04:08 PM","680.50"
"BHCT-01-4302","paid","Emmanuel Escalante","Rey Jhon Lofranco","Jul 13 2018 04:14 PM","125.00"
"BHCT-01-4303","paid","Angelica Cruz","Rey Jhon Lofranco","Jul 13 2018 04:48 PM","125.00"
"QPMM-01-3433","paid","Myrna Bello","Kristine  Oli","Jul 13 2018 04:52 PM","125.00"
"BHCT-01-4304","paid","Kyle Baculanta","Rey Jhon Lofranco","Jul 13 2018 05:04 PM","143.50"
"BHCT-01-4305","paid","Mary Rose Antonio","Rey Jhon Lofranco","Jul 13 2018 05:29 PM","125.00"
"PUDV-02-1739","paid","Jessie Rajad","Joebert  Batain ","Jul 13 2018 06:06 PM","100.00"
"QPMM-01-3435","paid","Genaro Lumanlan","Kristine  Oli","Jul 13 2018 06:25 PM","72.50"
"BHCT-01-4306","paid","Brent Malacad ","Rey Jhon Lofranco","Jul 13 2018 06:28 PM","137.50"
"QPMM-01-3436","paid","jonathan fernandez","Kristine  Oli","Jul 13 2018 06:43 PM","102.50"
"QPMM-01-3437","paid","Anna Estella","Kristine  Oli","Jul 13 2018 07:45 PM","347.00"
"PUDV-01-1740","paid","Veronica Aguas","Joebert  Batain ","Jul 14 2018 09:00 AM","275.00"
"PUDV-01-1741","unpaid","Alec Humpries","Joebert  Batain ","Jul 14 2018 09:24 AM","573.50"
"QPMM-01-3438","paid","Maria Antonio","Kristine  Oli","Jul 14 2018 10:01 AM","50.00"
"QPMM-01-3439","paid","Onofre Oriarte","Kristine  Oli","Jul 14 2018 10:04 AM","172.50"
"QPMM-01-3440","paid","Cloyd Insipne","Kristine  Oli","Jul 14 2018 10:06 AM","112.50"
"QPMM-01-3441","paid","Lorina Oyales","Kristine  Oli","Jul 14 2018 10:10 AM","250.00"
"BHCT-01-4307","paid","Bab Marasigan","Rey Jhon Lofranco","Jul 14 2018 10:50 AM","135.00"
"QPMM-01-3442","paid","Gabrielle  Adina","Kristine  Oli","Jul 14 2018 10:56 AM","57.50"
"BHCT-01-4308","unpaid","Jeanette Venturina","Rey Jhon Lofranco","Jul 14 2018 11:15 AM","167.50"
"BHCT-01-4309","paid","Larry Macabali","Rey Jhon Lofranco","Jul 14 2018 11:37 AM","125.00"
"QPMM-01-3443","paid","feliciano  pactol","Kristine  Oli","Jul 14 2018 11:44 AM","219.50"
"QPMM-01-3444","unpaid","donna abellanosa","Kristine  Oli","Jul 14 2018 11:54 AM","210.00"
"FRMC-01-1121","unpaid","Gem Villarico","Jommel Minranda","Jul 14 2018 12:17 PM","375.00"
"BHCT-01-4310","paid","Elise Ednaco","Rey Jhon Lofranco","Jul 14 2018 12:20 PM","330.50"
"BHCT-01-4311","paid","Michael Yee","Rey Jhon Lofranco","Jul 14 2018 12:36 PM","125.00"
"BHCT-01-4312","paid","Cathy Carangan","Rey Jhon Lofranco","Jul 14 2018 12:43 PM","216.00"
"FRMC-01-1122","unpaid","Sherwin Montano","Jommel Minranda","Jul 14 2018 12:49 PM","87.50"
"BHCT-01-4313","paid","Nel Alcanzare","Rey Jhon Lofranco","Jul 14 2018 01:07 PM","179.00"
"CCC-01-1742","unpaid","Terraz  By Raintree ","Joebert  Batain ","Jul 14 2018 01:32 PM","841.68"
"BHCT-01-4314","paid","Paolo  Dela Cuesta","Rey Jhon Lofranco","Jul 14 2018 01:33 PM","355.00"
"CCC-01-1743","unpaid","Novel Grooming Concepts, Inc. (Ascott) ","Joebert  Batain ","Jul 14 2018 01:36 PM","442.40"
"CCC-01-1744","unpaid","Novel  Grooming Concepts, Inc. (Somerset)","Joebert  Batain ","Jul 14 2018 01:40 PM","342.72"
"BHCT-01-4315","paid","R.M Meganathan","Rey Jhon Lofranco","Jul 14 2018 01:53 PM","256.00"
"BHCT-01-4316","paid","Allen Santos","Rey Jhon Lofranco","Jul 14 2018 02:08 PM","125.00"
"BHCT-01-4317","paid","Nikko Decembrano","Rey Jhon Lofranco","Jul 14 2018 02:32 PM","125.00"
"BHCT-01-4318","paid","Joseph Vital ","Rey Jhon Lofranco","Jul 14 2018 02:44 PM","156.00"
"BHCT-01-4319","paid","Abegyl Albano","Rey Jhon Lofranco","Jul 14 2018 03:17 PM","670.00"
"QPMM-01-3445","paid","Joerian Viola","Kristine  Oli","Jul 14 2018 03:44 PM","72.50"
"QPMM-01-3446","paid","Rowel  Tolentino ","Kristine  Oli","Jul 14 2018 03:46 PM","85.00"
"BHCT-01-4320","paid","Agnes Sillo","Rey Jhon Lofranco","Jul 14 2018 04:16 PM","346.00"
"FRMC-01-1123","unpaid","Jason Brylle Lim","Jommel Minranda","Jul 14 2018 04:32 PM","150.00"
"QPMM-01-3447","paid","renato alivia","Kristine  Oli","Jul 14 2018 04:46 PM","97.50"
"QPMM-01-3448","paid","Shiela Mae Del Rosario","Kristine  Oli","Jul 14 2018 05:17 PM","102.50"
"BHCT-01-4321","paid","Marvin Alipio","Rey Jhon Lofranco","Jul 14 2018 05:18 PM","599.00"
"FRMC-01-1124","unpaid","Bernard Ampeloquio","Jommel Minranda","Jul 14 2018 05:34 PM","400.00"
"QPMM-01-3449","paid","ANGEL LAYGAN","Kristine  Oli","Jul 14 2018 05:35 PM","62.50"
"BHCT-01-4322","paid","Sid Chun","Rey Jhon Lofranco","Jul 14 2018 05:47 PM","137.50"
"QPMM-01-3450","paid","Jervis Gangan","Kristine  Oli","Jul 14 2018 05:58 PM","57.50"
"QPMM-01-3451","paid","ifo ilagan","Kristine  Oli","Jul 14 2018 06:02 PM","115.00"
"QPMM-01-3452","paid","Justin Batac","Kristine  Oli","Jul 14 2018 06:42 PM","500.00"
"FRMC-01-1125","unpaid","Micah Asprer ","Jommel Minranda","Jul 14 2018 06:48 PM","142.50"
"FRMC-01-1126","unpaid","Reginald Ramos","Jommel Minranda","Jul 14 2018 07:26 PM","184.50"
"QPMM-01-3453","paid","Joel Gayda","Kristine  Oli","Jul 14 2018 08:05 PM","197.50"
"QPMM-01-3454","paid","Jude Sinlao","Kristine  Oli","Jul 14 2018 09:08 PM","290.00"
"QPMM-01-3455","paid","Diane Samaniego","Kristine  Oli","Jul 15 2018 08:01 AM","55.00"
"QPMM-01-3456","unpaid","Marianne Ymas","Kristine  Oli","Jul 15 2018 08:59 AM","87.50"
"BHCT-01-4323","paid","Ronilo Lagala","Christine  Monrtealegree ","Jul 15 2018 10:37 AM","128.50"
"QPMM-01-3457","unpaid","Tony Tony","Kristine  Oli","Jul 15 2018 10:53 AM","235.00"
"BHCT-01-4324","paid","Marita Connor","Christine  Monrtealegree ","Jul 15 2018 11:11 AM","276.00"
"PUDV-01-1745","paid","Perla Roy","Joebert  Batain ","Jul 15 2018 11:46 AM","540.50"
"BHCT-01-4325","paid","Erik Balaoing","Christine  Monrtealegree ","Jul 15 2018 12:14 PM","128.00"
"BHCT-01-4326","paid","Noemi Ronsario","Christine  Monrtealegree ","Jul 15 2018 12:30 PM","670.00"
"BHCT-01-4327","unpaid","Aldovs Tirona","Christine  Monrtealegree ","Jul 15 2018 12:47 PM","175.00"
"QPMM-01-3458","paid","Benz Bryan Pine","Kristine  Oli","Jul 15 2018 12:49 PM","107.50"
"BHCT-01-4328","unpaid","Aldovs Tirona","Christine  Monrtealegree ","Jul 15 2018 12:51 PM","125.00"
"BHCT-01-4329","paid","Kenneth Samonte","Christine  Monrtealegree ","Jul 15 2018 01:06 PM","125.50"
"FRMC-01-1127","paid","Isip Alaiza","Jommel Minranda","Jul 15 2018 01:11 PM","230.00"
"PUDV-01-1746","paid","Eastwest Biointegrative Health Center ","Joebert  Batain ","Jul 15 2018 01:28 PM","694.00"
"BHCT-01-4330","paid","Thomas Billedo","Christine  Monrtealegree ","Jul 15 2018 01:28 PM","151.00"
"QPMM-01-3459","unpaid","jamil ugto","Kristine  Oli","Jul 15 2018 01:44 PM","210.00"
"BHCT-01-4331","unpaid","Roy Tan","Christine  Monrtealegree ","Jul 15 2018 01:49 PM","145.00"
"CCC-01-1747","unpaid","Novel  Grooming Concepts, Inc. (Somerset)","Joebert  Batain ","Jul 15 2018 02:01 PM","286.44"
"CCC-01-1748","unpaid","Museum Cafe ","Joebert  Batain ","Jul 15 2018 02:12 PM","191.52"
"CCC-01-1749","unpaid","HEY HANDSOME  RESTAURANT","Joebert  Batain ","Jul 15 2018 02:16 PM","664.16"
"CCC-01-1750","unpaid","Novel Grooming Concepts, Inc. (Ascott) ","Joebert  Batain ","Jul 15 2018 02:19 PM","196.00"
"BHCT-01-4332","paid","Warlito Teodoro","Christine  Monrtealegree ","Jul 15 2018 02:22 PM","210.50"
"PUDV-01-1751","paid","JOVELYN GACO","Joebert  Batain ","Jul 15 2018 02:52 PM","1001.00"
"BHCT-01-4333","paid","Joe Marie Tronco","Christine  Monrtealegree ","Jul 15 2018 02:59 PM","466.00"
"BHCT-01-4334","paid","Abraham Ajoc","Christine  Monrtealegree ","Jul 15 2018 03:18 PM","190.50"
"BHCT-01-4335","paid","Daisy Lyn  Arcenas ","Christine  Monrtealegree ","Jul 15 2018 03:36 PM","372.50"
"BHCT-01-4336","unpaid","Joselito Abalahin","Christine  Monrtealegree ","Jul 15 2018 04:58 PM","460.50"
"BHCT-01-4337","paid","Roland Ian Medel","Christine  Monrtealegree ","Jul 15 2018 05:41 PM","212.50"
"FRMC-01-1128","paid","Marrie  Murallo","Jommel Minranda","Jul 15 2018 06:14 PM","143.00"
"BHCT-01-4338","unpaid","Jo Tesalona ","Christine  Monrtealegree ","Jul 15 2018 06:49 PM","708.50"
"BHCT-01-4339","unpaid","Morris Melliang","Christine  Monrtealegree ","Jul 15 2018 07:05 PM","337.50"
"BHCT-01-4340","unpaid","Rj Costamilla","Christine  Monrtealegree ","Jul 15 2018 07:27 PM","500.00"
"QPMM-01-3460","paid","Larken De Oca","Kristine  Oli","Jul 15 2018 07:39 PM","87.50"
"QPMM-01-3461","unpaid","Juvyel Anne Saluta","Kristine  Oli","Jul 15 2018 08:59 PM","153.00"
"QPMM-01-3462","paid","feliciano  pactol","Kristine  Oli","Jul 16 2018 08:39 AM","190.00"
"FRMC-01-1129","unpaid","Francesca Camille Escano","Jommel Minranda","Jul 16 2018 10:04 AM","201.00"
"QPMM-01-3463","unpaid","Irish Erwin Fulgencio","Kristine  Oli","Jul 16 2018 10:06 AM","182.50"
"QPMM-01-3464","paid","Archie  Castaneda","Kristine  Oli","Jul 16 2018 10:08 AM","50.00"
"CCC-01-1752","unpaid","Novel Grooming Concepts, Inc. (Ascott) ","Joebert  Batain ","Jul 16 2018 11:41 AM","584.25"
"BHCT-01-4341","unpaid","John Angelo Lobusta","Christine  Monrtealegree ","Jul 16 2018 11:49 AM","133.50"
"BHCT-01-4342","unpaid","Marvin Alipio","Christine  Monrtealegree ","Jul 16 2018 12:06 PM","250.00"
"BHCT-01-4343","paid","Royce Angelie Medel","Christine  Monrtealegree ","Jul 16 2018 12:17 PM","125.00"
"BHCT-01-4344","paid","Frances Feranil","Christine  Monrtealegree ","Jul 16 2018 12:29 PM","125.00"
"BHCT-01-4345","unpaid","Erick Talaroc","Christine  Monrtealegree ","Jul 16 2018 12:41 PM","125.00"
"BHCT-01-4346","paid","Joshua Altuna","Christine  Monrtealegree ","Jul 16 2018 12:59 PM","287.50"
"BHCT-01-4347","unpaid","Ropricio Jala","Christine  Monrtealegree ","Jul 16 2018 01:12 PM","248.50"
"BHCT-01-4348","unpaid","Anjelline Ballado","Christine  Monrtealegree ","Jul 16 2018 01:39 PM","350.50"
"BHCT-01-4349","paid","Reina Ramirez","Christine  Monrtealegree ","Jul 16 2018 02:02 PM","197.50"
"BHCT-01-4350","paid","Kent Joseph Gabucan","Christine  Monrtealegree ","Jul 16 2018 02:18 PM","181.00"
"BHCT-01-4351","paid","Myles  Dela Rosa","Christine  Monrtealegree ","Jul 16 2018 02:33 PM","125.00"
"FRMC-01-1130","paid","Irish Tsymbala","Jommel Minranda","Jul 16 2018 02:52 PM","156.00"
"BHCT-01-4352","unpaid","Shenavy Bal","Christine  Monrtealegree ","Jul 16 2018 03:06 PM","283.00"
"CCC-01-1753","unpaid","Novel  Grooming Concepts, Inc. (Somerset)","Joebert  Batain ","Jul 16 2018 03:09 PM","594.44"
"BHCT-01-4353","paid","John Panes","Christine  Monrtealegree ","Jul 16 2018 03:39 PM","200.00"
"QPMM-01-3465","paid","Joan Lumawag","Kristine  Oli","Jul 16 2018 03:59 PM","106.50"
"BHCT-01-4354","paid","Tristan Castillo","Christine  Monrtealegree ","Jul 16 2018 04:18 PM","442.50"
"BHCT-01-4355","paid","Marielle Ong","Christine  Monrtealegree ","Jul 16 2018 04:30 PM","126.00"
"BHCT-01-4356","paid","Bryan Oscar Ong","Christine  Monrtealegree ","Jul 16 2018 04:43 PM","257.50"
"BHCT-01-4357","unpaid","Roy Tan","Christine  Monrtealegree ","Jul 16 2018 05:00 PM","217.50"
"QPMM-01-3466","paid","Marivic Melitante","Kristine  Oli","Jul 16 2018 05:14 PM","140.00"
"BHCT-01-4358","paid","Kenneth Santos","Christine  Monrtealegree ","Jul 16 2018 08:04 PM","125.00"
"BHCT-01-4359","paid","Adrian Apurel","Christine  Monrtealegree ","Jul 16 2018 08:25 PM","125.00"
"BHCT-01-4360","paid","Racelo Raz","Christine  Monrtealegree ","Jul 16 2018 08:44 PM","190.50"
"QPMM-01-3467","paid","feliciano  pactol","Kristine  Oli","Jul 17 2018 08:49 AM","137.50"
"QPMM-01-3468","unpaid","mayet sabater","Kristine  Oli","Jul 17 2018 09:22 AM","50.00"
"QPMM-01-3469","unpaid","Charlie Moreno","Kristine  Oli","Jul 17 2018 09:56 AM","258.50"
"CCC-01-1754","unpaid","Terraz  By Raintree ","Joebert  Batain ","Jul 17 2018 10:01 AM","655.20"
"CCC-01-1755","unpaid","Terraz  By Raintree ","Joebert  Batain ","Jul 17 2018 10:07 AM","720.72"
"QPMM-01-3470","paid","Anna Estella","Kristine  Oli","Jul 17 2018 10:12 AM","85.00"
"BHCT-01-4361","paid","Anna Zhang","Rey Jhon Lofranco","Jul 17 2018 10:41 AM","125.00"
"QPMM-01-3471","paid","jonathan fernandez","Kristine  Oli","Jul 17 2018 10:46 AM","50.00"
"BHCT-01-4362","paid","Len Dedaz","Rey Jhon Lofranco","Jul 17 2018 10:55 AM","125.00"
"QPMM-01-3472","paid","Paul  Heyres","Kristine  Oli","Jul 17 2018 10:56 AM","62.50"
"BHCT-01-4363","unpaid","Raymund Danao","Rey Jhon Lofranco","Jul 17 2018 11:48 AM","347.50"
"BHCT-01-4364","paid","Leah Padernal","Rey Jhon Lofranco","Jul 17 2018 12:05 PM","469.00"
"BHCT-01-4365","unpaid","Mrs. Albert","Rey Jhon Lofranco","Jul 17 2018 12:16 PM","137.50"
"BHCT-01-4366","unpaid","Kiara Robles","Rey Jhon Lofranco","Jul 17 2018 12:39 PM","125.00"
"BHCT-01-4367","paid","Emma Vailoces","Rey Jhon Lofranco","Jul 17 2018 01:06 PM","190.00"
"QPMM-01-3473","paid","Ria Sioxion","Kristine  Oli","Jul 17 2018 01:39 PM","82.50"
"BHCT-01-4368","paid","John Leo Bautista","Rey Jhon Lofranco","Jul 17 2018 01:47 PM","218.00"
"BHCT-01-4369","paid","Vasudha Nagar","Rey Jhon Lofranco","Jul 17 2018 02:00 PM","125.00"
"BHCT-01-4370","paid","Mary Rose Antonio","Rey Jhon Lofranco","Jul 17 2018 02:22 PM","190.00"
"BHCT-01-4371","unpaid","Rudolph Madara","Rey Jhon Lofranco","Jul 17 2018 02:38 PM","163.00"
"QPMM-01-3474","paid","Jun Paulo Verano","Kristine  Oli","Jul 17 2018 02:45 PM","162.50"
"BHCT-01-4372","paid","Nel Alcanzare","Rey Jhon Lofranco","Jul 17 2018 02:51 PM","215.00"
"FRMC-01-1131","unpaid","Mikolo Kylo Manalang","Jommel Minranda","Jul 17 2018 02:59 PM","312.50"
"BHCT-01-4373","paid","Reffix Cuaresma","Rey Jhon Lofranco","Jul 17 2018 03:12 PM","357.50"
"BHCT-01-4374","paid","Regis Leveriza","Rey Jhon Lofranco","Jul 17 2018 03:41 PM","401.00"
"QPMM-01-3475","unpaid","ronaldo  espanola","Kristine  Oli","Jul 17 2018 03:58 PM","87.50"
"BHCT-01-4375","paid","Corazon Flosa","Rey Jhon Lofranco","Jul 17 2018 04:04 PM","823.00"
"BHCT-01-4376","paid","Jeane  Torento","Rey Jhon Lofranco","Jul 17 2018 04:36 PM","505.00"
"BHCT-01-4377","unpaid","Gene Juan","Rey Jhon Lofranco","Jul 17 2018 04:58 PM","997.50"
"BHCT-01-4378","unpaid","Fred Lanado","Rey Jhon Lofranco","Jul 17 2018 05:10 PM","215.00"
"CCC-01-1756","unpaid","Terraz  By Raintree ","Joebert  Batain ","Jul 17 2018 05:21 PM","1552.00"
"BHCT-01-4379","unpaid","Jhon Rufo","Rey Jhon Lofranco","Jul 17 2018 05:24 PM","140.00"
"CCC-01-1757","unpaid","Novel Grooming Concepts, Inc. (Ascott) ","Joebert  Batain ","Jul 17 2018 05:33 PM","458.92"
"CCC-01-1758","unpaid","Novel  Grooming Concepts, Inc. (Somerset)","Joebert  Batain ","Jul 17 2018 05:39 PM","549.08"
"CCC-01-1759","unpaid","Palm Garden Spa","Joebert  Batain ","Jul 17 2018 05:51 PM","1145.00"
"CCC-01-1760","unpaid","Wessenxals - Anne Villanueva","Joebert  Batain ","Jul 17 2018 07:40 PM","310.75"
"PUDV-01-1761","paid","Mel Macasaquit","Joebert  Batain ","Jul 18 2018 06:56 AM","1770.00"
"PUDV-01-1762","unpaid","Tatsuki Takimoto","Joebert  Batain ","Jul 18 2018 09:50 AM","250.00"
"QPMM-01-3476","unpaid","merly calleja","Kristine  Oli","Jul 18 2018 10:00 AM","197.00"
"QPMM-01-3477","paid","Leni Odiver","Kristine  Oli","Jul 18 2018 10:04 AM","139.00"
"PUDV-01-1763","paid","Clear Value Medical Center (Manila Vision) (Attn: Jiselle Vergara ) ","Joebert  Batain ","Jul 18 2018 10:32 AM","385.00"
"PUDV-01-1764","unpaid","Tower 3 Tonsy","Joebert  Batain ","Jul 18 2018 10:55 AM","477.50"
"PUDV-01-1765","unpaid","Gary Iribarren","Joebert  Batain ","Jul 18 2018 11:07 AM","637.50"
"BHCT-01-4380","paid","Reyah Masalunga","Rey Jhon Lofranco","Jul 18 2018 11:11 AM","241.50"
"CCC-01-1766","unpaid","Novel Grooming Concepts, Inc. (Ascott) ","Joebert  Batain ","Jul 18 2018 11:28 AM","78.50"
"BHCT-01-4381","paid","Jimmy Johansson","Rey Jhon Lofranco","Jul 18 2018 11:29 AM","172.50"
"CCC-01-1767","unpaid","Novel  Grooming Concepts, Inc. (Somerset)","Joebert  Batain ","Jul 18 2018 11:37 AM","227.08"
"CCC-01-1768","unpaid","HEY HANDSOME  RESTAURANT","Joebert  Batain ","Jul 18 2018 11:48 AM","1256.64"
"CCC-01-1769","unpaid","Terraz  By Raintree ","Joebert  Batain ","Jul 18 2018 11:52 AM","156.24"
"CCC-01-1770","unpaid","Museum Cafe ","Joebert  Batain ","Jul 18 2018 12:02 PM","589.68"
"BHCT-01-4382","paid","Karene Johnson","Rey Jhon Lofranco","Jul 18 2018 12:20 PM","988.50"
"FRMC-01-1132","unpaid","Ryan Bagaipo","Jommel Minranda","Jul 18 2018 02:05 PM","203.00"
"QPMM-01-3478","unpaid","Darwin Barba","Kristine  Oli","Jul 18 2018 02:32 PM","221.00"
"BHCT-01-4383","paid","Carlos Ruiz","Rey Jhon Lofranco","Jul 18 2018 02:38 PM","177.50"
"BHCT-01-4384","unpaid","Luis Lozano","Rey Jhon Lofranco","Jul 18 2018 02:45 PM","173.50"
"BHCT-01-4385","paid","Reiza Bañega","Rey Jhon Lofranco","Jul 18 2018 02:50 PM","260.00"
"BHCT-01-4386","paid","Rodin Victoriano","Rey Jhon Lofranco","Jul 18 2018 02:56 PM","277.50"
"QPMM-01-3479","unpaid","Jojo Casipit","Kristine  Oli","Jul 18 2018 02:58 PM","62.50"
"BHCT-01-4387","paid","Jeane Iglesia","Rey Jhon Lofranco","Jul 18 2018 03:01 PM","945.00"
"BHCT-01-4388","paid","Alexis Alexis ","Rey Jhon Lofranco","Jul 18 2018 03:09 PM","230.50"
"BHCT-01-4389","paid","Jayn Ruth Agliam ","Rey Jhon Lofranco","Jul 18 2018 03:13 PM","520.50"
"BHCT-01-4390","paid","Jayvee Nasol","Rey Jhon Lofranco","Jul 18 2018 03:19 PM","491.00"
"BHCT-01-4391","unpaid","Vincent Abdala","Rey Jhon Lofranco","Jul 18 2018 04:04 PM","1528.50"
"BHCT-01-4392","unpaid","Domenador Pabrua","Rey Jhon Lofranco","Jul 18 2018 05:22 PM","145.00"
"BHCT-01-4393","unpaid","Mary Rose Antonio","Rey Jhon Lofranco","Jul 18 2018 05:39 PM","125.00"
"QPMM-01-3480","paid","Alex Sambilay","Kristine  Oli","Jul 18 2018 05:39 PM","290.00"
"BHCT-01-4394","unpaid","Jessa Rapaya","Rey Jhon Lofranco","Jul 18 2018 05:53 PM","485.00"
"QPMM-01-3481","paid","Tintin Mangubat","Kristine  Oli","Jul 18 2018 06:31 PM","75.00"
"FRMC-01-1133","unpaid","Joan Castulo","Jommel Minranda","Jul 18 2018 06:32 PM","155.00"
"QPMM-01-3482","paid","Banjo Carino","Kristine  Oli","Jul 18 2018 06:41 PM","107.50"
"BHCT-01-4395","paid","Mita Palawan","Rey Jhon Lofranco","Jul 18 2018 06:48 PM","412.50"
"BHCT-01-4396","unpaid","Kelvin Lee","Rey Jhon Lofranco","Jul 18 2018 07:04 PM","1500.00"
"FRMC-01-1134","unpaid","Angelica Gonzales","Jommel Minranda","Jul 18 2018 07:16 PM","125.00"
"QPMM-01-3483","unpaid","rebecca de leon","Kristine  Oli","Jul 19 2018 08:07 AM","200.00"
"QPMM-01-3484","paid","Marietta Tan","Kristine  Oli","Jul 19 2018 08:36 AM","117.50"
"QPMM-01-3485","unpaid","Hazel Balaba","Kristine  Oli","Jul 19 2018 09:37 AM","90.00"
"BHCT-01-4397","unpaid","Sly Vargas","Rey Jhon Lofranco","Jul 19 2018 11:43 AM","315.00"
"BHCT-01-4398","unpaid","Joan Gumtang","Rey Jhon Lofranco","Jul 19 2018 12:01 PM","316.50"
"BHCT-01-4399","paid","Judith Azucena","Rey Jhon Lofranco","Jul 19 2018 12:13 PM","125.00"
"BHCT-01-4400","paid","Camille Escudero","Rey Jhon Lofranco","Jul 19 2018 12:31 PM","175.00"
"QPMM-01-3486","unpaid","Euric Manio","Kristine  Oli","Jul 19 2018 12:45 PM","275.50"
"BHCT-01-4401","unpaid","Jean  Rien","Rey Jhon Lofranco","Jul 19 2018 12:55 PM","132.50"
"BHCT-01-4402","unpaid","Eva Leah Rupisan","Rey Jhon Lofranco","Jul 19 2018 01:02 PM","125.00"
"FRMC-01-1135","unpaid","Alexies Corpuz","Jommel Minranda","Jul 19 2018 01:11 PM","172.50"
"BHCT-01-4403","unpaid","Aster Valdellon","Rey Jhon Lofranco","Jul 19 2018 01:18 PM","125.00"
"BHCT-01-4404","unpaid","Tasha Levinna","Rey Jhon Lofranco","Jul 19 2018 02:04 PM","125.00"
"BHCT-01-4405","unpaid","Samejon Rene","Rey Jhon Lofranco","Jul 19 2018 02:11 PM","125.00"
"BHCT-01-4406","paid","Alvin Baculanta","Rey Jhon Lofranco","Jul 19 2018 02:21 PM","436.00"
"QPMM-01-3487","paid","Carl jhon Ombid","Kristine  Oli","Jul 19 2018 02:33 PM","125.00"
"BHCT-01-4407","unpaid","Isay Octava","Rey Jhon Lofranco","Jul 19 2018 03:20 PM","199.00"
"QPMM-01-3488","paid","Myrna Bello","Kristine  Oli","Jul 19 2018 03:38 PM","138.00"
"BHCT-01-4408","unpaid","Michelle Llevado","Rey Jhon Lofranco","Jul 19 2018 04:27 PM","504.00"
"BHCT-01-4409","paid","Adrian Apurel","Rey Jhon Lofranco","Jul 19 2018 04:43 PM","152.50"
"BHCT-01-4410","unpaid","Reffix Cuaresma","Rey Jhon Lofranco","Jul 19 2018 05:05 PM","125.00"
"BHCT-01-4411","paid","Harold Adayo","Christine  Monrtealegree ","Jul 19 2018 05:33 PM","125.00"
"CCC-01-1771","unpaid","Novel Grooming Concepts, Inc. (Ascott) ","Joebert  Batain ","Jul 19 2018 05:55 PM","361.48"
"CCC-01-1772","unpaid","Terraz  By Raintree ","Joebert  Batain ","Jul 19 2018 06:07 PM","464.80"
"BHCT-01-4412","unpaid","Paolo  Dela Cuesta","Christine  Monrtealegree ","Jul 19 2018 06:21 PM","453.50"
"CCC-01-1773","unpaid","Novel  Grooming Concepts, Inc. (Somerset)","Joebert  Batain ","Jul 19 2018 06:23 PM","312.48"
"PUDV-01-1774","paid","Central Ground Atheletics Evolve Yoga Fitness","Joebert  Batain ","Jul 19 2018 06:38 PM","787.50"
"QPMM-01-3489","unpaid","STEPHEN GIL PENARANDA ","Kristine  Oli","Jul 19 2018 07:42 PM","182.50"
"BHCT-01-4413","paid","Charles  Llagas","Christine  Monrtealegree ","Jul 19 2018 07:50 PM","228.50"
"QPMM-01-3490","unpaid","Mary Jane  Lamac","Kristine  Oli","Jul 19 2018 08:14 PM","272.50"
"QPMM-01-3491","paid","Heinson King","Kristine  Oli","Jul 20 2018 07:34 AM","230.00"
"QPMM-01-3492","unpaid","ANGEL LAYGAN","Kristine  Oli","Jul 20 2018 09:43 AM","420.00"
"FRMC-01-1129","unpaid","Hans Villanueva","Jommel Minranda","Jul 20 2018 09:46 AM","144.00"
"FRMC-01-1130","unpaid","Ann Ortiz","Jommel Minranda","Jul 20 2018 10:54 AM","148.50"
"QPMM-01-3493","unpaid","Lhiza San Andres","Kristine  Oli","Jul 20 2018 11:08 AM","140.00"
"BHCT-01-4414","unpaid","Nikki Estrada","Rey Jhon Lofranco","Jul 20 2018 11:22 AM","215.50"
"FRMC-01-1131","unpaid","Austin Esguerra","Jommel Minranda","Jul 20 2018 11:42 AM","106.00"
"BHCT-01-4415","unpaid","Kyle Baculanta","Rey Jhon Lofranco","Jul 20 2018 11:45 AM","156.00"
"BHCT-01-4416","unpaid","Oscar Lopez","Rey Jhon Lofranco","Jul 20 2018 12:09 PM","630.00"
"BHCT-01-4417","paid","Carlos Ruiz","Rey Jhon Lofranco","Jul 20 2018 12:36 PM","246.00"
"BHCT-01-4418","unpaid","Rowin Angkico","Rey Jhon Lofranco","Jul 20 2018 01:08 PM","133.00"
"BHCT-01-4419","unpaid","ariel joshua regidor","Rey Jhon Lofranco","Jul 20 2018 01:28 PM","125.00"
"BHCT-01-4420","paid","Marielle Ong","Rey Jhon Lofranco","Jul 20 2018 01:39 PM","250.00"
"PUDV-01-1775","unpaid","Aida Timbreza","Joebert  Batain ","Jul 20 2018 02:04 PM","528.50"
"BHCT-01-4421","paid","Marielle Ong","Rey Jhon Lofranco","Jul 20 2018 02:11 PM","178.50"
"BHCT-01-4422","unpaid","Errol Pontillas","Rey Jhon Lofranco","Jul 20 2018 02:44 PM","253.50"
"BHCT-01-4423","unpaid","Anthony Sison","Rey Jhon Lofranco","Jul 20 2018 03:04 PM","412.50"
"PUDV-02-1776","paid","DOMINIC BIESCAS","Joebert  Batain ","Jul 20 2018 03:26 PM","100.00"
"CCC-01-1777","unpaid","Terraz  By Raintree ","Joebert  Batain ","Jul 20 2018 03:34 PM","632.24"
"CCC-01-1778","unpaid","Novel Grooming Concepts, Inc. (Ascott) ","Joebert  Batain ","Jul 20 2018 03:37 PM","202.72"
"BHCT-01-4424","unpaid","Troy Verson Canicosa","Rey Jhon Lofranco","Jul 20 2018 03:41 PM","293.00"
"BHCT-01-4425","unpaid","Criss Darylle Mendoza","Rey Jhon Lofranco","Jul 20 2018 03:54 PM","292.50"
"CCC-01-1779","unpaid","HEY HANDSOME  RESTAURANT","Joebert  Batain ","Jul 20 2018 03:54 PM","560.00"
"CCC-01-1780","unpaid","Museum Cafe ","Joebert  Batain ","Jul 20 2018 03:59 PM","342.72"
"CCC-01-1781","unpaid","Novel  Grooming Concepts, Inc. (Somerset)","Joebert  Batain ","Jul 20 2018 04:02 PM","533.68"
"BHCT-01-4426","unpaid","Hamid Salic","Rey Jhon Lofranco","Jul 20 2018 04:02 PM","125.00"
"CCC-01-1782","unpaid","Palm Garden Spa","Joebert  Batain ","Jul 20 2018 04:07 PM","915.00"
"BHCT-01-4427","unpaid","Celyne Zarraga","Rey Jhon Lofranco","Jul 20 2018 04:25 PM","449.00"
"QPMM-01-3494","paid","Glenn Dano","Kristine  Oli","Jul 20 2018 04:52 PM","100.00"
"BHCT-01-4428","unpaid","Mark Serrano","Rey Jhon Lofranco","Jul 20 2018 04:56 PM","590.50"
"QPMM-01-3495","unpaid","marry ann acosta","Kristine  Oli","Jul 20 2018 05:37 PM","97.50"
"BHCT-01-4429","unpaid","Michael Yee","Rey Jhon Lofranco","Jul 20 2018 05:38 PM","125.00"
"BHCT-01-4430","unpaid","Mae Emmanuelle Srisawasdi","Rey Jhon Lofranco","Jul 20 2018 05:55 PM","126.00"
"QPMM-01-3496","unpaid","Jay Ar Cabelin","Kristine  Oli","Jul 20 2018 06:04 PM","178.50"
"QPMM-01-3497","unpaid","Arjan Nagma","Kristine  Oli","Jul 20 2018 08:13 PM","67.50"
"BHCT-01-4431","unpaid","Gerardo Pitallar","Rey Jhon Lofranco","Jul 20 2018 08:40 PM","200.00"
"BHCT-01-4432","unpaid","Cha Malazarte","Rey Jhon Lofranco","Jul 20 2018 08:44 PM","125.00"
"QPMM-01-3498","unpaid","renato alivia","Kristine  Oli","Jul 21 2018 08:31 AM","97.50"
"QPMM-01-3499","unpaid","Gabrielle  Adina","Kristine  Oli","Jul 21 2018 08:43 AM","75.00"
"QPMM-01-3500","unpaid","Rowel  Tolentino ","Kristine  Oli","Jul 21 2018 09:14 AM","90.00"
"FRMC-01-1132","unpaid","Gem Villarico","Jommel Minranda","Jul 21 2018 10:22 AM","297.50"
"BHCT-01-4433","unpaid","Larry Macabali","Christine  Monrtealegree ","Jul 21 2018 10:30 AM","125.00"
"QPMM-01-3501","unpaid","Tessie Antonio","Kristine  Oli","Jul 21 2018 11:04 AM","186.00"
"FRMC-01-1133","unpaid","James Louis Manguiat","Jommel Minranda","Jul 21 2018 11:28 AM","142.50"
"QPMM-01-3502","unpaid","Cloyd Insipne","Kristine  Oli","Jul 21 2018 11:46 AM","62.50"
"BHCT-01-4434","unpaid","Rome Fortaleza","Christine  Monrtealegree ","Jul 21 2018 11:49 AM","873.50"
"BHCT-01-4435","unpaid","Nel Alcanzare","Christine  Monrtealegree ","Jul 21 2018 12:15 PM","201.50"
"BHCT-01-4436","unpaid","Abegyl Albano","Christine  Monrtealegree ","Jul 21 2018 01:01 PM","1245.50"
"FRMC-01-1134","unpaid","Leven Cerezo","Jommel Minranda","Jul 21 2018 01:06 PM","152.00"
"BHCT-01-4437","unpaid","Mary Rose Antonio","Christine  Monrtealegree ","Jul 21 2018 01:30 PM","125.00"
"BHCT-01-4438","unpaid","Joshua Altuna","Christine  Monrtealegree ","Jul 21 2018 02:05 PM","403.00"
"FRMC-01-1135","unpaid","Jessa  Blancas","Jommel Minranda","Jul 21 2018 02:20 PM","170.50"
"BHCT-01-4439","unpaid","Shahin Macatangay","Christine  Monrtealegree ","Jul 21 2018 03:03 PM","813.50"
"BHCT-01-4440","unpaid","Erick Evangelista","Christine  Monrtealegree ","Jul 21 2018 03:13 PM","180.00"
"QPMM-01-3503","unpaid","virgilio alicabo","Kristine  Oli","Jul 21 2018 03:18 PM","115.00"
"BHCT-01-4441","unpaid","Michael Loremia","Christine  Monrtealegree ","Jul 21 2018 03:23 PM","299.00"
"BHCT-01-4442","paid","Venkat Akella","Christine  Monrtealegree ","Jul 21 2018 03:37 PM","441.00"
"BHCT-01-4443","unpaid","Abraham Ajoc","Christine  Monrtealegree ","Jul 21 2018 04:05 PM","413.50"
"BHCT-01-4444","unpaid","Teena Barretto","Christine  Monrtealegree ","Jul 21 2018 04:20 PM","501.00"
"QPMM-01-3504","paid","lhen bautista","Kristine  Oli","Jul 21 2018 04:32 PM","155.00"
"FRMC-01-1136","unpaid","Dianne Galang","Jommel Minranda","Jul 21 2018 04:40 PM","198.00"
"BHCT-01-4445","unpaid","Brent Malacad ","Christine  Monrtealegree ","Jul 21 2018 05:08 PM","130.00"
"BHCT-01-4446","unpaid","Jo Tesalona ","Christine  Monrtealegree ","Jul 21 2018 05:45 PM","125.00"
"QPMM-01-3505","unpaid","Jonathan Tenorio","Kristine  Oli","Jul 21 2018 06:38 PM","150.00"
"QPMM-01-3506","unpaid","Mary Grace Palomeras","Kristine  Oli","Jul 21 2018 06:47 PM","245.00"
"QPMM-01-3507","unpaid","Alexis ivan Batac","Kristine  Oli","Jul 21 2018 07:14 PM","160.00"
"QPMM-01-3508","unpaid","Neil Patrick Calderon","Kristine  Oli","Jul 21 2018 07:33 PM","95.00"
"BHCT-01-4447","unpaid","Jacquelyn Avila","Christine  Monrtealegree ","Jul 21 2018 09:11 PM","1000.00"
"CCC-01-1783","unpaid","Novel  Grooming Concepts, Inc. (Somerset)","Joebert  Batain ","Jul 22 2018 08:38 AM","315.84"
"CCC-01-1784","unpaid","Terraz  By Raintree ","Joebert  Batain ","Jul 22 2018 08:45 AM","761.04"
"CCC-01-1785","unpaid","Novel Grooming Concepts, Inc. (Ascott) ","Joebert  Batain ","Jul 22 2018 08:50 AM","372.96"
"QPMM-01-3509","unpaid","feliciano  pactol","Kristine  Oli","Jul 22 2018 11:46 AM","248.50"
"QPMM-01-3510","unpaid","Carmela Callos","Kristine  Oli","Jul 22 2018 11:51 AM","301.00"
"BHCT-01-4448","unpaid","Anthony Sison","Christine  Monrtealegree ","Jul 22 2018 11:59 AM","435.00"
"QPMM-01-3511","unpaid","Ria Sioxion","Kristine  Oli","Jul 22 2018 12:07 PM","158.00"
"BHCT-01-4449","unpaid","Geeann Anuada","Christine  Monrtealegree ","Jul 22 2018 12:15 PM","162.50"
"FRMC-01-1137","unpaid","Shirley Jane  Natividad ","Jommel Minranda","Jul 22 2018 12:19 PM","372.50"
"BHCT-01-4450","unpaid","Diana Gotera","Christine  Monrtealegree ","Jul 22 2018 12:30 PM","160.00"
"QPMM-01-3512","unpaid","Joel Gayda","Kristine  Oli","Jul 22 2018 12:47 PM","75.00"
"BHCT-01-4451","unpaid","Anne Klein Olma Hernandez","Christine  Monrtealegree ","Jul 22 2018 12:54 PM","150.50"
"QPMM-01-3513","unpaid","jonathan fernandez","Kristine  Oli","Jul 22 2018 12:57 PM","100.00"
"QPMM-01-3514","unpaid","jonathan fernandez","Kristine  Oli","Jul 22 2018 12:58 PM","113.00"
"BHCT-01-4452","unpaid","Len Dedaz","Christine  Monrtealegree ","Jul 22 2018 01:05 PM","125.00"
"BHCT-01-4453","unpaid","Angelica Cruz","Christine  Monrtealegree ","Jul 22 2018 01:17 PM","125.00"
"BHCT-01-4454","unpaid","Kennette Origoro","Christine  Monrtealegree ","Jul 22 2018 01:27 PM","125.00"
"FRMC-01-1138","unpaid","Hans Villanueva","Jommel Minranda","Jul 22 2018 01:47 PM","195.00"
"BHCT-01-4455","unpaid","Karen Delfin","Christine  Monrtealegree ","Jul 22 2018 01:47 PM","248.00"
"FRMC-01-1139","unpaid","Francesca Camille Escano","Jommel Minranda","Jul 22 2018 02:19 PM","347.00"
"QPMM-01-3515","unpaid","lhen bautista","Kristine  Oli","Jul 22 2018 02:32 PM","50.00"
"BHCT-01-4456","unpaid","Shaun Smith ","Christine  Monrtealegree ","Jul 22 2018 02:36 PM","137.50"
"BHCT-01-4457","unpaid","Ron Irvin Marcelino","Christine  Monrtealegree ","Jul 22 2018 02:47 PM","248.00"
"BHCT-01-4458","unpaid","Daisy Lyn  Arcenas ","Christine  Monrtealegree ","Jul 22 2018 03:09 PM","607.50"
"PUDV-01-1786","unpaid","Gremio Dothy","Joebert  Batain ","Jul 22 2018 03:26 PM","602.50"
"QPMM-01-3516","unpaid","Myrna Bello","Kristine  Oli","Jul 22 2018 03:36 PM","147.50"
"FRMC-01-1140","unpaid","Normanfran Tungkol","Jommel Minranda","Jul 22 2018 03:38 PM","260.00"
"PUDV-01-1787","unpaid","Veronica Aguas","Joebert  Batain ","Jul 22 2018 03:39 PM","250.00"
"BHCT-01-4459","unpaid","Nikki Alcantara","Christine  Monrtealegree ","Jul 22 2018 03:42 PM","133.00"
"BHCT-01-4460","unpaid","Erik Balaoing","Christine  Monrtealegree ","Jul 22 2018 03:45 PM","143.50"
"QPMM-01-3517","unpaid","Shiela Mae Del Rosario","Kristine  Oli","Jul 22 2018 03:55 PM","90.00"
"PUDV-02-1788","unpaid","ANDY SARE","Joebert  Batain ","Jul 22 2018 04:28 PM","142.50"
"BHCT-01-4461","unpaid","allysa matulac","Christine  Monrtealegree ","Jul 22 2018 04:39 PM","435.00"
"CCC-01-1789","unpaid","HEY HANDSOME  RESTAURANT","Joebert  Batain ","Jul 22 2018 04:44 PM","1152.48"
"CCC-01-1790","unpaid","Novel Grooming Concepts, Inc. (Ascott) ","Joebert  Batain ","Jul 22 2018 04:47 PM","460.32"
"CCC-01-1791","unpaid","Novel  Grooming Concepts, Inc. (Somerset)","Joebert  Batain ","Jul 22 2018 04:53 PM","388.36"
"PUDV-01-1792","unpaid","Cyrene Morales","Joebert  Batain ","Jul 22 2018 05:07 PM","304.00"
"BHCT-01-4462","unpaid","Gold Manlosa","Christine  Monrtealegree ","Jul 22 2018 05:19 PM","175.00"
"BHCT-01-4463","unpaid","Marita Connor","Christine  Monrtealegree ","Jul 22 2018 05:55 PM","310.00"
"BHCT-01-4464","unpaid","Warlito Teodoro","Christine  Monrtealegree ","Jul 22 2018 06:59 PM","252.50"
