"Store","Customer","JO#","Received By","Date Collected","Payment Type","Amount"
"BHCT-01","Hazel Candelario","00001200","Rey Jhon Lofranco","Jan 29 2018 06:06 PM","CASH","710.00"
"BHCT-01","Katrina Javier","00001333","Rey Jhon Lofranco","Feb 01 2018 06:53 PM","CASH","180.50"
"BHCT-01","reymark gaspar","00001516","Rey Jhon Lofranco","Feb 07 2018 11:44 AM","CASH","275.50"
"BHCT-01","Kitch La Victoria","00001537","Rey Jhon Lofranco","Jan 28 2018 08:19 PM","CASH","550.00"
"BHCT-01","Katrina Javier","00001576","Rey Jhon Lofranco","Feb 01 2018 06:54 PM","CASH","125.00"
"BHCT-01","Katrina Javier","00001577","Rey Jhon Lofranco","Feb 01 2018 06:54 PM","CASH","125.00"
"BHCT-01","Katrina Javier","00001582","Rey Jhon Lofranco","Feb 01 2018 06:55 PM","CASH","300.00"
"BHCT-01","Joanne Quezon","0000159","Rey Jhon Lofranco","Feb 09 2018 08:14 PM","CASH","437.50"
"BHCT-01","Chukie Gajo","00001753","Rey Jhon Lofranco","Feb 04 2018 09:14 PM","CASH","125.00"
"BHCT-01","Connie Enopiquez","00001788","Rey Jhon Lofranco","Feb 01 2018 11:38 AM","CASH","125.00"
"BHCT-01","Gina Atienza","00001793","Rey Jhon Lofranco","Feb 03 2018 04:45 PM","CASH","389.50"
"BHCT-01","Paolo Almazan","00001822","Rey Jhon Lofranco","Jan 28 2018 05:35 PM","CASH","125.00"
"BHCT-01","Joanne Quezon","00001857","Rey Jhon Lofranco","Jan 29 2018 09:18 PM","CASH","338.00"
"BHCT-01","Louise Anne Francisco","00001878","Rey Jhon Lofranco","Jan 30 2018 10:12 AM","CASH","185.00"
"BHCT-01","Kenneth Santos","00001885","Ritzar  Jeanjaquit ","Feb 11 2018 08:13 PM","CASH","300.00"
"BHCT-01","Jan Dumlao","00001890","Ritzar  Jeanjaquit ","Jan 28 2018 11:18 AM","CASH","237.50"
"BHCT-01","tristan castillo","00001896","Rey Jhon Lofranco","Jan 28 2018 02:33 PM","CASH","625.00"
"BHCT-01","312 Quezon","00001909","Rey Jhon Lofranco","Feb 04 2018 05:36 PM","CASH","320.50"
"BHCT-01","Joseph Cayton","00001933","Rey Jhon Lofranco","Feb 03 2018 10:42 AM","CASH","828.50"
"BHCT-01","Baby Pala ","00001935","Rey Jhon Lofranco","Jan 31 2018 10:17 AM","CASH","237.50"
"BHCT-01","Riva Ridad","00001943","Rey Jhon Lofranco","Jan 31 2018 01:03 PM","CASH","165.00"
"BHCT-01","Roma Cabuslay","00001948","Rey Jhon Lofranco","Feb 01 2018 06:53 PM","CASH","300.00"
"BHCT-01","Mae Emmanuelle Srisawasdi","00001967","Rey Jhon Lofranco","Jan 31 2018 12:42 PM","CASH","212.00"
"BHCT-01","Cristy Ann Garcia","00001968","Rey Jhon Lofranco","Feb 03 2018 11:39 AM","CASH","490.00"
"BHCT-01","King Poynton","00001971","Rey Jhon Lofranco","Feb 01 2018 05:16 PM","CASH","583.00"
"BHCT-01","Errol Pontillas","00001972","Rey Jhon Lofranco","Jan 29 2018 05:56 PM","CASH","125.00"
"BHCT-01","Marielle Ong","00001977","Rey Jhon Lofranco","Jan 28 2018 12:16 PM","CASH","550.50"
"BHCT-01","319 Anilao Boni-Heights","00001979","Rey Jhon Lofranco","Jan 28 2018 10:45 AM","CASH","190.00"
"BHCT-01","Vincent Abdela","00001983","Rey Jhon Lofranco","Feb 01 2018 02:37 PM","CASH","1540.00"
"BHCT-01","Gene Atanacio","00001992","Rey Jhon Lofranco","Jan 29 2018 06:30 PM","CASH","151.50"
"BHCT-01","Mimi De Castro","00001993","Rey Jhon Lofranco","Feb 10 2018 12:52 PM","CASH","237.50"
"BHCT-01","Alexis Alexis ","00001994","Rey Jhon Lofranco","Jan 28 2018 05:26 PM","CASH","166.50"
"BHCT-01","Devine Devine","00001995","Rey Jhon Lofranco","Jan 29 2018 01:51 PM","CASH","213.00"
"BHCT-01","Morris Melliang","00001996","Rey Jhon Lofranco","Jan 29 2018 11:59 AM","CASH","250.00"
"BHCT-01","Mita Palawan","00001997","Rey Jhon Lofranco","Jan 29 2018 12:28 PM","CASH","500.00"
"BHCT-01","Jayson Maliapi","00001998","Rey Jhon Lofranco","Jan 29 2018 02:53 PM","CASH","600.00"
"BHCT-01","Alexis Alexis ","00001999","Rey Jhon Lofranco","Jan 28 2018 05:26 PM","CASH","166.50"
"BHCT-01","Wendell Jun","00002001","Rey Jhon Lofranco","Feb 05 2018 06:55 PM","CASH","267.00"
"BHCT-01","Maybell Toress","00002014","Rey Jhon Lofranco","Jan 28 2018 12:00 PM","CASH","217.50"
"BHCT-01","Catherine  Jacobe","00002016","Vince Alper  Gepte","Feb 01 2018 12:45 PM","CASH","530.00"
"BHCT-01","Samuel Dagpin Jr.","00002017","Vince Alper  Gepte","Feb 03 2018 11:34 AM","CASH","775.00"
"BHCT-01","Ronald Jay Gulanes","00002018","Vince Alper  Gepte","Jan 28 2018 11:42 AM","CASH","360.00"
"BHCT-01","Erik Balaoing","00002019","Vince Alper  Gepte","Jan 30 2018 10:25 AM","CASH","202.50"
"BHCT-01","Paolo  Dela Cuesta","00002020","Vince Alper  Gepte","Jan 31 2018 06:11 PM","CASH","453.00"
"BHCT-01","101 ozamis","00002022","Vince Alper  Gepte","Jan 31 2018 10:50 AM","CASH","374.00"
"BHCT-01","Daisy Lyn  Arcenas ","00002023","Vince Alper  Gepte","Jan 31 2018 06:47 PM","CASH","775.00"
"BHCT-01","Roly De Guzman","00002024","Vince Alper  Gepte","Feb 01 2018 05:52 PM","CASH","250.00"
"BHCT-01","Judith Azucena","00002026","Vince Alper  Gepte","Jan 29 2018 11:08 AM","CASH","377.50"
"BHCT-01","Catherine Castor","00002027","Vince Alper  Gepte","Feb 01 2018 06:05 PM","CASH","745.50"
"BHCT-01","Demi Aiken Marasigan","00002028","Vince Alper  Gepte","Jan 28 2018 07:12 PM","CASH","145.00"
"BHCT-01","ARLENE VALENZUELA","00002029","Vince Alper  Gepte","Jan 29 2018 07:45 PM","CASH","256.00"
"BHCT-01","Jona Obrador","00002030","Vince Alper  Gepte","Jan 31 2018 07:15 PM","CASH","230.00"
"BHCT-01","Roslyn Manollano","00002031","Vince Alper  Gepte","Feb 02 2018 11:26 AM","CASH","127.50"
"BHCT-01","Roy Tan","00002032","Vince Alper  Gepte","Feb 03 2018 10:39 AM","CASH","127.50"
"BHCT-01","Jeane Iglesia","00002033","Vince Alper  Gepte","Jan 29 2018 05:04 PM","CASH","600.50"
"BHCT-01","Mita Neogi","00002034","Vince Alper  Gepte","Jan 28 2018 10:55 AM","CASH","125.50"
"BHCT-01","Ronald Jay Gulanes","00002036","Vince Alper  Gepte","Jan 28 2018 11:40 AM","CASH","350.00"
"BHCT-01","Hashem Mofadhel","00002037","Vince Alper  Gepte","Jan 28 2018 07:02 PM","CASH","240.00"
"BHCT-01","Louis Tabingo","00002039","Vince Alper  Gepte","Jan 28 2018 04:14 PM","CASH","195.00"
"BHCT-01","Justine Dimabayao ","00002041","Vince Alper  Gepte","Feb 06 2018 04:02 PM","CASH","125.00"
"BHCT-01","Kiara Robles","00002042","Vince Alper  Gepte","Feb 05 2018 06:16 PM","CASH","125.00"
"BHCT-01","Jomel Lozano","00002043","Vince Alper  Gepte","Jan 29 2018 05:28 PM","CASH","152.50"
"BHCT-01","Rafael Manalang","00002044","Vince Alper  Gepte","Jan 29 2018 07:02 PM","CASH","157.50"
"BHCT-01","Honey Santiago","00002046","Vince Alper  Gepte","Jan 30 2018 10:13 AM","CASH","190.50"
"BHCT-01","Marielle Ong","00002048","Vince Alper  Gepte","Jan 28 2018 12:23 PM","CASH","585.00"
"BHCT-01","Raymund Danao","00002050","Vince Alper  Gepte","Jan 30 2018 10:21 AM","CASH","172.50"
"BHCT-01","Paulo Adraneda","00002051","Vince Alper  Gepte","Jan 29 2018 04:39 PM","CASH","155.00"
"BHCT-01","Marita Connor","00002054","Vince Alper  Gepte","Jan 30 2018 10:36 AM","CASH","368.00"
"BHCT-01","Jacquelyn Avila","00002055","Vince Alper  Gepte","Feb 02 2018 11:31 AM","CASH","163.00"
"BHCT-01","Venche Guntan","00002056","Vince Alper  Gepte","Feb 02 2018 10:37 AM","CASH","307.50"
"BHCT-01","Regis Leveriza","00002057","Vince Alper  Gepte","Feb 02 2018 11:32 AM","CASH","295.00"
"BHCT-01","Jayvee Nasol","00002058","Vince Alper  Gepte","Jan 29 2018 05:07 PM","CASH","345.50"
"BHCT-01","Bryan Oscar Ong","00002059","Vince Alper  Gepte","Jan 29 2018 07:26 PM","CASH","278.00"
"BHCT-01","Jessa Rapaya","00002060","Vince Alper  Gepte","Jan 31 2018 10:16 AM","CASH","310.00"
"BHCT-01","Mrs.Albert Kalibo","00002061","Vince Alper  Gepte","Feb 03 2018 12:57 PM","CASH","125.00"
"BHCT-01","Kitch La Victoria","00002062","Vince Alper  Gepte","Jan 28 2018 08:19 PM","CASH","550.00"
"BHCT-01","Anna Oami","00002063","Rey Jhon Lofranco","Feb 03 2018 10:41 AM","CASH","543.50"
"BHCT-01","Jonathan  Lacanlale","00002064","Rey Jhon Lofranco","Feb 06 2018 08:58 PM","CASH","125.00"
"BHCT-01","Judith Reyes","00002068","Rey Jhon Lofranco","Feb 02 2018 08:33 PM","CASH","715.00"
"BHCT-01","Julius Feranil","00002069","Rey Jhon Lofranco","Jan 31 2018 08:22 PM","CASH","125.00"
"BHCT-01","R.M Meganathan","00002070","Rey Jhon Lofranco","Feb 02 2018 07:02 PM","CASH","125.00"
"BHCT-01","108 Kalibo","00002071","Rey Jhon Lofranco","Jan 31 2018 06:44 PM","CASH","460.00"
"BHCT-01","Gene Juan","00002072","Rey Jhon Lofranco","Feb 01 2018 07:28 PM","CASH","445.00"
"BHCT-01","AJ Rivera","00002073","Rey Jhon Lofranco","Feb 10 2018 10:26 AM","CASH","125.00"
"BHCT-01","Emma Vailoces","00002075","Rey Jhon Lofranco","Feb 09 2018 08:49 PM","CASH","245.50"
"BHCT-01","Daryl Solis ","00002076","Rey Jhon Lofranco","Jan 30 2018 08:00 PM","CASH","172.50"
"BHCT-01","Cheezka Marie Mercader ","00002079","Vince Alper  Gepte","Feb 04 2018 12:54 PM","CASH","290.50"
"BHCT-01","Breyndon Manigos","00002080","Vince Alper  Gepte","Jan 29 2018 07:37 PM","CASH","268.50"
"BHCT-01","Maricris Agcaoili","00002081","Vince Alper  Gepte","Feb 02 2018 04:16 PM","CASH","167.50"
"BHCT-01","Michael Loremia","00002082","Vince Alper  Gepte","Feb 01 2018 10:42 AM","CASH","170.00"
"BHCT-01","Myles  Dela Rosa","00002083","Vince Alper  Gepte","Jan 28 2018 08:03 PM","CASH","125.00"
"BHCT-01","Jan Dumlao","00002085","Vince Alper  Gepte","Feb 03 2018 03:05 PM","CASH","325.00"
"BHCT-01","Mj Acosta ","00002086","Vince Alper  Gepte","Jan 31 2018 12:42 PM","CASH","140.00"
"BHCT-01","Cha Malazarte","00002087","Vince Alper  Gepte","Feb 10 2018 11:33 AM","CASH","885.50"
"BHCT-01","Cha Malazarte","00002088","Vince Alper  Gepte","Feb 10 2018 11:32 AM","CASH","200.00"
"BHCT-01","Oscar Lopez","00002089","Vince Alper  Gepte","Feb 07 2018 08:19 PM","CASH","337.50"
"BHCT-01","Jay Chan","00002090","Vince Alper  Gepte","Feb 06 2018 02:06 PM","CASH","262.50"
"BHCT-01","Mylene Enriquez","00002091","Vince Alper  Gepte","Feb 03 2018 06:19 PM","CASH","200.00"
"BHCT-01","Celyne Zarraga","00002093","Vince Alper  Gepte","Feb 01 2018 07:04 PM","CASH","250.00"
"BHCT-01","Jo Tesalona ","00002094","Vince Alper  Gepte","Feb 03 2018 08:08 PM","CASH","1110.00"
"BHCT-01","Roy Tan","00002096","Vince Alper  Gepte","Feb 03 2018 10:40 AM","CASH","127.50"
"BHCT-01","Rex Martinez","00002097","Vince Alper  Gepte","Jan 31 2018 08:27 PM","CASH","360.00"
"BHCT-01","Kevin Eniego","00002098","Vince Alper  Gepte","Jan 30 2018 08:01 PM","CASH","167.50"
"BHCT-01","Reiza Banega","00002100","Vince Alper  Gepte","Feb 11 2018 11:55 AM","CASH","285.50"
"BHCT-01","Eissa Magat","00002101","Vince Alper  Gepte","Feb 01 2018 11:12 AM","CASH","335.00"
"BHCT-01","Sherwin Lim","00002102","Vince Alper  Gepte","Feb 11 2018 11:29 AM","CASH","373.00"
"BHCT-01","Ariel Quinto","00002103","Vince Alper  Gepte","Feb 01 2018 07:21 PM","CASH","150.00"
"BHCT-01","ARLENE VALENZUELA","00002104","Vince Alper  Gepte","Feb 07 2018 03:19 PM","CASH","272.00"
"BHCT-01","Ana Alger","00002105","Vince Alper  Gepte","Feb 01 2018 10:33 AM","CASH","125.00"
"BHCT-01","Reya Alvarez","00002106","Vince Alper  Gepte","Feb 03 2018 05:57 PM","CASH","337.50"
"BHCT-01","R.M Meganathan","00002107","Vince Alper  Gepte","Feb 03 2018 10:43 AM","CASH","239.00"
"BHCT-01","Errol Pontillas","00002108","Vince Alper  Gepte","Feb 02 2018 06:58 PM","CASH","125.00"
"BHCT-01","Fred Lanado","00002109","Vince Alper  Gepte","Feb 02 2018 10:57 AM","CASH","167.50"
"BHCT-01","Mita Palawan","00002110","Vince Alper  Gepte","Jan 31 2018 06:32 PM","CASH","300.00"
"BHCT-01","Jeane Iglesia","00002113","Vince Alper  Gepte","Feb 05 2018 10:18 AM","CASH","753.50"
"BHCT-01","Raymund Danao","00002114","Vince Alper  Gepte","Feb 02 2018 11:18 AM","CASH","309.50"
"BHCT-01","Erik Balaoing","00002115","Vince Alper  Gepte","Feb 04 2018 08:24 PM","CASH","245.00"
"BHCT-01","Ronald Jay Gulanes","00002116","Vince Alper  Gepte","Feb 04 2018 09:16 PM","CASH","268.00"
"BHCT-01","Ronnie Lagurin","00002117","Vince Alper  Gepte","Feb 04 2018 02:58 PM","CASH","167.00"
"BHCT-01","Jam Andes","00002119","Vince Alper  Gepte","Feb 04 2018 06:17 PM","CASH","849.00"
"BHCT-01","Bon Lorenz Ariola","00002121","Vince Alper  Gepte","Feb 06 2018 08:28 PM","CASH","195.00"
"BHCT-01","Jess  Tuadles","00002122","Rey Jhon Lofranco","Feb 08 2018 11:12 AM","CASH","125.00"
"BHCT-01","Charles  Llagas","00002123","Rey Jhon Lofranco","Feb 03 2018 07:02 PM","CASH","203.00"
"BHCT-01","101 ozamis","00002124","Rey Jhon Lofranco","Feb 09 2018 06:27 PM","CASH","1109.50"
"BHCT-01","Rodin Victoriano","00002125","Rey Jhon Lofranco","Feb 03 2018 06:25 PM","CASH","181.50"
"BHCT-01","Marianne Jade Gustilo","00002126","Rey Jhon Lofranco","Feb 10 2018 11:30 AM","CASH","335.00"
"BHCT-01","Daisy Lyn  Arcenas ","00002130","Rey Jhon Lofranco","Feb 08 2018 08:13 PM","CASH","395.50"
"BHCT-01","Lilibeth Maria Luga","00002132","Rey Jhon Lofranco","Feb 05 2018 10:08 AM","CASH","667.00"
"BHCT-01","Justine Marimla ","00002136","Rey Jhon Lofranco","Feb 05 2018 06:31 PM","CASH","125.00"
"BHCT-01","Michael Loremia","00002138","Rey Jhon Lofranco","Feb 06 2018 10:48 AM","CASH","177.50"
"BHCT-01","Xandro Pincaro","00002140","Rey Jhon Lofranco","Feb 04 2018 11:20 AM","CASH","185.00"
"BHCT-01","Mae Emmanuelle Srisawasdi","00002142","Rey Jhon Lofranco","Feb 05 2018 07:30 PM","CASH","192.50"
"BHCT-01","Myles  Dela Rosa","00002145","Vince Alper  Gepte","Feb 05 2018 09:13 PM","CASH","125.00"
"BHCT-01","Myles  Dela Rosa","00002146","Vince Alper  Gepte","Feb 10 2018 06:50 PM","CASH","130.00"
"BHCT-01","Denise Badua","00002147","Vince Alper  Gepte","Feb 05 2018 07:32 PM","CASH","145.00"
"BHCT-01","Catherine  Jacobe","00002150","Vince Alper  Gepte","Feb 06 2018 02:59 PM","CASH","450.00"
"BHCT-01","Daphne Lontajo","00002151","Vince Alper  Gepte","Feb 06 2018 12:12 PM","CASH","125.00"
"BHCT-01","Mark Sabelleno","00002152","Vince Alper  Gepte","Feb 05 2018 07:29 PM","CASH","157.50"
"BHCT-01","Gino Bonifacio","00002153","Vince Alper  Gepte","Feb 05 2018 01:04 PM","CASH","125.00"
"BHCT-01","Pandi Pandi","00002154","Vince Alper  Gepte","Feb 07 2018 11:57 AM","CASH","167.50"
"BHCT-01","Red Golpu","00002155","Vince Alper  Gepte","Feb 07 2018 08:47 PM","CASH","125.00"
"BHCT-01","Mikhael Miranda ","00002156","Vince Alper  Gepte","Feb 07 2018 07:10 PM","CASH","125.00"
"BHCT-01","Dante Ruiz","00002157","Vince Alper  Gepte","Feb 06 2018 06:05 PM","CASH","150.00"
"BHCT-01","Jonathan  Lacanlale","00002158","Vince Alper  Gepte","Feb 07 2018 02:29 PM","CASH","125.00"
"BHCT-01","Mita Palawan","00002159","Vince Alper  Gepte","Feb 07 2018 12:30 PM","CASH","712.50"
"BHCT-01","Ron Bacani","00002160","Vince Alper  Gepte","Feb 05 2018 01:49 PM","CASH","350.00"
"BHCT-01","Warlito Teodoro","00002163","Vince Alper  Gepte","Feb 07 2018 11:55 AM","CASH","266.00"
"BHCT-01","ROY TAN","00002164","Vince Alper  Gepte","Feb 09 2018 12:29 PM","CASH","265.00"
"BHCT-01","Ramon Victor Laquindanun","00002165","Vince Alper  Gepte","Feb 06 2018 03:59 PM","CASH","182.00"
"BHCT-01","Mika Amador","00002166","Vince Alper  Gepte","Feb 10 2018 05:12 PM","CASH","525.00"
"BHCT-01","Celyne Zarraga","00002167","Vince Alper  Gepte","Feb 08 2018 07:37 PM","CASH","125.00"
"BHCT-01","Elise Ednaco","00002168","Vince Alper  Gepte","Feb 06 2018 05:16 PM","CASH","317.50"
"BHCT-01","Marielle Ong","00002170","Vince Alper  Gepte","Feb 05 2018 08:33 PM","CASH","540.00"
"BHCT-01","Lilibeth Maria Luga","00002171","Vince Alper  Gepte","Feb 09 2018 11:32 AM","CASH","157.50"
"BHCT-01","Bab Marasigan","00002173","Vince Alper  Gepte","Feb 09 2018 10:42 AM","CASH","387.00"
"BHCT-01","Bryan Oscar Ong","00002174","Vince Alper  Gepte","Feb 09 2018 08:14 PM","CASH","197.50"
"BHCT-01","Cheezka Marie Mercader ","00002175","Vince Alper  Gepte","Feb 11 2018 03:12 PM","CASH","125.00"
"BHCT-01","Katrina Magsino","00002176","Vince Alper  Gepte","Feb 07 2018 06:08 PM","CASH","265.00"
"BHCT-01","Jayn Ruth Agliam","00002177","Vince Alper  Gepte","Feb 08 2018 08:07 PM","CASH","402.50"
"BHCT-01","Judith Azucena","00002179","Vince Alper  Gepte","Feb 07 2018 08:32 PM","CASH","597.50"
"BHCT-01","Armon Almonina","00002188","Vince Alper  Gepte","Feb 11 2018 08:31 PM","CASH","512.50"
"BHCT-01","Raymund Danao","00002189","Vince Alper  Gepte","Feb 08 2018 10:20 AM","CASH","244.00"
"BHCT-01","Jona Obrador","00002191","Vince Alper  Gepte","Feb 07 2018 06:47 PM","CASH","125.00"
"BHCT-01","David Banting","00002192","Vince Alper  Gepte","Feb 07 2018 05:36 PM","CASH","146.50"
"BHCT-01","Rebecca Albert","00002193","Vince Alper  Gepte","Feb 10 2018 12:16 PM","CASH","392.50"
"BHCT-01","Fred Lanado","00002194","Vince Alper  Gepte","Feb 09 2018 11:25 AM","CASH","179.00"
"BHCT-01","Marianne Jade Gustilo","00002196","Vince Alper  Gepte","Feb 10 2018 11:08 AM","CASH","257.50"
"BHCT-01","Chia Navarrosa","00002197","Vince Alper  Gepte","Feb 09 2018 06:26 PM","CASH","125.00"
"BHCT-01","Armon Santos","00002198","Vince Alper  Gepte","Feb 11 2018 11:05 AM","CASH","145.00"
"BHCT-01","Erika  Abillon","00002199","Vince Alper  Gepte","Feb 11 2018 10:20 AM","CASH","175.00"
"BHCT-01","Alessandra Borromeo","00002201","Vince Alper  Gepte","Feb 07 2018 05:45 PM","CASH","400.00"
"BHCT-01","Anna Ano","00002202","Vince Alper  Gepte","Feb 09 2018 07:20 PM","CASH","145.00"
"BHCT-01","Mita Neogi","00002208","Vince Alper  Gepte","Feb 09 2018 08:29 PM","CASH","185.00"
"BHCT-01","108 Kalibo","00002209","Vince Alper  Gepte","Feb 10 2018 11:09 AM","CASH","654.50"
"BHCT-01","Erik Balaoing","00002210","Vince Alper  Gepte","Feb 11 2018 06:36 PM","CASH","195.50"
"BHCT-01","Joseph Cayton","00002211","Vince Alper  Gepte","Feb 11 2018 07:42 PM","CASH","300.00"
"BHCT-01","Raymund Danao","00002212","Vince Alper  Gepte","Feb 11 2018 07:29 PM","CASH","204.00"
"BHCT-01","Anna Ano","00002214","Vince Alper  Gepte","Feb 09 2018 07:21 PM","CASH","192.50"
"BHCT-01","Anna Ano","00002219","Vince Alper  Gepte","Feb 11 2018 07:29 PM","CASH","500.00"
"BHCT-01","Tasha Levinna","00002221","Vince Alper  Gepte","Feb 10 2018 12:55 PM","CASH","169.50"
"BHCT-01","Roslyn Manollano","00002223","Vince Alper  Gepte","Feb 10 2018 06:27 PM","CASH","125.00"
"BHCT-01","Celyne Zarraga","00002227","Vince Alper  Gepte","Feb 11 2018 03:16 PM","CASH","192.50"
"BHCT-01","Ron Irvin Marcelino","00002229","Vince Alper  Gepte","Feb 10 2018 07:24 PM","CASH","132.50"
"BHCT-01","Ronald Jay Gulanes","00002232","Vince Alper  Gepte","Feb 11 2018 10:29 AM","CASH","245.00"
"BHCT-01","Mark Serrano","00002234","Vince Alper  Gepte","Feb 11 2018 08:03 PM","CASH","320.50"
"BHCT-01","Marissa Kintanar","00002235","Vince Alper  Gepte","Feb 11 2018 02:34 PM","CASH","125.00"
"BHCT-01","Socorro Santos ","00002236","Vince Alper  Gepte","Feb 11 2018 02:34 PM","CASH","350.00"
"BHCT-01","Charles Lllagas","00002238","Vince Alper  Gepte","Feb 11 2018 07:40 PM","CASH","225.00"
"BHCT-01","Kent Joseph Gabucan","00002244","Vince Alper  Gepte","Feb 11 2018 07:52 PM","CASH","270.00"
"BHCT-01","Anna Ano","00002248","Vince Alper  Gepte","Feb 11 2018 07:30 PM","CASH","135.00"
"BHCT-01","Mikhael Miranda ","00002249","Vince Alper  Gepte","Feb 12 2018 12:22 PM","CASH","125.00"
"BHCT-01","Myles  Dela Rosa","00002256","Vince Alper  Gepte","Feb 11 2018 07:41 PM","CASH","397.00"
"FRMC-01","rex Seares","0000305","Jommel Minranda","Jan 28 2018 09:46 AM","CASH","250.00"
"FRMC-01","JM Crisostomo","0000447","Jommel Minranda","Feb 11 2018 05:55 PM","CASH","120.00"
"FRMC-01","joan Lleva","0000484","Jommel Minranda","Jan 28 2018 09:29 AM","CASH","105.00"
"FRMC-01","arlou teodoro","0000498","Jommel Minranda","Feb 04 2018 06:44 PM","CASH","185.50"
"FRMC-01","Claridad Charm","0000514","Jommel Minranda","Feb 03 2018 04:30 PM","CASH","195.00"
"FRMC-01","tiffany barquillo","0000519","Jommel Minranda","Jan 29 2018 09:42 AM","CASH","219.00"
"FRMC-01","Juan Paolo Espina","0000522","Jommel Minranda","Jan 28 2018 02:13 PM","CASH","50.00"
"FRMC-01","baby salvacim","0000523","Jommel Minranda","Jan 30 2018 10:36 AM","CASH","185.00"
"FRMC-01","Reanne Guevara","0000524","Jommel Minranda","Feb 06 2018 09:46 AM","CASH","197.50"
"FRMC-01","floricel romposon","0000525","Jommel Minranda","Feb 01 2018 05:00 PM","CASH","116.50"
"FRMC-01","vryx manalo","0000526","Jommel Minranda","Jan 29 2018 04:22 PM","CASH","252.50"
"FRMC-01","Von Salas","0000527","Jommel Minranda","Jan 28 2018 08:23 PM","CASH","50.00"
"FRMC-01","Jason Brylle Lim","0000528","Jommel Minranda","Jan 30 2018 10:00 AM","CASH","97.50"
"FRMC-01","Gem Villarico","0000529","Jommel Minranda","Jan 31 2018 07:49 PM","CASH","195.00"
"FRMC-01","Franklin Rose Marie","0000530","Jommel Minranda","Jan 29 2018 06:05 PM","CASH","71.00"
"FRMC-01","Francesca Camille Escano","0000531","Jommel Minranda","Jan 31 2018 07:17 PM","CASH","299.00"
"FRMC-01","Gladis manalo","0000532","Jommel Minranda","Feb 02 2018 09:14 AM","CASH","126.00"
"FRMC-01","rafael militante","0000533","Jommel Minranda","Jan 30 2018 05:03 PM","CASH","226.00"
"FRMC-01","Yure Etrata","0000534","Jommel Minranda","Feb 02 2018 07:11 PM","CASH","230.50"
"FRMC-01","Daris Dubongco","0000535","Jommel Minranda","Feb 03 2018 11:36 AM","CASH","123.00"
"FRMC-01","tiffany barquillo","0000536","Jommel Minranda","Feb 04 2018 07:36 PM","CASH","175.50"
"FRMC-01","john cecil hupa","0000537","Jommel Minranda","Feb 03 2018 02:34 PM","CASH","100.00"
"FRMC-01","leo panaligan","0000538","Jommel Minranda","Feb 04 2018 04:30 PM","CASH","50.00"
"FRMC-01","roma may doria","0000540","Jommel Minranda","Feb 04 2018 04:29 PM","CASH","312.50"
"FRMC-01","Jeremias Paras","0000541","Jommel Minranda","Feb 01 2018 10:24 AM","CASH","197.50"
"FRMC-01","Pristine Ranas","0000542","Jommel Minranda","Feb 05 2018 05:27 PM","CASH","117.00"
"FRMC-01","belen hernandes","0000543","Jommel Minranda","Feb 01 2018 05:33 PM","CASH","495.00"
"FRMC-01","Rushelle Paat","0000544","Jommel Minranda","Feb 02 2018 06:47 PM","CASH","607.50"
"FRMC-01","Angela Maranan","0000545","Jommel Minranda","Feb 02 2018 10:29 AM","CASH","163.00"
"FRMC-01","airyl villamero","0000546","Jommel Minranda","Feb 02 2018 10:28 AM","CASH","112.50"
"FRMC-01","Anjelica Gonzales","0000547","Jommel Minranda","Feb 05 2018 04:49 PM","CASH","100.00"
"FRMC-01","Von Salas","0000548","Jommel Minranda","Feb 04 2018 08:38 PM","CASH","62.50"
"FRMC-01","Marie Murallo","0000549","Jommel Minranda","Feb 04 2018 01:30 PM","CASH","212.50"
"FRMC-01","John Patrick Agleham","0000550","Jommel Minranda","Feb 05 2018 03:04 PM","CASH","101.50"
"FRMC-01","Gem Villarico","0000551","Jommel Minranda","Feb 06 2018 08:21 PM","CASH","273.00"
"FRMC-01","john cecil hupa","0000552","Jommel Minranda","Feb 08 2018 04:24 PM","CASH","50.00"
"FRMC-01","Mary Fernandez","0000553","Jommel Minranda","Feb 04 2018 07:37 PM","CASH","110.50"
"FRMC-01","Juan Paolo Espina","0000555","Jommel Minranda","Feb 04 2018 08:36 PM","CASH","81.00"
"FRMC-01","Benedick Gabat","0000556","Christine Montealegre","Feb 05 2018 06:39 PM","CASH","210.00"
"FRMC-01","Jay Jatico","0000557","Christine Montealegre","Feb 06 2018 05:42 PM","CASH","127.00"
"FRMC-01","Jeremias Paras","0000558","Christine Montealegre","Feb 09 2018 08:44 PM","CASH","148.00"
"FRMC-01","Mary Fernandez","0000559","Christine Montealegre","Feb 07 2018 06:47 PM","CASH","212.50"
"FRMC-01","tiffany barquillo","0000560","Christine Montealegre","Feb 10 2018 10:48 AM","CASH","145.50"
"FRMC-01","baby salvacim","0000561","Christine Montealegre","Feb 08 2018 11:44 AM","CASH","253.50"
"FRMC-01","Von Salas","0000562","Christine Montealegre","Feb 10 2018 08:08 PM","CASH","50.00"
"FRMC-01","ednalyn reyes","0000564","Christine Montealegre","Feb 08 2018 06:29 PM","CASH","521.00"
"FRMC-01","Rosalinda Maiso","0000566","Christine Montealegre","Feb 09 2018 07:28 PM","CASH","337.00"
"FRMC-01","arvin padilla","0000567","Christine Montealegre","Feb 12 2018 09:46 AM","CASH","62.50"
"FRMC-01","Normanfran Tungcul","0000568","Christine Montealegre","Feb 10 2018 01:17 PM","CASH","125.50"
"FRMC-01","Benedick Gabat","0000570","Christine Montealegre","Feb 10 2018 08:44 PM","CASH","80.00"
"FRMC-01","Anjelica Gonzales","0000571","Christine Montealegre","Feb 12 2018 04:49 PM","CASH","105.00"
"FRMC-01","randy mowarca","0000574","Christine Montealegre","Feb 10 2018 01:06 PM","CASH","68.50"
"FRMC-01","vryx manalo","0000576","Christine Montealegre","Feb 12 2018 01:34 PM","CASH","157.50"
"FRMC-01","leven cerezo","0000577","Christine Montealegre","Feb 11 2018 12:45 PM","CASH","138.00"
"QPMM-01","Jimmy Jayme","00001315","Jennylyn Caudor","Jan 31 2018 08:32 PM","CASH","227.50"
"QPMM-01","Ian Patrick Gabriel","00001481","Jennylyn Caudor","Jan 31 2018 09:22 AM","CASH","325.00"
"QPMM-01","Earl Osorio","00001498","Jennylyn Caudor","Feb 02 2018 02:00 PM","CASH","205.00"
"QPMM-01","Aisha Demafeliz","00001567","Jennylyn Caudor","Feb 01 2018 10:11 AM","CASH","105.00"
"QPMM-01","Rj Dajotoy","00001663","Jennylyn Caudor","Feb 03 2018 09:55 AM","CASH","245.00"
"QPMM-01","Janet Caneda","00001693","Jennylyn Caudor","Jan 31 2018 09:49 AM","CASH","130.00"
"QPMM-01","Ronaldo Alamis","00001714","Jennylyn Caudor","Jan 31 2018 11:17 AM","CASH","70.00"
"QPMM-01","Ebing  Villanueva","00001715","Jennylyn Caudor","Feb 01 2018 04:14 PM","CASH","215.00"
"QPMM-01","Benjie Clieto","00001722","Jennylyn Caudor","Jan 31 2018 09:20 PM","CASH","200.00"
"QPMM-01","Andrie  Santos","00001730","Jennylyn Caudor","Feb 09 2018 11:02 AM","CASH","70.00"
"QPMM-01","Tesie Banda","00001735","Jennylyn Caudor","Jan 28 2018 05:57 PM","CASH","103.00"
"QPMM-01","Gervin Sambilay","00001744","Jennylyn Caudor","Jan 29 2018 05:09 PM","CASH","187.50"
"QPMM-01","Mary Grace Palomeras","00001745","Jennylyn Caudor","Jan 28 2018 12:06 PM","CASH","220.00"
"QPMM-01","JAKE CONTRERAS","00001749","Jennylyn Caudor","Jan 31 2018 06:30 PM","CASH","105.00"
"QPMM-01","Noel Lumabao","00001750","Jennylyn Caudor","Jan 28 2018 11:07 AM","CASH","107.50"
"QPMM-01","Lyka Oracion","00001752","Jennylyn Caudor","Feb 06 2018 08:23 AM","CASH","363.00"
"QPMM-01","Emrick Manio","00001756","Jennylyn Caudor","Jan 28 2018 06:36 PM","CASH","860.00"
"QPMM-01","Janice Pascua","00001761","Jennylyn Caudor","Feb 05 2018 03:45 PM","CASH","222.50"
"QPMM-01","Jaime Macaranas","00001762","Jennylyn Caudor","Feb 01 2018 09:30 PM","CASH","100.00"
"QPMM-01","Hanopol Heric","00001764","Jennylyn Caudor","Jan 29 2018 08:27 PM","CASH","50.00"
"QPMM-01","Algerico Dangco","00001770","Rey John  Lofranco","Jan 31 2018 10:21 AM","CASH","87.50"
"QPMM-01","Joanna Gapido","00001775","Rey John  Lofranco","Jan 31 2018 10:36 AM","CASH","551.50"
"QPMM-01","Jay-Ar Diamante","00001777","Rey John  Lofranco","Jan 28 2018 09:19 AM","CASH","385.00"
"QPMM-01","Benjie Roxas","00001778","Rey John  Lofranco","Jan 29 2018 10:00 PM","CASH","308.00"
"QPMM-01","Ofelia Fernandez","00001779","Rey John  Lofranco","Feb 01 2018 06:11 PM","CASH","122.50"
"QPMM-01","Shiela Mae Del Rosario","00001780","Rey John  Lofranco","Jan 28 2018 12:08 PM","CASH","115.00"
"QPMM-01","Bernadette Avancena","00001781","Rey John  Lofranco","Feb 04 2018 11:05 AM","CASH","130.00"
"QPMM-01","John Erick Cabautan","00001783","Rey John  Lofranco","Jan 28 2018 01:10 PM","CASH","243.50"
"QPMM-01","Trixie Abanilla","00001788","Rey John  Lofranco","Jan 28 2018 05:54 PM","CASH","300.00"
"QPMM-01","Trixie Abanilla","00001789","Rey John  Lofranco","Feb 01 2018 07:24 PM","CASH","130.00"
"QPMM-01","Naths Labado","00001790","Rey John  Lofranco","Jan 29 2018 08:17 PM","CASH","50.00"
"QPMM-01","Maria Antonio","00001791","Rey John  Lofranco","Jan 28 2018 02:09 PM","CASH","297.00"
"QPMM-01","Nobie Garcia","00001794","Rey John  Lofranco","Jan 28 2018 05:45 PM","CASH","127.50"
"QPMM-01","alexis hizon","00001795","Rey John  Lofranco","Jan 28 2018 12:12 PM","CASH","345.00"
"QPMM-01","Toning Cortis","00001797","Rey John  Lofranco","Feb 02 2018 03:24 PM","CASH","105.00"
"QPMM-01","merlyn calaunan","00001798","Rey John  Lofranco","Feb 02 2018 09:52 AM","CASH","113.50"
"QPMM-01","Jade Mark  Arancon","00001799","Rey John  Lofranco","Jan 28 2018 06:53 PM","CASH","187.50"
"QPMM-01","Christian Dela Cruz","00001800","Rey John  Lofranco","Jan 28 2018 09:50 AM","CASH","112.50"
"QPMM-01","Marx Soriano","00001802","Rey John  Lofranco","Feb 03 2018 11:17 AM","CASH","295.00"
"QPMM-01","Rosalina Remilia","00001803","Rey John  Lofranco","Jan 28 2018 10:09 AM","CASH","50.00"
"QPMM-01","Joan Lumawag","00001804","Rey John  Lofranco","Jan 29 2018 09:15 AM","CASH","139.50"
"QPMM-01","Archie Valerio","00001806","Rey John  Lofranco","Jan 29 2018 07:38 PM","CASH","50.00"
"QPMM-01","Mandy Avinanto","00001807","Rey John  Lofranco","Jan 29 2018 07:37 PM","CASH","87.50"
"QPMM-01","Monica Dcayana","00001808","Rey John  Lofranco","Feb 05 2018 02:46 PM","CASH","365.50"
"QPMM-01","Maribel Posadas","00001809","Rey John  Lofranco","Jan 28 2018 02:45 PM","CASH","137.50"
"QPMM-01","Emil Labanan","00001810","Rey John  Lofranco","Jan 31 2018 06:33 PM","CASH","147.00"
"QPMM-01","bryan Espinosa","00001811","Rey John  Lofranco","Jan 29 2018 01:59 PM","CASH","108.50"
"QPMM-01","Lorina Oyales","00001813","Rey John  Lofranco","Feb 04 2018 08:43 PM","CASH","75.00"
"QPMM-01","Rhoda Fernandez","00001814","Rey John  Lofranco","Jan 28 2018 02:28 PM","CASH","90.00"
"QPMM-01","Mayang Vinzon","00001815","Rey John  Lofranco","Jan 28 2018 02:29 PM","CASH","61.50"
"QPMM-01","Joanne Austria","00001816","Rey John  Lofranco","Jan 28 2018 02:30 PM","CASH","67.50"
"QPMM-01","Ariel Olay","00001817","Rey John  Lofranco","Jan 29 2018 04:09 PM","CASH","110.00"
"QPMM-01","Lin Lin Espinosa","00001818","Rey John  Lofranco","Jan 29 2018 04:30 PM","CASH","172.50"
"QPMM-01","Jay Ar Cabelin","00001819","Rey John  Lofranco","Jan 30 2018 06:35 PM","CASH","62.50"
"QPMM-01","Arjan Nagma","00001820","Rey John  Lofranco","Jan 29 2018 08:05 PM","CASH","50.00"
"QPMM-01","Randell Garcia","00001821","Rey John  Lofranco","Jan 29 2018 07:13 PM","CASH","317.50"
"QPMM-01","Rey Banares","00001822","Rey John  Lofranco","Jan 28 2018 05:55 PM","CASH","207.50"
"QPMM-01","Geoffrey Reyes","00001823","Rey John  Lofranco","Jan 28 2018 05:59 PM","CASH","100.00"
"QPMM-01","Alex Sambilay","00001824","Rey John  Lofranco","Jan 30 2018 05:46 PM","CASH","325.00"
"QPMM-01","Michaela Grino","00001825","Rey John  Lofranco","Jan 29 2018 02:29 PM","CASH","437.50"
"QPMM-01","Mae Manimpin","00001826","Rey John  Lofranco","Jan 29 2018 03:57 PM","CASH","225.00"
"QPMM-01","Carmela Lito","00001827","Rey John  Lofranco","Jan 28 2018 09:43 PM","CASH","50.00"
"QPMM-01","Rafaelle Solidum","00001828","Rey John  Lofranco","Jan 30 2018 08:11 PM","CASH","435.50"
"QPMM-01","Jojo Casipit","00001829","Rey John  Lofranco","Jan 30 2018 10:09 AM","CASH","70.00"
"QPMM-01","Macsimson Relleve","00001830","Rey John  Lofranco","Jan 30 2018 09:26 AM","CASH","125.00"
"QPMM-01","Adan Batac","00001831","Rey John  Lofranco","Jan 30 2018 01:38 PM","CASH","212.50"
"QPMM-01","marvin tiazon","00001832","Rey John  Lofranco","Jan 31 2018 11:49 AM","CASH","137.50"
"QPMM-01","Albert  Cunanan","00001833","Rey John  Lofranco","Jan 28 2018 02:06 PM","CASH","191.00"
"QPMM-01","Mary Grace Palomeras","00001834","Rey John  Lofranco","Feb 07 2018 07:34 PM","CASH","270.00"
"QPMM-01","Ann Kristine Serrano","00001835","Rey John  Lofranco","Jan 30 2018 08:10 PM","CASH","188.50"
"QPMM-01","Errol John Olegario","00001836","Rey John  Lofranco","Feb 03 2018 11:43 AM","CASH","160.00"
"QPMM-01","Joseph Lomibao","00001838","Maricar Aguilar","Jan 31 2018 06:43 PM","CASH","103.00"
"QPMM-01","Joseph Lomibao","00001839","Maricar Aguilar","Jan 31 2018 06:41 PM","CASH","62.50"
"QPMM-01","Nikko Lodronio","00001842","Maricar Aguilar","Jan 31 2018 08:28 PM","CASH","50.00"
"QPMM-01","Maribel Posadas","00001843","Maricar Aguilar","Jan 30 2018 01:47 PM","CASH","144.00"
"QPMM-01","linda zaragosa","00001844","Maricar Aguilar","Jan 31 2018 05:11 PM","CASH","180.00"
"QPMM-01","Charina Espanilla","00001845","Maricar Aguilar","Feb 01 2018 06:54 PM","CASH","80.50"
"QPMM-01","Cesar Ascrate","00001846","Maricar Aguilar","Feb 01 2018 09:41 AM","CASH","398.50"
"QPMM-01","emma mendez","00001847","Maricar Aguilar","Feb 03 2018 08:05 AM","CASH","133.00"
"QPMM-01","MARTIN CARLO MANTALA ","00001848","Maricar Aguilar","Feb 06 2018 04:05 PM","CASH","122.50"
"QPMM-01","bong rafael","00001849","Maricar Aguilar","Feb 01 2018 09:39 AM","CASH","570.00"
"QPMM-01","Ronald Tila","00001850","Maricar Aguilar","Feb 01 2018 01:34 PM","CASH","130.00"
"QPMM-01","Michael Gariando","00001851","Maricar Aguilar","Feb 04 2018 04:17 PM","CASH","87.50"
"QPMM-01","urmeneta  earn","00001852","Maricar Aguilar","Feb 03 2018 12:15 PM","CASH","112.50"
"QPMM-01","Jonathan Tenorio","00001853","Maricar Aguilar","Feb 02 2018 02:55 PM","CASH","195.00"
"QPMM-01","Jesse Ray Mecate","00001854","Maricar Aguilar","Feb 02 2018 02:22 PM","CASH","300.00"
"QPMM-01","Maria Antonio","00001856","Maricar Aguilar","Feb 04 2018 06:28 PM","CASH","363.00"
"QPMM-01","Ra De Guzman","00001857","Maricar Aguilar","Feb 08 2018 03:33 PM","CASH","211.00"
"QPMM-01","Tintin Mangubat","00001858","Maricar Aguilar","Feb 03 2018 03:11 PM","CASH","112.50"
"QPMM-01","Carmela Callos","00001859","Maricar Aguilar","Feb 01 2018 04:50 PM","CASH","250.00"
"QPMM-01","April Batac","00001860","Maricar Aguilar","Feb 01 2018 07:08 PM","CASH","100.00"
"QPMM-01","Darwin  Calma","00001861","Maricar Aguilar","Feb 02 2018 06:16 PM","CASH","146.50"
"QPMM-01","Jay-Ar Diamante","00001862","Maricar Aguilar","Feb 03 2018 04:17 PM","CASH","367.50"
"QPMM-01","judy lyn padua","00001863","Maricar Aguilar","Jan 31 2018 07:13 PM","CASH","355.00"
"QPMM-01","Maribel Posadas","00001865","Maricar Aguilar","Feb 01 2018 02:20 PM","CASH","132.50"
"QPMM-01","charisma  mani","00001867","Maricar Aguilar","Feb 05 2018 03:37 PM","CASH","240.00"
"QPMM-01","Ronaldo Alamis","00001868","Maricar Aguilar","Feb 11 2018 03:59 PM","CASH","102.50"
"QPMM-01","Nobie Garcia","00001869","Maricar Aguilar","Feb 04 2018 09:11 PM","CASH","107.50"
"QPMM-01","Joedy Catan","00001870","Maricar Aguilar","Feb 02 2018 03:33 PM","CASH","154.00"
"QPMM-01","Mj Santos","00001873","Maricar Aguilar","Feb 04 2018 06:51 PM","CASH","142.50"
"QPMM-01","Juliet Jm Spa AND Salon","00001874","Maricar Aguilar","Feb 01 2018 05:30 PM","CASH","420.00"
"QPMM-01","Randell Garcia","00001875","Maricar Aguilar","Feb 02 2018 07:18 PM","CASH","278.00"
"QPMM-01","Donato Macapagal","00001876","Maricar Aguilar","Feb 03 2018 05:04 PM","CASH","168.00"
"QPMM-01","rency jean flores","00001878","Maricar Aguilar","Feb 03 2018 04:32 PM","CASH","308.00"
"QPMM-01","Carl jhon Ombid","00001879","Maricar Aguilar","Feb 04 2018 12:14 PM","CASH","92.50"
"QPMM-01","Paul Richard Calimag","00001880","Maricar Aguilar","Feb 08 2018 06:55 PM","CASH","97.50"
"QPMM-01","Jojo Casipit","00001881","Maricar Aguilar","Feb 06 2018 01:02 PM","CASH","50.00"
"QPMM-01","John Erick Cabautan","00001882","Maricar Aguilar","Feb 05 2018 06:00 PM","CASH","276.50"
"QPMM-01","Lyka Oracion","00001883","Maricar Aguilar","Feb 03 2018 10:41 AM","CASH","167.50"
"QPMM-01","alexis batac","00001884","Maricar Aguilar","Feb 05 2018 10:28 AM","CASH","255.00"
"QPMM-01","Ofelia Fernandez","00001885","Maricar Aguilar","Feb 10 2018 08:15 AM","CASH","110.50"
"QPMM-01","Joan Lumawag","00001887","Maricar Aguilar","Feb 05 2018 03:15 PM","CASH","166.50"
"QPMM-01","Mark Anthony Bello","00001889","Maricar Aguilar","Feb 06 2018 02:45 PM","CASH","112.50"
"QPMM-01","Toning Cortis","00001890","Maricar Aguilar","Feb 11 2018 11:20 AM","CASH","52.50"
"QPMM-01","Mark Foster","00001891","Maricar Aguilar","Feb 06 2018 12:27 PM","CASH","182.50"
"QPMM-01","jonathan santos","00001893","Maricar Aguilar","Feb 07 2018 05:49 PM","CASH","112.50"
"QPMM-01","angeline ladio","00001894","Maricar Aguilar","Feb 02 2018 06:11 PM","CASH","359.50"
"QPMM-01","Jimbo Taligates","00001895","Maricar Aguilar","Feb 04 2018 06:48 PM","CASH","245.00"
"QPMM-01","Jay Ar Cabelin","00001896","Maricar Aguilar","Feb 07 2018 08:45 PM","CASH","56.50"
"QPMM-01","Arjan Nagma","00001897","Maricar Aguilar","Feb 06 2018 07:07 PM","CASH","87.50"
"QPMM-01","Virgo Dann Mamalias","00001898","Maricar Aguilar","Feb 04 2018 05:23 PM","CASH","177.50"
"QPMM-01","Jake  Cayabyab","00001899","Maricar Aguilar","Feb 05 2018 06:38 PM","CASH","162.50"
"QPMM-01","Geoffrey Reyes","00001900","Maricar Aguilar","Feb 04 2018 10:24 AM","CASH","117.50"
"QPMM-01","Christian Kenneth  Del Villar","00001901","Maricar Aguilar","Feb 05 2018 07:27 PM","CASH","145.00"
"QPMM-01","Mandy Avinanto","00001902","Maricar Aguilar","Feb 05 2018 07:36 PM","CASH","72.50"
"QPMM-01","Ferdie Licardo","00001903","Maricar Aguilar","Feb 04 2018 11:45 AM","CASH","177.50"
"QPMM-01","Carmela Lito","00001904","Maricar Aguilar","Feb 03 2018 08:43 AM","CASH","57.50"
"QPMM-01","Domingo Saludares","00001905","Maricar Aguilar","Feb 07 2018 08:30 AM","CASH","325.00"
"QPMM-01","Naths Labado","00001906","Maricar Aguilar","Feb 06 2018 08:25 PM","CASH","94.00"
"QPMM-01","Genaro Lumanlan","00001907","Maricar Aguilar","Feb 06 2018 10:02 AM","CASH","132.50"
"QPMM-01","john keir fabella","00001908","Maricar Aguilar","Feb 03 2018 06:03 PM","CASH","100.00"
"QPMM-01","Giding Mendoza","00001912","Maricar Aguilar","Feb 06 2018 09:19 AM","CASH","80.50"
"QPMM-01","MACSIMSON RELLEVE","00001913","Maricar Aguilar","Feb 06 2018 08:24 AM","CASH","100.00"
"QPMM-01","marlyn ukay","00001914","Maricar Aguilar","Feb 05 2018 12:48 PM","CASH","62.50"
"QPMM-01","hazel tiu","00001915","Maricar Aguilar","Feb 06 2018 11:16 AM","CASH","162.50"
"QPMM-01","Juvyel Anne Saluta","00001916","Maricar Aguilar","Feb 10 2018 04:36 PM","CASH","312.50"
"QPMM-01","rodel  nocum","00001919","Maricar Aguilar","Feb 05 2018 08:04 PM","CASH","175.00"
"QPMM-01","Jery Ragodo","00001920","Maricar Aguilar","Feb 05 2018 09:27 AM","CASH","75.00"
"QPMM-01","Marvin De Castro","00001921","Maricar Aguilar","Feb 05 2018 06:01 PM","CASH","251.50"
"QPMM-01","Louie  De Asis","00001922","Maricar Aguilar","Feb 04 2018 09:55 AM","CASH","190.00"
"QPMM-01","mhel  de isco","00001923","Maricar Aguilar","Feb 09 2018 09:29 PM","CASH","150.00"
"QPMM-01","Bernadette Avancena","00001924","Maricar Aguilar","Feb 11 2018 10:27 AM","CASH","77.00"
"QPMM-01","Romeo Laconsay","00001925","Maricar Aguilar","Feb 09 2018 04:32 PM","CASH","245.00"
"QPMM-01","Danilo Borbo","00001926","Maricar Aguilar","Feb 06 2018 02:21 PM","CASH","120.00"
"QPMM-01","Randell Garcia","00001927","Maricar Aguilar","Feb 06 2018 07:02 PM","CASH","292.50"
"QPMM-01","Neren Villaber","00001928","Maricar Aguilar","Feb 06 2018 04:05 PM","CASH","188.00"
"QPMM-01","Joseph Lomibao","00001929","Maricar Aguilar","Feb 07 2018 08:45 PM","CASH","62.50"
"QPMM-01","Gervin Sambilay","00001930","Maricar Aguilar","Feb 08 2018 01:54 PM","CASH","72.50"
"QPMM-01","Ann Kristine Serrano","00001931","Maricar Aguilar","Feb 08 2018 08:26 PM","CASH","148.50"
"QPMM-01","mila  rsiga","00001932","Maricar Aguilar","Feb 08 2018 11:24 AM","CASH","174.00"
"QPMM-01","kevin amboy","00001933","Maricar Aguilar","Feb 06 2018 09:45 AM","CASH","77.00"
"QPMM-01","Gerald Casimiro","00001934","Maricar Aguilar","Feb 09 2018 08:47 AM","CASH","210.00"
"QPMM-01","Jun Paulo Verano","00001935","Maricar Aguilar","Feb 07 2018 03:03 PM","CASH","157.50"
"QPMM-01","Janice Pascua","00001936","Maricar Aguilar","Feb 12 2018 04:32 PM","CASH","203.00"
"QPMM-01","Anne Kristine Serrano","00001937","Maricar Aguilar","Feb 07 2018 07:45 PM","CASH","245.00"
"QPMM-01","Daniel Gutierrez","00001938","Maricar Aguilar","Feb 08 2018 06:46 PM","CASH","169.00"
"QPMM-01","Ronald Tila","00001939","Maricar Aguilar","Feb 07 2018 01:14 PM","CASH","155.00"
"QPMM-01","Algerico Dangco","00001940","Maricar Aguilar","Feb 08 2018 07:44 PM","CASH","90.00"
"QPMM-01","Kag. Mario Fernandez","00001941","Maricar Aguilar","Feb 09 2018 04:32 PM","CASH","305.00"
"QPMM-01","Maribel Posadas","00001942","Maricar Aguilar","Feb 10 2018 08:38 AM","CASH","135.50"
"QPMM-01","Benjie Roxas","00001943","Maricar Aguilar","Feb 09 2018 08:30 AM","CASH","192.00"
"QPMM-01","urmeneta  earn","00001944","Maricar Aguilar","Feb 09 2018 11:52 AM","CASH","103.00"
"QPMM-01","Reyna L","00001945","Maricar Aguilar","Feb 08 2018 04:30 PM","CASH","102.50"
"QPMM-01","Vince Descalzo","00001946","Maricar Aguilar","Feb 09 2018 09:31 PM","CASH","57.50"
"QPMM-01","Jay-Ar Diamante","00001948","Maricar Aguilar","Feb 11 2018 03:58 PM","CASH","342.50"
"QPMM-01","orlie aldai","00001949","Maricar Aguilar","Feb 09 2018 08:46 AM","CASH","70.00"
"QPMM-01","Shiela Mae Del Rosario","00001950","Maricar Aguilar","Feb 09 2018 09:30 PM","CASH","120.00"
"QPMM-01","wilmark varron","00001951","Maricar Aguilar","Feb 08 2018 11:24 AM","CASH","70.00"
"QPMM-01","rodel  nocum","00001952","Maricar Aguilar","Feb 12 2018 04:34 PM","CASH","245.00"
"QPMM-01","Justin Fabian","00001953","Maricar Aguilar","Feb 07 2018 06:04 PM","CASH","222.50"
"QPMM-01","Jade Mark  Arancon","00001954","Maricar Aguilar","Feb 09 2018 06:37 PM","CASH","117.50"
"QPMM-01","Mary Grace Palomeras","00001955","Maricar Aguilar","Feb 11 2018 09:28 PM","CASH","307.50"
"QPMM-01","Nobie Garcia","00001957","Maricar Aguilar","Feb 12 2018 08:26 AM","CASH","145.00"
"QPMM-01","Ebing  Villanueva","00001958","Maricar Aguilar","Feb 10 2018 05:06 PM","CASH","134.00"
"QPMM-01","Marites Lucero","00001960","Maricar Aguilar","Feb 11 2018 08:35 PM","CASH","157.50"
"QPMM-01","Jojo Casipit","00001961","Maricar Aguilar","Feb 10 2018 04:36 PM","CASH","70.00"
"QPMM-01","Aurelio Conlu","00001963","Maricar Aguilar","Feb 12 2018 04:32 PM","CASH","285.00"
"QPMM-01","Danilo Borbo","00001964","Maricar Aguilar","Feb 11 2018 03:59 PM","CASH","128.00"
"QPMM-01","Jery Ragodo","00001965","Maricar Aguilar","Feb 09 2018 06:28 PM","CASH","125.00"
"QPMM-01","Naths Labado","00001966","Maricar Aguilar","Feb 11 2018 08:35 PM","CASH","90.00"
"QPMM-01","Fe Adina","00001969","Maricar Aguilar","Feb 12 2018 10:58 AM","CASH","110.00"
"QPMM-01","Lorina Oyales","00001971","Maricar Aguilar","Feb 12 2018 12:32 PM","CASH","200.00"
"QPMM-01","Randell Garcia","00001975","Maricar Aguilar","Feb 11 2018 06:22 PM","CASH","258.00"
"QPMM-01","Earl Osorio","00001978","Maricar Aguilar","Feb 11 2018 08:34 PM","CASH","207.50"
"QPMM-01","Cesar Ascrate","00001981","Maricar Aguilar","Feb 12 2018 08:25 AM","CASH","325.00"
