"Store","Customer","JO#","Received By","Date Collected","Payment Type","Amount"
"BHCT-01","Maryjoy Palang","00003107","Rey Jhon Lofranco","Jun 17 2018 08:11 PM","CASH","400.50"
"BHCT-01","MJ Acosta ","00003332","Rey Jhon Lofranco","Jun 19 2018 08:48 PM","CASH","361.00"
"BHCT-01","James Razo","00003356","Rey Jhon Lofranco","Jun 28 2018 04:40 PM","CASH","322.00"
"BHCT-01","Marites Gardiola","00003398","Ritzar  Jeanjaquit ","Jun 14 2018 05:07 PM","CASH","600.00"
"BHCT-01","Marites Ventura","00003458","Rey Jhon Lofranco","Jun 01 2018 10:19 AM","CASH","285.00"
"BHCT-01","Jeane Iglesia","00003474","Rey Jhon Lofranco","Jun 03 2018 08:47 PM","CASH","973.00"
"BHCT-01","Nicole Gimenez","00003475","Rey Jhon Lofranco","Jun 19 2018 11:21 AM","CASH","232.50"
"BHCT-01","Ren Lazibal","00003479","Rey Jhon Lofranco","Jun 03 2018 07:20 PM","CASH","150.00"
"BHCT-01","Hanna  Pacua ","00003492","Rey Jhon Lofranco","Jun 01 2018 05:34 PM","CASH","525.00"
"BHCT-01","Jeanette Rabacio","00003503","Christine  Monrtealegree ","Jun 01 2018 07:47 PM","CASH","714.00"
"BHCT-01","Daisy Lyn  Arcenas ","00003508","Christine  Monrtealegree ","Jun 03 2018 01:32 PM","CASH","365.00"
"BHCT-01","Jo Tesalona ","00003532","Rey Jhon Lofranco","Jun 02 2018 08:04 PM","CASH","587.50"
"BHCT-01","Jo Tesalona ","00003533","Rey Jhon Lofranco","Jun 02 2018 08:04 PM","CASH","600.00"
"BHCT-01","Kiara Robles","00003541","Rey Jhon Lofranco","Jun 09 2018 12:31 PM","CASH","125.00"
"BHCT-01","Roy Tan","00003549","Christine  Monrtealegree ","Jun 07 2018 07:13 PM","CASH","242.50"
"BHCT-01","Anna Oami","00003554","Christine  Monrtealegree ","Jun 15 2018 08:32 PM","CASH","226.00"
"BHCT-01","Regis Leveriza","00003556","Christine  Monrtealegree ","Jun 02 2018 05:34 PM","CASH","312.50"
"BHCT-01","Errol Pontillas","00003564","Rey Jhon Lofranco","Jun 05 2018 03:01 PM","CASH","264.00"
"BHCT-01","Bab Marasigan","00003567","Rey Jhon Lofranco","Jun 12 2018 12:13 PM","CASH","260.50"
"BHCT-01","Carlos Ruiz","00003569","Rey Jhon Lofranco","Jun 03 2018 11:16 AM","CASH","210.00"
"BHCT-01","Jay Chan","00003572","Rey Jhon Lofranco","Jun 06 2018 02:44 PM","CASH","193.00"
"BHCT-01","Uzziel Palolan","00003574","Rey Jhon Lofranco","Jun 16 2018 04:21 PM","CASH","250.00"
"BHCT-01","Mita Palawan","00003575","Christine  Monrtealegree ","Jun 02 2018 06:53 PM","CASH","585.00"
"BHCT-01","R.M Meganathan","00003578","Christine  Monrtealegree ","Jun 06 2018 11:13 AM","CASH","174.00"
"BHCT-01","Dimesh G","00003581","Christine  Monrtealegree ","Jun 04 2018 12:34 PM","CASH","125.00"
"BHCT-01","Gino Buenaventura","00003585","Christine  Monrtealegree ","Jun 01 2018 10:45 AM","CASH","125.00"
"BHCT-01","Aster Valdellon","00003586","Christine  Monrtealegree ","Jun 01 2018 10:46 AM","CASH","125.00"
"BHCT-01","Xandro Pincaro","00003589","Christine  Monrtealegree ","Jun 02 2018 05:47 PM","CASH","343.00"
"BHCT-01","Raymund Danao","00003590","Christine  Monrtealegree ","Jun 14 2018 10:45 AM","CASH","265.00"
"BHCT-01","Richard Roxas","00003591","Christine  Monrtealegree ","Jun 01 2018 06:32 PM","CASH","962.50"
"BHCT-01","Aldovs Tirona","00003592","Christine  Monrtealegree ","Jun 02 2018 02:59 PM","CASH","192.50"
"BHCT-01","Cheezka Marie Mercader ","00003597","Christine  Monrtealegree ","Jun 03 2018 07:54 PM","CASH","125.00"
"BHCT-01","Jake Mongaya","00003599","Christine  Monrtealegree ","Jun 08 2018 10:04 AM","CASH","174.00"
"BHCT-01","col bautista","00003602","Christine  Monrtealegree ","Jun 02 2018 12:24 PM","CASH","420.00"
"BHCT-01","Rai Yawan","00003603","Christine  Monrtealegree ","Jun 10 2018 01:42 PM","CASH","500.00"
"BHCT-01","Ma Teresa Cruz","00003607","Rey Jhon Lofranco","Jun 06 2018 10:35 AM","CASH","125.00"
"BHCT-01","Roy Tan","00003608","Rey Jhon Lofranco","Jun 07 2018 07:12 PM","CASH","246.00"
"BHCT-01","Mita Neogi","00003609","Rey Jhon Lofranco","Jun 01 2018 10:08 AM","CASH","213.50"
"BHCT-01","Oscar Lopez","00003610","Rey Jhon Lofranco","Jun 06 2018 05:41 PM","CASH","262.50"
"BHCT-01","Mita Neogi","00003615","Rey Jhon Lofranco","Jun 29 2018 02:48 PM","CASH","475.00"
"BHCT-01","Ariana Patulot","00003616","Rey Jhon Lofranco","Jun 01 2018 08:33 PM","CASH","238.00"
"BHCT-01","Jean  Rien","00003619","Rey Jhon Lofranco","Jun 04 2018 09:40 AM","CASH","163.50"
"BHCT-01","Rebecca Albert","00003620","Rey Jhon Lofranco","Jun 04 2018 12:46 PM","CASH","227.50"
"BHCT-01","Rudolph Madara","00003621","Rey Jhon Lofranco","Jun 08 2018 11:25 AM","CASH","125.00"
"BHCT-01","Cleofe  Villaluna ","00003624","Rey Jhon Lofranco","Jun 12 2018 01:09 PM","CASH","135.00"
"BHCT-01","Ronald Jay Gulanes","00003628","Rey Jhon Lofranco","Jun 03 2018 06:50 PM","CASH","162.50"
"BHCT-01","Tristan Castillo","00003629","Rey Jhon Lofranco","Jun 03 2018 08:28 PM","CASH","558.50"
"BHCT-01","Jeane  Torento","00003631","Rey Jhon Lofranco","Jun 09 2018 06:40 PM","CASH","1000.00"
"BHCT-01","Mark Serrano","00003634","Christine  Monrtealegree ","Jun 04 2018 12:02 PM","CASH","372.50"
"BHCT-01","Ednalyn Nevado","00003635","Christine  Monrtealegree ","Jun 08 2018 07:54 PM","CASH","515.50"
"BHCT-01","Ivy Joy Tolentino","00003637","Christine  Monrtealegree ","Jun 04 2018 07:41 PM","CASH","238.50"
"BHCT-01","Reyah Masalunga","00003638","Christine  Monrtealegree ","Jun 15 2018 09:30 AM","CASH","281.50"
"BHCT-01","Sid Chun","00003641","Christine  Monrtealegree ","Jun 01 2018 07:46 PM","CASH","125.00"
"BHCT-01","Louie Cornejo","00003642","Christine  Monrtealegree ","Jun 07 2018 08:53 PM","CASH","633.50"
"BHCT-01","Elise Ednaco","00003643","Rey Jhon Lofranco","Jun 06 2018 03:00 PM","CASH","175.50"
"BHCT-01","Chux Nakpil","00003644","Rey Jhon Lofranco","Jun 04 2018 09:36 AM","CASH","207.50"
"BHCT-01","Fred Lanado","00003645","Rey Jhon Lofranco","Jun 09 2018 11:19 AM","CASH","210.00"
"BHCT-01","Jeanette Rabacio","00003646","Christine  Monrtealegree ","Jun 01 2018 07:47 PM","CASH","505.00"
"BHCT-01","Kyle Imperio","00003647","Christine  Monrtealegree ","Jun 01 2018 11:02 AM","CASH","125.00"
"BHCT-01","Gene Juan","00003648","Christine  Monrtealegree ","Jun 11 2018 07:25 PM","CASH","233.00"
"BHCT-01","Abegyl Albano","00003649","Christine  Monrtealegree ","Jun 04 2018 08:58 PM","CASH","195.50"
"BHCT-01","Mita Palawan","00003650","Christine  Monrtealegree ","Jun 02 2018 06:52 PM","CASH","697.50"
"BHCT-01","Nel Alcanzare","00003652","Rey Jhon Lofranco","Jun 03 2018 12:10 PM","CASH","163.00"
"BHCT-01","Erick Evangelista","00003653","Rey Jhon Lofranco","Jun 06 2018 10:24 AM","CASH","125.00"
"BHCT-01","Ann Ann Ergo","00003654","Rey Jhon Lofranco","Jun 02 2018 03:05 PM","CASH","145.00"
"BHCT-01","Tasha Levinna","00003655","Rey Jhon Lofranco","Jun 05 2018 03:52 PM","CASH","180.50"
"BHCT-01","Ma-An Macatangay","00003656","Rey Jhon Lofranco","Jun 05 2018 08:16 PM","CASH","198.00"
"BHCT-01"," Tey Ochotorina","00003657","Rey Jhon Lofranco","Jun 16 2018 07:22 PM","CASH","300.00"
"BHCT-01","Nel Alcanzare","00003658","Rey Jhon Lofranco","Jun 10 2018 05:04 PM","CASH","500.00"
"BHCT-01","Catherine Castor","00003659","Rey Jhon Lofranco","Jun 15 2018 05:42 PM","CASH","662.50"
"BHCT-01","Myles  Dela Rosa","00003661","Rey Jhon Lofranco","Jun 02 2018 09:18 AM","CASH","275.00"
"BHCT-01","Gaff Jeruta","00003662","Rey Jhon Lofranco","Jun 05 2018 05:32 PM","CASH","521.50"
"BHCT-01","Raymund Danao","00003663","Rey Jhon Lofranco","Jun 14 2018 10:44 AM","CASH","306.00"
"BHCT-01","Xuxia Concepcion","00003664","Rey Jhon Lofranco","Jun 05 2018 07:38 PM","CASH","125.00"
"BHCT-01","Celyne Zarraga","00003665","Rey Jhon Lofranco","Jun 09 2018 09:04 PM","CASH","125.00"
"BHCT-01","Abigail De guzman","00003666","Rey Jhon Lofranco","Jun 08 2018 08:14 PM","CASH","214.00"
"BHCT-01","Kenneth Samonte","00003667","Rey Jhon Lofranco","Jun 04 2018 06:15 PM","CASH","125.00"
"BHCT-01","Michael Yee","00003668","Rey Jhon Lofranco","Jun 04 2018 12:45 PM","CASH","125.00"
"BHCT-01","Kyle Baculanta","00003669","Rey Jhon Lofranco","Jun 04 2018 08:07 PM","CASH","146.00"
"BHCT-01","Jeane Iglesia","00003670","Rey Jhon Lofranco","Jun 13 2018 08:12 PM","CASH","1030.00"
"BHCT-01","Shaun Smith ","00003671","Rey Jhon Lofranco","Jun 04 2018 12:56 PM","CASH","125.00"
"BHCT-01","Larry Macabali","00003672","Rey Jhon Lofranco","Jun 04 2018 08:11 PM","CASH","125.00"
"BHCT-01","Diana Gotera","00003673","Rey Jhon Lofranco","Jun 06 2018 12:13 PM","CASH","125.00"
"BHCT-01","Gino Buenaventura","00003674","Rey Jhon Lofranco","Jun 08 2018 12:01 PM","CASH","125.00"
"BHCT-01","Jamaica Dimaculangan","00003675","Rey Jhon Lofranco","Jun 14 2018 10:53 AM","CASH","125.00"
"BHCT-01","Bryan Oscar Ong","00003676","Rey Jhon Lofranco","Jun 07 2018 08:01 PM","CASH","145.50"
"BHCT-01","Marielle Ong","00003677","Rey Jhon Lofranco","Jun 04 2018 08:53 PM","CASH","193.00"
"BHCT-01","Ross Teodoro","00003678","Rey Jhon Lofranco","Jun 04 2018 08:53 PM","CASH","125.00"
"BHCT-01","Latara Colina ","00003679","Rey Jhon Lofranco","Jun 04 2018 06:59 PM","CASH","180.50"
"BHCT-01","Ezekiel Castro","00003680","Rey Jhon Lofranco","Jun 06 2018 08:09 PM","CASH","170.50"
"BHCT-01","Zean Razon","00003681","Rey Jhon Lofranco","Jun 08 2018 09:42 AM","CASH","125.00"
"BHCT-01","Anna Peñalosa","00003682","Rey Jhon Lofranco","Jun 08 2018 12:27 PM","CASH","135.00"
"BHCT-01","Alvin Baculanta","00003683","Rey Jhon Lofranco","Jun 03 2018 06:01 PM","CASH","361.00"
"BHCT-01","Monica Lee","00003684","Rey Jhon Lofranco","Jun 10 2018 01:27 PM","CASH","837.50"
"BHCT-01","Erik Balaoing","00003685","Christine  Monrtealegree ","Jun 09 2018 12:32 PM","CASH","177.50"
"BHCT-01","Paolo  Dela Cuesta","00003686","Christine  Monrtealegree ","Jun 08 2018 04:03 PM","CASH","581.00"
"BHCT-01","Jeanette Venturina","00003687","Christine  Monrtealegree ","Jun 07 2018 05:40 PM","CASH","125.00"
"BHCT-01","Mita Palawan","00003689","Christine  Monrtealegree ","Jun 04 2018 06:30 PM","CASH","435.00"
"BHCT-01","Emma Vailoces","00003690","Christine  Monrtealegree ","Jun 09 2018 12:30 PM","CASH","125.00"
"BHCT-01","Sid Chun","00003691","Christine  Monrtealegree ","Jun 07 2018 08:53 PM","CASH","141.00"
"BHCT-01","Ropricio Jala","00003692","Christine  Monrtealegree ","Jun 08 2018 12:00 PM","CASH","218.00"
"BHCT-01","Michael Loremia","00003693","Christine  Monrtealegree ","Jun 06 2018 12:11 PM","CASH","283.00"
"BHCT-01","Mikaela Liao","00003694","Christine  Monrtealegree ","Jun 05 2018 08:17 PM","CASH","409.50"
"BHCT-01","Richard Roxas","00003695","Christine  Monrtealegree ","Jun 15 2018 07:57 PM","CASH","575.00"
"BHCT-01","Kent Joseph Gabucan","00003696","Christine  Monrtealegree ","Jun 05 2018 08:38 PM","CASH","152.50"
"BHCT-01","Gina Atienza","00003697","Rey Jhon Lofranco","Jun 11 2018 03:36 PM","CASH","180.00"
"BHCT-01","Lilibeth Maria Luga","00003698","Rey Jhon Lofranco","Jun 13 2018 12:46 PM","CASH","266.00"
"BHCT-01","Aldovs Tirona","00003699","Rey Jhon Lofranco","Jun 09 2018 04:28 PM","CASH","135.00"
"BHCT-01","Aldovs Tirona","00003700","Rey Jhon Lofranco","Jun 09 2018 04:29 PM","CASH","125.00"
"BHCT-01","Jo Tesalona ","00003701","Rey Jhon Lofranco","Jun 12 2018 07:37 PM","CASH","548.50"
"BHCT-01","Emmanuel Escalante","00003702","Rey Jhon Lofranco","Jun 06 2018 02:22 PM","CASH","125.00"
"BHCT-01","Jess  Tuadles","00003703","Rey Jhon Lofranco","Jun 17 2018 06:22 PM","CASH","125.00"
"BHCT-01","Ronilo Lagala","00003704","Rey Jhon Lofranco","Jun 06 2018 07:46 PM","CASH","199.00"
"BHCT-01","Roland Ian Medel","00003705","Rey Jhon Lofranco","Jun 09 2018 05:14 PM","CASH","128.00"
"BHCT-01","Cheezka Marie Mercader ","00003706","Rey Jhon Lofranco","Jun 06 2018 07:45 PM","CASH","220.50"
"BHCT-01","Daisy Lyn  Arcenas ","00003707","Rey Jhon Lofranco","Jun 10 2018 08:21 PM","CASH","670.00"
"BHCT-01","Rudolph Madara","00003708","Rey Jhon Lofranco","Jun 08 2018 11:26 AM","CASH","125.00"
"BHCT-01","Regis Leveriza","00003709","Rey Jhon Lofranco","Jun 19 2018 09:57 AM","CASH","283.00"
"BHCT-01","Melody Teodoro","00003710","Rey Jhon Lofranco","Jun 08 2018 11:28 AM","CASH","220.00"
"BHCT-01","Vincent Abdala","00003711","Rey Jhon Lofranco","Jun 22 2018 11:27 AM","CASH","1553.50"
"BHCT-01","Ramon Victor Laquindanun","00003712","Rey Jhon Lofranco","Jun 06 2018 10:59 AM","CASH","135.00"
"BHCT-01","Vincent Alcanzare","00003713","Christine  Monrtealegree ","Jun 06 2018 03:00 PM","CASH","238.00"
"BHCT-01","Tristan Castillo","00003714","Christine  Monrtealegree ","Jun 10 2018 06:24 PM","CASH","435.00"
"BHCT-01","Julius De Jesus","00003715","Christine  Monrtealegree ","Jun 11 2018 07:39 PM","CASH","331.00"
"BHCT-01","Louie Cornejo","00003716","Christine  Monrtealegree ","Jun 10 2018 01:42 PM","CASH","1074.50"
"BHCT-01","Rowin Angkico","00003717","Christine  Monrtealegree ","Jun 08 2018 05:16 PM","CASH","280.00"
"BHCT-01","Ronald Jay Gulanes","00003718","Christine  Monrtealegree ","Jun 10 2018 05:03 PM","CASH","225.00"
"BHCT-01","Abegyl Albano","00003719","Christine  Monrtealegree ","Jun 08 2018 12:01 PM","CASH","708.50"
"BHCT-01","Gino Etrone","00003720","Christine  Monrtealegree ","Jun 14 2018 11:54 AM","CASH","321.00"
"BHCT-01","Ricardo Jalad","00003721","Christine  Monrtealegree ","Jun 10 2018 08:32 PM","CASH","250.00"
"BHCT-01","Angelica Cruz","00003722","Christine  Monrtealegree ","Jun 07 2018 08:26 PM","CASH","125.00"
"BHCT-01","Christian Sowa","00003723","Christine  Monrtealegree ","Jun 07 2018 07:01 PM","CASH","125.00"
"BHCT-01","Marie Santos","00003724","Christine  Monrtealegree ","Jun 12 2018 07:26 PM","CASH","125.00"
"BHCT-01","Jessa Rapaya","00003725","Christine  Monrtealegree ","Jun 08 2018 11:27 AM","CASH","632.50"
"BHCT-01","Irene Carandang","00003726","Christine  Monrtealegree ","Jun 14 2018 02:38 PM","CASH","223.00"
"BHCT-01","Lani Hilvano","00003727","Christine  Monrtealegree ","Jun 14 2018 02:39 PM","CASH","141.50"
"BHCT-01","Dimesh G","00003728","Christine  Monrtealegree ","Jun 09 2018 12:44 PM","CASH","125.00"
"BHCT-01","Elise Ednaco","00003729","Christine  Monrtealegree ","Jun 14 2018 09:02 PM","CASH","160.00"
"BHCT-01","Geeann Anuada","00003730","Christine  Monrtealegree ","Jun 08 2018 10:17 AM","CASH","150.00"
"BHCT-01","Mark Serrano","00003731","Christine  Monrtealegree ","Jun 15 2018 03:10 PM","CASH","324.00"
"BHCT-01","Jan Dumlao","00003732","Christine  Monrtealegree ","Jun 12 2018 11:25 AM","CASH","353.50"
"BHCT-01","Tasha Levinna","00003734","Christine  Monrtealegree ","Jun 16 2018 05:58 PM","CASH","130.50"
"BHCT-01","Sly Vargas","00003735","Christine  Monrtealegree ","Jun 11 2018 06:39 PM","CASH","125.00"
"BHCT-01","Kyle Imperio","00003736","Christine  Monrtealegree ","Jun 08 2018 09:53 AM","CASH","125.00"
"BHCT-01","Clara Bayani","00003737","Christine  Monrtealegree ","Jun 11 2018 12:22 PM","CASH","190.50"
"BHCT-01","Reiza Bañega","00003738","Christine  Monrtealegree ","Jun 26 2018 07:58 PM","CASH","482.50"
"BHCT-01","Fred Lanado","00003739","Christine  Monrtealegree ","Jun 09 2018 11:18 AM","CASH","256.00"
"BHCT-01","Ma Teresa Cruz","00003740","Christine  Monrtealegree ","Jun 16 2018 10:03 AM","CASH","125.00"
"BHCT-01","Ro- Anne Octava","00003742","Christine  Monrtealegree ","Jun 10 2018 12:21 PM","CASH","554.00"
"BHCT-01","Nel Alcanzare","00003743","Christine  Monrtealegree ","Jun 13 2018 08:00 PM","CASH","176.00"
"BHCT-01","Judith Gaspar","00003744","Christine  Monrtealegree ","Jun 09 2018 05:54 PM","CASH","171.00"
"BHCT-01","Reffix Cuaresma","00003745","Christine  Monrtealegree ","Jun 11 2018 04:56 PM","CASH","541.00"
"BHCT-01","Frances Feranil","00003746","Christine  Monrtealegree ","Jun 17 2018 12:42 PM","CASH","137.50"
"BHCT-01","Oscar Lopez","00003747","Christine  Monrtealegree ","Jun 17 2018 04:24 PM","CASH","300.00"
"BHCT-01","Bab Marasigan","00003748","Christine  Monrtealegree ","Jun 12 2018 12:13 PM","CASH","316.00"
"BHCT-01","Ronnel Mengullo","00003749","Christine  Monrtealegree ","Jun 12 2018 12:14 PM","CASH","127.50"
"BHCT-01","Joselito Abalahin","00003751","Christine  Monrtealegree ","Jun 10 2018 05:20 PM","CASH","905.50"
"BHCT-01","Rene Valencia","00003752","Rey Jhon Lofranco","Jun 12 2018 02:10 PM","CASH","180.50"
"BHCT-01","Luis Lozano","00003753","Rey Jhon Lofranco","Jun 12 2018 07:04 PM","CASH","201.00"
"BHCT-01","Jomel Lozano","00003754","Rey Jhon Lofranco","Jun 21 2018 07:04 PM","CASH","178.00"
"BHCT-01","Sid Chun","00003755","Rey Jhon Lofranco","Jun 12 2018 11:20 AM","CASH","125.00"
"BHCT-01","Victor Galzote","00003756","Rey Jhon Lofranco","Jun 13 2018 05:00 PM","CASH","135.00"
"BHCT-01","Kenneth Samonte","00003757","Rey Jhon Lofranco","Jun 11 2018 07:17 PM","CASH","125.00"
"BHCT-01","Nel Alcanzare","00003759","Rey Jhon Lofranco","Jun 10 2018 05:08 PM","CASH","250.00"
"BHCT-01","Errol Pontillas","00003760","Rey Jhon Lofranco","Jun 22 2018 07:45 PM","CASH","193.50"
"BHCT-01","Nikki Estrada","00003761","Rey Jhon Lofranco","Jun 12 2018 12:02 PM","CASH","193.00"
"BHCT-01","Kyle Baculanta","00003762","Rey Jhon Lofranco","Jun 12 2018 11:27 AM","CASH","172.50"
"BHCT-01","Honey Santiago","00003763","Rey Jhon Lofranco","Jun 14 2018 11:14 AM","CASH","168.50"
"BHCT-01","Rodin Victoriano","00003764","Rey Jhon Lofranco","Jun 11 2018 03:47 PM","CASH","132.50"
"BHCT-01","Jessa Rapaya","00003765","Rey Jhon Lofranco","Jun 19 2018 09:55 AM","CASH","300.00"
"BHCT-01","Steffie  Bool","00003767","Rey Jhon Lofranco","Jun 12 2018 02:11 PM","CASH","125.00"
"BHCT-01","Gino Buenaventura","00003768","Christine  Monrtealegree ","Jun 18 2018 07:10 PM","CASH","125.00"
"BHCT-01","Jeanette Venturina","00003769","Christine  Monrtealegree ","Jun 15 2018 09:31 AM","CASH","128.50"
"BHCT-01","Latara Colina ","00003770","Christine  Monrtealegree ","Jun 12 2018 06:20 PM","CASH","163.00"
"BHCT-01","Celyne Zarraga","00003771","Christine  Monrtealegree ","Jun 25 2018 08:35 PM","CASH","125.00"
"BHCT-01","Rudolph Madara","00003772","Christine  Monrtealegree ","Jun 18 2018 12:01 PM","CASH","126.50"
"BHCT-01","Michael Yee","00003773","Christine  Monrtealegree ","Jun 11 2018 12:57 PM","CASH","143.50"
"BHCT-01","Abegyl Albano","00003775","Christine  Monrtealegree ","Jun 11 2018 09:22 AM","CASH","267.50"
"BHCT-01","Jamaica Dimaculangan","00003776","Christine  Monrtealegree ","Jun 14 2018 10:54 AM","CASH","125.00"
"BHCT-01","Edward Legaspi","00003777","Christine  Monrtealegree ","Jun 13 2018 05:58 PM","CASH","192.50"
"BHCT-01","Nikki Alcantara","00003778","Christine  Monrtealegree ","Jun 12 2018 04:49 PM","CASH","125.50"
"BHCT-01","Zean Razon","00003780","Christine  Monrtealegree ","Jun 15 2018 11:00 AM","CASH","225.00"
"BHCT-01","David Banting","00003781","Christine  Monrtealegree ","Jun 12 2018 10:46 AM","CASH","232.50"
"BHCT-01","Shaun Smith ","00003782","Christine  Monrtealegree ","Jun 12 2018 03:48 PM","CASH","131.00"
"BHCT-01","Erik Balaoing","00003783","Christine  Monrtealegree ","Jun 17 2018 05:43 PM","CASH","254.00"
"BHCT-01","Kent Joseph Gabucan","00003784","Christine  Monrtealegree ","Jun 13 2018 05:55 PM","CASH","211.00"
"BHCT-01","Karen Delfin","00003785","Christine  Monrtealegree ","Jun 16 2018 12:29 PM","CASH","177.50"
"BHCT-01","Warlito Teodoro","00003786","Christine  Monrtealegree ","Jun 12 2018 11:08 AM","CASH","235.00"
"BHCT-01","Emma Vailoces","00003787","Christine  Monrtealegree ","Jun 14 2018 06:19 PM","CASH","149.00"
"BHCT-01","Ericka Pambid","00003788","Christine  Monrtealegree ","Jun 13 2018 03:00 PM","CASH","183.50"
"BHCT-01","Aldovs Tirona","00003789","Christine  Monrtealegree ","Jun 23 2018 11:38 AM","CASH","220.00"
"BHCT-01","Aldovs Tirona","00003790","Christine  Monrtealegree ","Jun 23 2018 11:39 AM","CASH","125.00"
"BHCT-01","Aldovs Tirona","00003791","Christine  Monrtealegree ","Jun 23 2018 11:39 AM","CASH","125.00"
"BHCT-01","Jayn Ruth Agliam ","00003792","Christine  Monrtealegree ","Jun 12 2018 07:26 PM","CASH","476.50"
"BHCT-01","Louie Cornejo","00003793","Christine  Monrtealegree ","Jun 17 2018 08:10 PM","CASH","771.00"
"BHCT-01","Tristan Castillo","00003794","Christine  Monrtealegree ","Jun 17 2018 07:41 PM","CASH","500.00"
"BHCT-01","Cherry De Guzman","00003796","Christine  Monrtealegree ","Jun 14 2018 01:15 PM","CASH","125.00"
"BHCT-01","Ramon Victor Laquindanun","00003797","Christine  Monrtealegree ","Jun 14 2018 04:20 PM","CASH","135.50"
"BHCT-01","Ronald Jay Gulanes","00003798","Christine  Monrtealegree ","Jun 18 2018 09:19 PM","CASH","194.00"
"BHCT-01","John Angelo Lobusta","00003799","Christine  Monrtealegree ","Jun 13 2018 07:55 PM","CASH","137.50"
"BHCT-01","Carlos Aboga","00003800","Christine  Monrtealegree ","Jun 17 2018 08:10 PM","CASH","172.50"
"BHCT-01","Maybell Torres","00003801","Christine  Monrtealegree ","Jun 24 2018 12:57 PM","CASH","185.00"
"BHCT-01","Nel Alcanzare","00003802","Christine  Monrtealegree ","Jun 13 2018 08:00 PM","CASH","233.50"
"BHCT-01","Jonalyn Ugto","00003803","Christine  Monrtealegree ","Jun 13 2018 12:28 PM","CASH","150.00"
"BHCT-01","Len Dedaz","00003804","Christine  Monrtealegree ","Jun 13 2018 12:09 PM","CASH","125.00"
"BHCT-01","Daisy Lyn  Arcenas ","00003806","Christine  Monrtealegree ","Jun 19 2018 08:49 PM","CASH","380.00"
"BHCT-01","Kareila Management Corporation","00003807","Christine  Monrtealegree ","Jun 19 2018 03:35 PM","CASH","401.00"
"BHCT-01","John Leo Bautista","00003808","Christine  Monrtealegree ","Jun 13 2018 12:04 PM","CASH","280.50"
"BHCT-01","Myles  Dela Rosa","00003809","Christine  Monrtealegree ","Jun 12 2018 08:35 PM","CASH","306.00"
"BHCT-01","Myles  Dela Rosa","00003810","Christine  Monrtealegree ","Jun 19 2018 03:52 PM","CASH","180.00"
"BHCT-01","Marites Ventura","00003811","Christine  Monrtealegree ","Jun 27 2018 05:56 PM","CASH","395.00"
"BHCT-01","Emmanuel Escalante","00003812","Christine  Monrtealegree ","Jun 14 2018 11:57 AM","CASH","135.00"
"BHCT-01","Christian Sowa","00003813","Christine  Monrtealegree ","Jun 13 2018 02:22 PM","CASH","260.00"
"BHCT-01","Rebecca Albert","00003814","Christine  Monrtealegree ","Jun 18 2018 07:12 PM","CASH","127.50"
"BHCT-01","Clara Bayani","00003815","Christine  Monrtealegree ","Jun 16 2018 09:10 PM","CASH","223.50"
"BHCT-01","Marielle Ong","00003816","Christine  Monrtealegree ","Jun 15 2018 07:56 PM","CASH","232.50"
"BHCT-01","Riva Ridad","00003817","Christine  Monrtealegree ","Jun 21 2018 12:49 PM","CASH","136.00"
"BHCT-01","Aldovs Tirona","00003818","Christine  Monrtealegree ","Jun 23 2018 11:40 AM","CASH","125.00"
"BHCT-01","Aldovs Tirona","00003819","Christine  Monrtealegree ","Jun 23 2018 11:40 AM","CASH","125.00"
"BHCT-01","Rhea Figueroa","00003820","Christine  Monrtealegree ","Jun 14 2018 10:42 AM","CASH","322.00"
"BHCT-01","Roy Tan","00003821","Christine  Monrtealegree ","Jun 27 2018 02:14 PM","CASH","125.00"
"BHCT-01","Carlos Ruiz","00003822","Christine  Monrtealegree ","Jun 20 2018 07:59 PM","CASH","503.50"
"BHCT-01","Gene Juan","00003824","Christine  Monrtealegree ","Jun 22 2018 03:34 PM","CASH","541.00"
"BHCT-01","Myla Degay","00003825","Christine  Monrtealegree ","Jun 13 2018 08:12 PM","CASH","125.00"
"BHCT-01","Alden Kelvin Policar","00003826","Christine  Monrtealegree ","Jun 15 2018 09:32 AM","CASH","305.00"
"BHCT-01","Gaff Jeruta","00003828","Christine  Monrtealegree ","Jun 15 2018 07:38 PM","CASH","125.00"
"BHCT-01","Gold Manlosa","00003829","Christine  Monrtealegree ","Jun 29 2018 10:59 AM","CASH","250.00"
"BHCT-01","Bryan Oscar Ong","00003830","Christine  Monrtealegree ","Jun 18 2018 09:17 PM","CASH","268.00"
"BHCT-01","Ivy Joy Tolentino","00003831","Christine  Monrtealegree ","Jun 15 2018 07:02 PM","CASH","125.00"
"BHCT-01","Lilibeth Maria Luga","00003832","Christine  Monrtealegree ","Jun 22 2018 11:25 AM","CASH","330.00"
"BHCT-01","Lilibeth Maria Luga","00003833","Christine  Monrtealegree ","Jun 22 2018 11:27 AM","CASH","420.00"
"BHCT-01","Lilibeth Maria Luga","00003834","Christine  Monrtealegree ","Jun 18 2018 07:08 PM","CASH","302.00"
"BHCT-01","Joe Marie Tronco","00003835","Christine  Monrtealegree ","Jun 16 2018 02:12 PM","CASH","457.50"
"BHCT-01","Ruben Danoli","00003836","Christine  Monrtealegree ","Jun 17 2018 10:50 AM","CASH","125.00"
"BHCT-01","Lilibeth Maria Luga","00003837","Christine  Monrtealegree ","Jun 18 2018 07:07 PM","CASH","758.50"
"BHCT-01","Lilibeth Maria Luga","00003838","Christine  Monrtealegree ","Jun 22 2018 11:28 AM","CASH","300.00"
"BHCT-01","Ruben Danoli","00003839","Christine  Monrtealegree ","Jun 17 2018 10:49 AM","CASH","145.50"
"BHCT-01","Ma-An Macatangay","00003840","Christine  Monrtealegree ","Jun 16 2018 09:09 PM","CASH","241.50"
"BHCT-01","Roy Vincent Sta Rita","00003841","Christine  Monrtealegree ","Jun 16 2018 04:56 PM","CASH","247.50"
"BHCT-01","Glenn Lazibal","00003842","Christine  Monrtealegree ","Jun 18 2018 07:59 PM","CASH","225.00"
"BHCT-01","Raymund Danao","00003843","Christine  Monrtealegree ","Jun 21 2018 04:57 PM","CASH","512.50"
"BHCT-01","Pandi Pandi","00003844","Christine  Monrtealegree ","Jun 19 2018 01:19 PM","CASH","201.50"
"BHCT-01","Fred Lanado","00003845","Christine  Monrtealegree ","Jun 16 2018 06:12 PM","CASH","297.50"
"BHCT-01","Mita Palawan","00003846","Christine  Monrtealegree ","Jun 19 2018 08:02 PM","CASH","373.50"
"BHCT-01","Tasha Levinna","00003847","Christine  Monrtealegree ","Jun 16 2018 05:58 PM","CASH","195.50"
"BHCT-01","Xuxia Concepcion","00003848","Christine  Monrtealegree ","Jun 25 2018 10:38 AM","CASH","128.00"
"BHCT-01","Ronie Dumaboc","00003850","Christine  Monrtealegree ","Jun 19 2018 08:38 AM","CASH","225.00"
"BHCT-01","Andren Phiri","00003851","Christine  Monrtealegree ","Jun 16 2018 10:32 AM","CASH","125.00"
"BHCT-01","Hanna  Pacua ","00003852","Christine  Monrtealegree ","Jun 16 2018 03:20 PM","CASH","157.50"
"BHCT-01","Jay Chan","00003853","Christine  Monrtealegree ","Jun 17 2018 02:30 PM","CASH","242.50"
"BHCT-01","Jesi James","00003854","Christine  Monrtealegree ","Jun 18 2018 07:11 PM","CASH","125.00"
"BHCT-01","Alden Kelvin Policar","00003855","Christine  Monrtealegree ","Jun 21 2018 07:29 PM","CASH","312.50"
"BHCT-01","Marielle Ong","00003856","Christine  Monrtealegree ","Jun 18 2018 08:57 PM","CASH","125.00"
"BHCT-01","Morris Melliang","00003857","Christine  Monrtealegree ","Jun 20 2018 12:24 PM","CASH","322.50"
"BHCT-01","Joselito Abalahin","00003858","Christine  Monrtealegree ","Jun 16 2018 06:50 PM","CASH","518.00"
"BHCT-01","Anne Klein Olma Hernandez","00003860","Rey Jhon Lofranco","Jun 18 2018 09:54 AM","CASH","163.00"
"BHCT-01","Joanne Quezon","00003861","Rey Jhon Lofranco","Jun 23 2018 08:48 PM","CASH","349.00"
"BHCT-01","Jo Tesalona ","00003862","Rey Jhon Lofranco","Jun 24 2018 12:59 PM","CASH","1788.50"
"BHCT-01","Rowin Angkico","00003863","Rey Jhon Lofranco","Jun 18 2018 07:27 PM","CASH","216.00"
"BHCT-01","Sherwin Lim","00003864","Rey Jhon Lofranco","Jun 18 2018 12:40 PM","CASH","125.00"
"BHCT-01","Xandro Pincaro","00003865","Rey Jhon Lofranco","Jun 18 2018 11:17 AM","CASH","458.00"
"BHCT-01","Leah Padernal","00003866","Rey Jhon Lofranco","Jun 19 2018 10:02 AM","CASH","233.00"
"BHCT-01","Mae Emmanuelle Srisawasdi","00003867","Rey Jhon Lofranco","Jun 23 2018 10:21 AM","CASH","270.00"
"BHCT-01","Michael Loremia","00003869","Rey Jhon Lofranco","Jun 18 2018 01:43 PM","CASH","240.00"
"BHCT-01","Abegyl Albano","00003870","Rey Jhon Lofranco","Jun 20 2018 07:58 PM","CASH","401.00"
"BHCT-01","Myla Degay","00003871","Rey Jhon Lofranco","Jun 17 2018 09:20 PM","CASH","255.00"
"BHCT-01","Valencia Isabela","00003873","Christine  Monrtealegree ","Jun 20 2018 09:42 AM","CASH","137.50"
"BHCT-01","Kyle Baculanta","00003874","Christine  Monrtealegree ","Jun 18 2018 08:23 PM","CASH","125.00"
"BHCT-01","Irene Carandang","00003875","Christine  Monrtealegree ","Jun 27 2018 01:57 PM","CASH","125.00"
"BHCT-01","Ronie Dumaboc","00003876","Christine  Monrtealegree ","Jun 19 2018 08:38 AM","CASH","125.00"
"BHCT-01","Robbie Del Rosario","00003877","Christine  Monrtealegree ","Jun 27 2018 06:53 PM","CASH","125.00"
"BHCT-01","Raymond Torres","00003878","Christine  Monrtealegree ","Jun 25 2018 08:38 PM","CASH","125.00"
"BHCT-01","Angelica Cruz","00003879","Christine  Monrtealegree ","Jun 19 2018 08:47 PM","CASH","125.00"
"BHCT-01","Roy Tan","00003880","Christine  Monrtealegree ","Jun 27 2018 02:13 PM","CASH","125.00"
"BHCT-01","Kenneth Samonte","00003881","Christine  Monrtealegree ","Jun 18 2018 07:01 PM","CASH","125.00"
"BHCT-01","Latara Colina ","00003882","Christine  Monrtealegree ","Jun 19 2018 03:42 PM","CASH","158.00"
"BHCT-01","Kiara Robles","00003883","Christine  Monrtealegree ","Jun 26 2018 08:34 PM","CASH","125.00"
"BHCT-01","Judith Gaspar","00003884","Christine  Monrtealegree ","Jun 19 2018 10:01 AM","CASH","260.00"
"BHCT-01","Nel Alcanzare","00003885","Christine  Monrtealegree ","Jun 19 2018 09:53 AM","CASH","289.00"
"BHCT-01","Vilma Mediante","00003886","Christine  Monrtealegree ","Jun 18 2018 05:05 PM","CASH","250.00"
"BHCT-01","Shaun Smith ","00003887","Christine  Monrtealegree ","Jun 19 2018 04:49 PM","CASH","125.00"
"BHCT-01","Zean Razon","00003888","Christine  Monrtealegree ","Jun 24 2018 02:42 PM","CASH","162.50"
"BHCT-01","Jay Caabas","00003889","Christine  Monrtealegree ","Jun 26 2018 08:35 PM","CASH","125.00"
"BHCT-01","Myles  Dela Rosa","00003890","Christine  Monrtealegree ","Jun 19 2018 03:53 PM","CASH","167.50"
"BHCT-01","John Panes","00003891","Christine  Monrtealegree ","Jun 25 2018 08:04 PM","CASH","125.00"
"BHCT-01","Warlito Teodoro","00003892","Christine  Monrtealegree ","Jun 19 2018 08:48 PM","CASH","621.00"
"BHCT-01","Gold Manlosa","00003893","Christine  Monrtealegree ","Jun 29 2018 10:58 AM","CASH","150.00"
"BHCT-01","Len Dedaz","00003894","Christine  Monrtealegree ","Jun 19 2018 12:49 PM","CASH","125.00"
"BHCT-01","Richard Roxas","00003895","Christine  Monrtealegree ","Jun 30 2018 07:10 PM","CASH","850.00"
"BHCT-01","Jessa Rapaya","00003896","Christine  Monrtealegree ","Jun 20 2018 07:57 PM","CASH","658.00"
"BHCT-01","Mark Serrano","00003898","Christine  Monrtealegree ","Jun 28 2018 05:42 PM","CASH","267.50"
"BHCT-01","Cherry Gorobao","00003899","Christine  Monrtealegree ","Jun 19 2018 12:28 PM","CASH","218.50"
"BHCT-01","Elise Ednaco","00003901","Christine  Monrtealegree ","Jun 19 2018 12:12 PM","CASH","230.00"
"BHCT-01","Sid Chun","00003902","Christine  Monrtealegree ","Jun 20 2018 06:49 PM","CASH","145.00"
"BHCT-01","Mita Palawan","00003905","Christine  Monrtealegree ","Jun 19 2018 08:03 PM","CASH","255.00"
"BHCT-01","Ramon Victor Laquindanun","00003907","Christine  Monrtealegree ","Jun 21 2018 12:16 PM","CASH","125.00"
"BHCT-01","Ropricio Jala","00003908","Christine  Monrtealegree ","Jun 23 2018 11:49 AM","CASH","210.00"
"BHCT-01","Reiza Bañega","00003909","Christine  Monrtealegree ","Jun 26 2018 07:58 PM","CASH","178.00"
"BHCT-01","Chukie Gajo","00003911","Christine  Monrtealegree ","Jun 25 2018 08:05 PM","CASH","146.00"
"BHCT-01","Rodin Victoriano","00003912","Christine  Monrtealegree ","Jun 20 2018 06:04 PM","CASH","188.00"
"BHCT-01","Rudolph Madara","00003913","Christine  Monrtealegree ","Jun 27 2018 01:18 PM","CASH","163.00"
"BHCT-01","May Angelique Bagio","00003914","Christine  Monrtealegree ","Jun 21 2018 07:49 PM","CASH","191.50"
"BHCT-01","Louie Ann Octava","00003915","Christine  Monrtealegree ","Jun 22 2018 03:51 PM","CASH","192.50"
"BHCT-01","Vilma Mediante","00003916","Christine  Monrtealegree ","Jun 19 2018 08:07 PM","CASH","250.00"
"BHCT-01","Christian Sowa","00003918","Rey Jhon Lofranco","Jun 21 2018 07:27 PM","CASH","250.00"
"BHCT-01","Roland Ian Medel","00003919","Rey Jhon Lofranco","Jun 23 2018 08:14 PM","CASH","125.00"
"BHCT-01","Kent Joseph Gabucan","00003920","Rey Jhon Lofranco","Jun 21 2018 07:45 PM","CASH","160.00"
"BHCT-01","Louie Cornejo","00003921","Rey Jhon Lofranco","Jun 27 2018 02:18 PM","CASH","572.50"
"BHCT-01","Jayvee Nasol","00003922","Rey Jhon Lofranco","Jun 21 2018 07:05 PM","CASH","374.00"
"BHCT-01","Ronald Jay Gulanes","00003924","Rey Jhon Lofranco","Jun 22 2018 07:46 PM","CASH","606.00"
"BHCT-01","Bryan Oscar Ong","00003925","Rey Jhon Lofranco","Jun 23 2018 11:36 AM","CASH","168.00"
"BHCT-01","Marie Santos","00003926","Rey Jhon Lofranco","Jun 22 2018 06:17 PM","CASH","125.00"
"BHCT-01","Patrisha Bas","00003928","Rey Jhon Lofranco","Jun 21 2018 08:10 PM","CASH","652.00"
"BHCT-01","Joseph Cayton","00003929","Rey Jhon Lofranco","Jun 22 2018 11:36 AM","CASH","1340.00"
"BHCT-01","Alvin Baculanta","00003930","Christine  Monrtealegree ","Jun 21 2018 10:49 AM","CASH","395.00"
"BHCT-01","Errol Pontillas","00003931","Christine  Monrtealegree ","Jun 22 2018 07:46 PM","CASH","143.50"
"BHCT-01","Valencia Isabela","00003932","Christine  Monrtealegree ","Jun 24 2018 10:53 AM","CASH","125.00"
"BHCT-01","Ronilo Lagala","00003934","Christine  Monrtealegree ","Jun 22 2018 06:23 PM","CASH","125.00"
"BHCT-01","Mrs. Albert","00003937","Christine  Monrtealegree ","Jun 22 2018 04:02 PM","CASH","183.50"
"BHCT-01","Tasha Levinna","00003938","Christine  Monrtealegree ","Jun 23 2018 07:08 PM","CASH","125.00"
"BHCT-01","Vilma Mediante","00003939","Christine  Monrtealegree ","Jun 22 2018 06:08 PM","CASH","204.00"
"BHCT-01","Karl Anthony Parker ","00003940","Christine  Monrtealegree ","Jun 22 2018 06:10 PM","CASH","158.50"
"BHCT-01","Fred Lanado","00003941","Christine  Monrtealegree ","Jun 23 2018 10:09 AM","CASH","274.50"
"BHCT-01","Ross Teodoro","00003942","Christine  Monrtealegree ","Jun 22 2018 05:44 PM","CASH","125.00"
"BHCT-01","Leah Padernal","00003943","Christine  Monrtealegree ","Jun 24 2018 12:58 PM","CASH","253.00"
"BHCT-01","Nel Alcanzare","00003945","Christine  Monrtealegree ","Jun 22 2018 06:09 PM","CASH","233.50"
"BHCT-01","Regis Leveriza","00003946","Christine  Monrtealegree ","Jun 23 2018 07:17 PM","CASH","271.50"
"BHCT-01","R.M Meganathan","00003948","Christine  Monrtealegree ","Jun 23 2018 10:18 AM","CASH","181.00"
"BHCT-01","Eunice Sanchez","00003949","Christine  Monrtealegree ","Jun 22 2018 05:49 PM","CASH","125.00"
"BHCT-01","Erick Evangelista","00003950","Christine  Monrtealegree ","Jun 24 2018 08:15 PM","CASH","171.00"
"BHCT-01","Abraham Ajoc","00003951","Christine  Monrtealegree ","Jun 22 2018 06:07 PM","CASH","188.00"
"BHCT-01","Marielle Ong","00003952","Rey Jhon Lofranco","Jun 23 2018 11:37 AM","CASH","125.00"
"BHCT-01","Jeanette Venturina","00003953","Rey Jhon Lofranco","Jun 24 2018 05:58 PM","CASH","147.50"
"BHCT-01","Paulo Adraneda","00003954","Rey Jhon Lofranco","Jun 25 2018 04:45 PM","CASH","125.00"
"BHCT-01","Angelo Placido","00003955","Rey Jhon Lofranco","Jun 27 2018 08:47 PM","CASH","128.00"
"BHCT-01","Geeann Anuada","00003956","Rey Jhon Lofranco","Jun 25 2018 09:59 AM","CASH","232.50"
"BHCT-01","Daisy Lyn  Arcenas ","00003957","Rey Jhon Lofranco","Jun 26 2018 08:12 PM","CASH","690.00"
"BHCT-01","Ronie Dumaboc","00003959","Rey Jhon Lofranco","Jun 27 2018 08:44 PM","CASH","125.00"
"BHCT-01","Carlos Ruiz","00003960","Rey Jhon Lofranco","Jun 29 2018 02:23 PM","CASH","416.00"
"BHCT-01","Abegyl Albano","00003961","Rey Jhon Lofranco","Jun 29 2018 03:05 PM","CASH","449.00"
"BHCT-01","Emma Vailoces","00003964","Rey Jhon Lofranco","Jun 26 2018 07:20 PM","CASH","125.00"
"BHCT-01","Reffix Cuaresma","00003965","Rey Jhon Lofranco","Jun 23 2018 11:20 AM","CASH","368.50"
"BHCT-01","Kenneth Samonte","00003967","Rey Jhon Lofranco","Jun 25 2018 08:02 PM","CASH","125.00"
"BHCT-01","Luis Lozano","00003968","Rey Jhon Lofranco","Jun 25 2018 03:56 PM","CASH","152.50"
"BHCT-01","Rowin Angkico","00003969","Rey Jhon Lofranco","Jun 26 2018 05:19 PM","CASH","197.00"
"BHCT-01","Raymund Danao","00003972","Rey Jhon Lofranco","Jun 28 2018 10:25 AM","CASH","447.50"
"BHCT-01","Kyle Baculanta","00003973","Rey Jhon Lofranco","Jun 25 2018 09:18 AM","CASH","153.50"
"BHCT-01","Emmanuel Escalante","00003977","Rey Jhon Lofranco","Jun 24 2018 07:19 PM","CASH","125.00"
"BHCT-01","Mita Palawan","00003979","Rey Jhon Lofranco","Jun 29 2018 03:07 PM","CASH","510.00"
"BHCT-01","Mariloo Martorilcas","00003980","Rey Jhon Lofranco","Jun 25 2018 12:47 PM","CASH","376.00"
"BHCT-01","Marielle Ong","00003981","Rey Jhon Lofranco","Jun 25 2018 07:14 PM","CASH","250.00"
"BHCT-01","Gavino Grandia","00003982","Rey Jhon Lofranco","Jun 25 2018 03:33 PM","CASH","128.50"
"BHCT-01","Michael Yee","00003983","Rey Jhon Lofranco","Jun 25 2018 12:45 PM","CASH","125.00"
"BHCT-01","Ezekiel Castro","00003984","Rey Jhon Lofranco","Jun 27 2018 08:35 PM","CASH","125.00"
"BHCT-01","Myles  Dela Rosa","00003985","Rey Jhon Lofranco","Jun 26 2018 05:10 PM","CASH","152.50"
"BHCT-01","Louie Ann Octava","00003986","Rey Jhon Lofranco","Jun 28 2018 06:59 PM","CASH","140.00"
"BHCT-01","Larry Macabali","00003988","Rey Jhon Lofranco","Jun 26 2018 06:46 PM","CASH","125.00"
"BHCT-01","Mrs. Albert","00003989","Rey Jhon Lofranco","Jun 30 2018 07:33 PM","CASH","267.50"
"BHCT-01","Erik Balaoing","00003991","Rey Jhon Lofranco","Jun 30 2018 10:39 AM","CASH","150.00"
"BHCT-01","Tasha Levinna","00003994","Rey Jhon Lofranco","Jun 30 2018 11:27 AM","CASH","136.00"
"BHCT-01","Judith Gaspar","00003998","Rey Jhon Lofranco","Jun 27 2018 01:42 PM","CASH","236.50"
"BHCT-01","Ronilo Lagala","00003999","Rey Jhon Lofranco","Jun 29 2018 08:04 PM","CASH","125.00"
"BHCT-01","Nel Alcanzare","00004000","Rey Jhon Lofranco","Jun 26 2018 05:44 PM","CASH","140.00"
"BHCT-01","Brent Malacad ","00004002","Rey Jhon Lofranco","Jun 26 2018 04:05 PM","CASH","220.00"
"BHCT-01","Joseph Vital ","00004004","Rey Jhon Lofranco","Jun 27 2018 11:03 AM","CASH","127.50"
"BHCT-01","Cathy Carangan","00004005","Rey Jhon Lofranco","Jun 27 2018 12:07 PM","CASH","249.50"
"BHCT-01","Alexis Alexis ","00004006","Rey Jhon Lofranco","Jun 26 2018 07:53 PM","CASH","190.50"
"BHCT-01","Warlito Teodoro","00004008","Rey Jhon Lofranco","Jun 26 2018 05:19 PM","CASH","268.50"
"BHCT-01","Valencia Isabela","00004009","Rey Jhon Lofranco","Jun 27 2018 07:22 PM","CASH","125.00"
"BHCT-01","Nikko Decembrano","00004010","Rey Jhon Lofranco","Jun 27 2018 08:43 PM","CASH","210.00"
"BHCT-01","Abraham Ajoc","00004011","Rey Jhon Lofranco","Jun 26 2018 08:34 PM","CASH","203.00"
"BHCT-01","Reyah Masalunga","00004012","Rey Jhon Lofranco","Jun 28 2018 08:35 PM","CASH","195.50"
"BHCT-01","Ma-An Macatangay","00004013","Rey Jhon Lofranco","Jun 28 2018 08:18 PM","CASH","125.00"
"BHCT-01","Carlos Aboga","00004014","Rey Jhon Lofranco","Jun 28 2018 01:01 PM","CASH","193.50"
"BHCT-01","Jonver David","00004015","Rey Jhon Lofranco","Jun 30 2018 12:03 PM","CASH","513.00"
"BHCT-01","Ma-An Macatangay","00004016","Rey Jhon Lofranco","Jun 28 2018 08:19 PM","CASH","170.00"
"BHCT-01","Frances Feranil","00004017","Rey Jhon Lofranco","Jun 30 2018 02:17 PM","CASH","203.00"
"BHCT-01","Kristine Del Moral","00004019","Rey Jhon Lofranco","Jun 30 2018 12:26 PM","CASH","158.00"
"BHCT-01","Zean Razon","00004020","Rey Jhon Lofranco","Jun 30 2018 12:21 PM","CASH","187.50"
"BHCT-01","Perla Alejandro","00004021","Rey Jhon Lofranco","Jun 30 2018 04:15 PM","CASH","359.00"
"BHCT-01","Christian Sowa","00004024","Rey Jhon Lofranco","Jun 27 2018 07:55 PM","CASH","232.50"
"BHCT-01","Ramon Victor Laquindanun","00004025","Rey Jhon Lofranco","Jun 28 2018 01:07 PM","CASH","125.00"
"BHCT-01","Kent Joseph Gabucan","00004026","Rey Jhon Lofranco","Jun 26 2018 08:56 PM","CASH","270.00"
"BHCT-01","Ritchwel Binaohan","00004029","Rey Jhon Lofranco","Jun 29 2018 11:10 AM","CASH","180.00"
"BHCT-01","Breyndon Manigos","00004031","Rey Jhon Lofranco","Jun 27 2018 07:38 PM","CASH","261.00"
"BHCT-01","Xuxia Concepcion","00004032","Rey Jhon Lofranco","Jun 25 2018 08:34 PM","CASH","151.00"
"BHCT-01","Fred Lanado","00004033","Rey Jhon Lofranco","Jun 29 2018 02:50 PM","CASH","248.50"
"BHCT-01","Andren Phiri","00004034","Rey Jhon Lofranco","Jun 28 2018 10:45 AM","CASH","125.00"
"BHCT-01","Mary Rose Antonio","00004035","Rey Jhon Lofranco","Jun 29 2018 11:46 AM","CASH","322.50"
"BHCT-01","Mita Neogi","00004036","Rey Jhon Lofranco","Jun 29 2018 02:49 PM","CASH","125.00"
"BHCT-01","Jia Yu","00004037","Rey Jhon Lofranco","Jun 30 2018 06:33 PM","CASH","162.00"
"BHCT-01","Belisario James","00004038","Rey Jhon Lofranco","Jun 30 2018 10:51 AM","CASH","125.00"
"BHCT-01","Chukie Gajo","00004040","Rey Jhon Lofranco","Jun 27 2018 08:34 PM","CASH","125.00"
"BHCT-01","Bryan Oscar Ong","00004041","Rey Jhon Lofranco","Jun 29 2018 09:39 AM","CASH","235.50"
"BHCT-01","Kyle Imperio","00004042","Rey Jhon Lofranco","Jun 29 2018 08:26 PM","CASH","145.50"
"BHCT-01","Pandi Pandi","00004043","Rey Jhon Lofranco","Jun 30 2018 01:09 PM","CASH","175.00"
"BHCT-01","Mita Palawan","00004044","Rey Jhon Lofranco","Jun 29 2018 08:05 PM","CASH","127.50"
"BHCT-01","Rodin Victoriano","00004046","Rey Jhon Lofranco","Jun 28 2018 05:40 PM","CASH","203.00"
"BHCT-01","Cherry Gorobao","00004049","Rey Jhon Lofranco","Jun 29 2018 08:29 PM","CASH","178.00"
"BHCT-01","Ronilo Lagala","00004052","Rey Jhon Lofranco","Jun 29 2018 08:04 PM","CASH","125.00"
"BHCT-01","R.M Meganathan","00004054","Rey Jhon Lofranco","Jun 30 2018 10:44 AM","CASH","125.00"
"BHCT-01","Nel Alcanzare","00004055","Rey Jhon Lofranco","Jun 30 2018 08:46 PM","CASH","157.50"
"BHCT-01","Ron Irvin Marcelino","00004065","Rey Jhon Lofranco","Jun 30 2018 06:47 PM","CASH","467.50"
"BHCT-01","Christian Sowa","00004069","Rey Jhon Lofranco","Jun 30 2018 12:12 PM","CASH","125.00"
"BHCT-01","Margarito Sanchez","00004072","Rey Jhon Lofranco","Jun 29 2018 07:44 PM","CASH","254.00"
"BHCT-01","Margarito Sanchez","00004073","Rey Jhon Lofranco","Jun 29 2018 07:45 PM","CASH","390.50"
"BHCT-01","Alden Kelvin Policar","00004079","Rey Jhon Lofranco","Jun 30 2018 10:31 AM","CASH","250.00"
"BHCT-01","Alden Kelvin Policar","00004081","Rey Jhon Lofranco","Jun 30 2018 10:32 AM","CASH","326.00"
"CCC-01","Central Ground Atheletics Evolve Yoga Fitness","00001491","Joebert  Batain ","Jun 03 2018 02:06 PM","CASH","568.40"
"FRMC-01","Dante Cade","00001000","Jommel Minranda","Jun 17 2018 07:02 PM","CASH","350.00"
"FRMC-01","Gem Villarico","00001001","Jommel Minranda","Jun 20 2018 08:22 PM","CASH","235.50"
"FRMC-01","Jeremias Paras","00001002","Jommel Minranda","Jun 18 2018 07:29 PM","CASH","165.00"
"FRMC-01","James Louis Manguiat","00001003","Jommel Minranda","Jun 18 2018 08:23 PM","CASH","102.50"
"FRMC-01","Benedick Gabat","00001004","Jommel Minranda","Jun 18 2018 08:21 PM","CASH","227.50"
"FRMC-01","Mackie Yee","00001005","Jommel Minranda","Jun 20 2018 12:12 PM","CASH","297.50"
"FRMC-01","Mardy Ampeloquio","00001006","Jommel Minranda","Jun 18 2018 07:16 PM","CASH","362.50"
"FRMC-01","Leven Cerezo","00001007","Jommel Minranda","Jun 18 2018 07:55 PM","CASH","75.00"
"FRMC-01","Yollie Bristol","00001008","Jommel Minranda","Jun 19 2018 07:03 PM","CASH","228.50"
"FRMC-01","Francesca Camille Escano","00001009","Jommel Minranda","Jun 30 2018 09:13 AM","CASH","185.00"
"FRMC-01","Alexies Corpuz","00001010","Jommel Minranda","Jun 20 2018 04:09 PM","CASH","180.00"
"FRMC-01","Joel Tambalong","00001011","Jommel Minranda","Jun 22 2018 09:09 AM","CASH","147.50"
"FRMC-01","Marie Fe Pascua","00001012","Jommel Minranda","Jun 20 2018 06:15 PM","CASH","147.50"
"FRMC-01","Jelynne Wabe","00001013","Jommel Minranda","Jun 25 2018 04:53 PM","CASH","423.50"
"FRMC-01","Dianne Galang","00001014","Jommel Minranda","Jun 21 2018 04:14 PM","CASH","96.00"
"FRMC-01","Jewel Gavino","00001015","Jommel Minranda","Jun 21 2018 02:07 PM","CASH","88.00"
"FRMC-01","Neo Vonn Baliguat","00001016","Jommel Minranda","Jun 24 2018 09:56 AM","CASH","255.00"
"FRMC-01","Mikolo Kylo Manalang","00001017","Jommel Minranda","Jun 25 2018 11:01 AM","CASH","367.00"
"FRMC-01","Vryx Manalo","00001018","Jommel Minranda","Jun 27 2018 09:33 AM","CASH","157.50"
"FRMC-01","Austin Esguerra","00001019","Jommel Minranda","Jun 25 2018 11:01 AM","CASH","122.50"
"FRMC-01","Shary Torrecampo","00001020","Jommel Minranda","Jun 23 2018 01:37 PM","CASH","72.50"
"FRMC-01","Mikolo Kylo Manalang","00001021","Jommel Minranda","Jun 25 2018 11:02 AM","CASH","193.00"
"FRMC-01","Renato Derba","00001022","Jommel Minranda","Jun 24 2018 09:44 AM","CASH","208.00"
"FRMC-01","Normanfran Tungkol","00001024","Jommel Minranda","Jun 25 2018 06:52 PM","CASH","85.00"
"FRMC-01","Analie Lozada","00001026","Jommel Minranda","Jun 26 2018 08:40 PM","CASH","143.00"
"FRMC-01","Bernard Ampeloquio","00001027","Jommel Minranda","Jun 24 2018 12:46 PM","CASH","306.25"
"FRMC-01","Jeremias Paras","00001028","Jommel Minranda","Jun 27 2018 02:19 PM","CASH","180.00"
"FRMC-01","James Louis Manguiat","00001029","Jommel Minranda","Jun 25 2018 08:07 PM","CASH","156.00"
"FRMC-01","Ryan Bagaipo","00001030","Jommel Minranda","Jun 26 2018 08:43 PM","CASH","92.50"
"FRMC-01","Leven Cerezo","00001031","Jommel Minranda","Jun 26 2018 01:42 PM","CASH","97.50"
"FRMC-01","Sherwin Montano","00001032","Jommel Minranda","Jun 25 2018 02:30 PM","CASH","115.00"
"FRMC-01","Gem Villarico","00001033","Jommel Minranda","Jun 26 2018 08:25 PM","CASH","364.50"
"FRMC-01","Angelica Gonzales","00001035","Jommel Minranda","Jun 27 2018 05:36 PM","CASH","167.50"
"FRMC-01","Excel Cuenca ","00001036","Jommel Minranda","Jun 26 2018 06:41 PM","CASH","242.50"
"FRMC-01","Von Salas","00001037","Jommel Minranda","Jun 28 2018 07:56 PM","CASH","50.00"
"FRMC-01","Austin Esguerra","00001040","Jommel Minranda","Jun 28 2018 10:46 AM","CASH","89.00"
"FRMC-01","Reginald Ramos","00001041","Jommel Minranda","Jun 26 2018 06:53 PM","CASH","202.50"
"FRMC-01","Sarah Mae Zantua","00001042","Jommel Minranda","Jun 26 2018 05:45 PM","CASH","112.50"
"FRMC-01","Marrie  Murallo","00001043","Jommel Minranda","Jun 29 2018 12:44 PM","CASH","162.50"
"FRMC-01","Joel Tambalong","00001044","Jommel Minranda","Jun 29 2018 03:33 PM","CASH","145.00"
"FRMC-01","Kimberly Cruz","00001045","Jommel Minranda","Jun 26 2018 03:29 PM","CASH","377.00"
"FRMC-01","Marie Tolentino","00001046","Jommel Minranda","Jun 29 2018 06:24 PM","CASH","262.50"
"FRMC-01","Jeremias Paras","00001050","Jommel Minranda","Jun 30 2018 07:35 PM","CASH","202.50"
"FRMC-01","Bellen Hernandez","0000907","Jommel Minranda","Jun 06 2018 11:31 AM","CASH","240.00"
"FRMC-01","Jason Brylle Lim","0000927","Jommel Minranda","Jun 03 2018 09:22 AM","CASH","122.00"
"FRMC-01","Floricel Romposon","0000928","Jommel Minranda","Jun 01 2018 01:17 PM","CASH","156.00"
"FRMC-01","John Mark Frianeza","0000929","Jommel Minranda","Jun 02 2018 05:02 PM","CASH","215.00"
"FRMC-01","Mary Browyn Fernandez","0000930","Jommel Minranda","Jun 03 2018 06:44 PM","CASH","208.00"
"FRMC-01","Gladis manalo","0000936","Jommel Minranda","Jun 01 2018 09:02 PM","CASH","171.00"
"FRMC-01","Jovy May Rabilis","0000937","Jommel Minranda","Jun 02 2018 05:48 PM","CASH","145.50"
"FRMC-01","jose antonio","0000938","Jommel Minranda","Jun 01 2018 11:58 AM","CASH","169.50"
"FRMC-01","Hans Villanueva","0000939","Jommel Minranda","Jun 07 2018 10:04 AM","CASH","55.00"
"FRMC-01","Hans Villanueva","0000940","Jommel Minranda","Jun 07 2018 10:04 AM","CASH","117.50"
"FRMC-01","Blu De Jesus","0000941","Jommel Minranda","Jun 02 2018 03:10 PM","CASH","332.50"
"FRMC-01","Jude Minoza","0000944","Jommel Minranda","Jun 05 2018 10:29 AM","CASH","458.50"
"FRMC-01","Jude Minoza","0000945","Jommel Minranda","Jun 05 2018 10:29 AM","CASH","52.50"
"FRMC-01","Jewel Gavino","0000946","Jommel Minranda","Jun 06 2018 01:53 PM","CASH","82.50"
"FRMC-01","Joel Tambalong","0000947","Jommel Minranda","Jun 04 2018 07:09 PM","CASH","135.50"
"FRMC-01","Leven Cerezo","0000949","Jommel Minranda","Jun 05 2018 08:07 PM","CASH","139.50"
"FRMC-01","Gem Villarico","0000950","Jommel Minranda","Jun 05 2018 07:35 PM","CASH","322.50"
"FRMC-01","Normanfran Tungcul","0000951","Jommel Minranda","Jun 05 2018 11:28 AM","CASH","171.50"
"FRMC-01","Jeremias Paras","0000952","Jommel Minranda","Jun 11 2018 06:06 PM","CASH","184.00"
"FRMC-01","Jelynne Wabe","0000954","Jommel Minranda","Jun 12 2018 11:56 AM","CASH","349.00"
"FRMC-01","Ryan Bagaipo","0000955","Jommel Minranda","Jun 12 2018 11:57 AM","CASH","240.00"
"FRMC-01","Mikolo Kylo Manalang","0000956","Jommel Minranda","Jun 08 2018 10:14 AM","CASH","457.50"
"FRMC-01","Francesca Camille Escano","0000958","Jommel Minranda","Jun 13 2018 02:23 PM","CASH","304.50"
"FRMC-01","Vergie Tantoy","0000959","Jommel Minranda","Jun 06 2018 01:50 PM","CASH","1199.00"
"FRMC-01","Reginald Ramos","0000960","Jommel Minranda","Jun 07 2018 08:10 PM","CASH","137.00"
"FRMC-01","Yollie Bristol","0000961","Jommel Minranda","Jun 07 2018 07:20 PM","CASH","272.00"
"FRMC-01","Mari Rose Ruiz","0000963","Jommel Minranda","Jun 11 2018 06:32 PM","CASH","170.50"
"FRMC-01","Jeremias Paras","0000964","Jommel Minranda","Jun 11 2018 05:16 PM","CASH","125.00"
"FRMC-01","Michelle De Vera ","0000965","Jommel Minranda","Jun 18 2018 04:12 PM","CASH","102.50"
"FRMC-01","Von Salas","0000966","Jommel Minranda","Jun 10 2018 06:56 PM","CASH","75.00"
"FRMC-01","Neo Vonn Baliguat","0000967","Jommel Minranda","Jun 10 2018 04:02 PM","CASH","187.00"
"FRMC-01","Kimberly Cruz","0000968","Jommel Minranda","Jun 12 2018 11:56 AM","CASH","368.00"
"FRMC-01","James Louis Manguiat","0000969","Jommel Minranda","Jun 10 2018 02:33 PM","CASH","122.50"
"FRMC-01","Sherryl Pineda","0000970","Jommel Minranda","Jun 19 2018 08:54 PM","CASH","350.00"
"FRMC-01","Leven Cerezo","0000971","Jommel Minranda","Jun 16 2018 06:42 PM","CASH","108.00"
"FRMC-01","Gem Villarico","0000972","Jommel Minranda","Jun 15 2018 09:58 AM","CASH","340.50"
"FRMC-01","Christine Faye Doria","0000973","Jommel Minranda","Jun 13 2018 02:19 PM","CASH","205.50"
"FRMC-01","Melissa Morano","0000974","Jommel Minranda","Jun 14 2018 08:54 PM","CASH","190.00"
"FRMC-01","Excel Cuenca ","0000975","Jommel Minranda","Jun 14 2018 03:32 PM","CASH","288.00"
"FRMC-01","Nica Villanueva","0000976","Jommel Minranda","Jun 15 2018 09:57 AM","CASH","435.50"
"FRMC-01","Akira Soriano","0000977","Jommel Minranda","Jun 28 2018 08:05 PM","CASH","736.00"
"FRMC-01","Floricel Romposon","0000979","Jommel Minranda","Jun 13 2018 04:06 PM","CASH","162.50"
"FRMC-01","Hans Villanueva","0000980","Jommel Minranda","Jun 14 2018 11:10 AM","CASH","125.00"
"FRMC-01","Hans Villanueva","0000981","Jommel Minranda","Jun 13 2018 10:06 AM","CASH","87.50"
"FRMC-01","Hans Villanueva","0000982","Jommel Minranda","Jun 13 2018 10:05 AM","CASH","93.00"
"FRMC-01","Jason Brylle Lim","0000983","Jommel Minranda","Jun 14 2018 11:09 AM","CASH","105.00"
"FRMC-01","Angelica Gonzales","0000984","Jommel Minranda","Jun 19 2018 08:54 PM","CASH","163.00"
"FRMC-01","Analie Lozada","0000985","Jommel Minranda","Jun 13 2018 06:16 PM","CASH","240.00"
"FRMC-01","Jeremias Paras","0000986","Jommel Minranda","Jun 24 2018 06:50 PM","CASH","175.00"
"FRMC-01","TJ Reyes","0000987","Jommel Minranda","Jun 14 2018 06:50 PM","CASH","168.00"
"FRMC-01","Jeremias Paras","0000988","Jommel Minranda","Jun 16 2018 09:58 AM","CASH","189.50"
"FRMC-01","Aleko Destacamento","0000989","Jommel Minranda","Jun 19 2018 08:53 PM","CASH","100.00"
"FRMC-01","Von Salas","0000990","Jommel Minranda","Jun 16 2018 07:12 PM","CASH","131.00"
"FRMC-01","Sarah Mae Zantua","0000991","Jommel Minranda","Jun 14 2018 02:33 PM","CASH","215.00"
"FRMC-01","Ann Ortiz","0000992","Jommel Minranda","Jun 20 2018 06:00 PM","CASH","376.50"
"FRMC-01","Yvonn Puertollano","0000993","Jommel Minranda","Jun 16 2018 12:11 PM","CASH","207.00"
"FRMC-01","Blu De Jesus","0000994","Jommel Minranda","Jun 18 2018 12:21 PM","CASH","175.00"
"FRMC-01","Ryan Bagaipo","0000995","Jommel Minranda","Jun 18 2018 08:30 PM","CASH","326.50"
"FRMC-01","Reginald Ramos","0000996","Jommel Minranda","Jun 25 2018 12:16 PM","CASH","140.00"
"FRMC-01","Sherwin Montano","0000997","Jommel Minranda","Jun 17 2018 02:02 PM","CASH","157.50"
"FRMC-01","Normanfran Tungcul","0000998","Jommel Minranda","Jun 17 2018 12:06 PM","CASH","300.00"
"FRMC-01","Marie Murallo","0000999","Jommel Minranda","Jun 18 2018 04:23 PM","CASH","156.00"
"PUDV-01","Niza Limjap","00001353","Joebert  Batain ","Jun 15 2018 03:18 PM","CASH","1437.00"
"PUDV-01","Dra. Quincy Raya","00001399","Joebert  Batain ","Jun 22 2018 04:42 PM","CASH","250.00"
"PUDV-01","Elaine Vecenio","00001418","Joebert  Batain ","Jun 01 2018 03:56 PM","CASH","275.00"
"PUDV-01","Dra. Quincy Raya","00001425","Joebert  Batain ","Jun 22 2018 04:45 PM","CASH","895.00"
"PUDV-01","Tower 3 Tonsy","00001457","Joebert  Batain ","Jun 03 2018 02:13 PM","CASH","400.50"
"PUDV-01","Hashery ( Edward ) Restaurant","00001463","Joebert  Batain ","Jun 01 2018 04:14 PM","CASH","300.00"
"PUDV-01","Dra. Quincy Raya","00001468","Joebert  Batain ","Jun 22 2018 04:41 PM","CASH","384.50"
"PUDV-01","Jojan Adolfo","00001469","Joebert  Batain ","Jun 22 2018 04:40 PM","CASH","250.00"
"PUDV-01","Aida Timbreza","00001474","Joebert  Batain ","Jun 02 2018 02:28 PM","CASH","575.00"
"PUDV-01","Chato Agtarap","00001475","Joebert  Batain ","Jun 02 2018 02:29 PM","CASH","250.00"
"PUDV-01","Vicente Ramoran","00001480","Ritzar Jeanjaquit ","Jun 25 2018 07:30 PM","CASH","450.00"
"PUDV-01","Mel Macasaquit","00001487","Joebert  Batain ","Jun 01 2018 03:57 PM","CASH","2255.00"
"PUDV-01","Perla Roy","00001489","Joebert  Batain ","Jun 11 2018 05:45 PM","CASH","704.00"
"PUDV-01","Alec Humpries","00001490","Joebert  Batain ","Jun 07 2018 04:27 PM","CASH","399.50"
"PUDV-01","Eastwest Biointegrative Health Center ","00001496","Joebert  Batain ","Jun 05 2018 02:48 PM","CASH","412.00"
"PUDV-01","Gary Iribarren","00001499","Joebert  Batain ","Jun 05 2018 02:49 PM","CASH","406.00"
"PUDV-01","Tower 3 Tonsy","00001503","Joebert  Batain ","Jun 19 2018 07:41 PM","CASH","303.00"
"PUDV-01","Sarah Palmero","00001504","Joebert  Batain ","Jun 07 2018 04:25 PM","CASH","430.00"
"PUDV-01","Chato Agtarap","00001518","Joebert  Batain ","Jun 08 2018 06:45 PM","CASH","250.00"
"PUDV-01","Perla Roy","00001523","Joebert  Batain ","Jun 11 2018 05:47 PM","CASH","405.50"
"PUDV-01","Aida Timbreza","00001529","Joebert  Batain ","Jun 12 2018 06:06 PM","CASH","400.00"
"PUDV-01","Chato Agtarap","00001530","Joebert  Batain ","Jun 18 2018 07:28 AM","CASH","250.00"
"PUDV-01","Hannah May  Bagares ","00001542","Joebert  Batain ","Jun 21 2018 07:50 PM","CASH","415.00"
"PUDV-01","Jim Baretto","00001544","Joebert  Batain ","Jun 11 2018 05:57 PM","CASH","575.00"
"PUDV-01","Eastwest Biointegrative Health Center ","00001546","Joebert  Batain ","Jun 13 2018 06:42 PM","CASH","472.50"
"PUDV-01","Clear Value Medical Center (Manila Vision) (Attn: Jiselle Vergara ) ","00001547","Joebert  Batain ","Jun 19 2018 07:43 PM","CASH","815.00"
"PUDV-01","Tower 3 Tonsy","00001556","Joebert  Batain ","Jun 19 2018 07:42 PM","CASH","646.00"
"PUDV-01","Gary Iribarren","00001572","Joebert  Batain ","Jun 28 2018 07:08 PM","CASH","920.00"
"PUDV-01","Gary Iribarren","00001573","Joebert  Batain ","Jun 28 2018 07:09 PM","CASH","250.00"
"PUDV-01","Hannah May  Bagares ","00001578","Joebert  Batain ","Jun 21 2018 07:48 PM","CASH","250.00"
"PUDV-01","Ravi Ravi","00001582","Joebert  Batain ","Jun 19 2018 07:44 PM","CASH","250.00"
"PUDV-01","Aida Timbreza","00001583","Joebert  Batain ","Jun 21 2018 08:03 PM","CASH","375.50"
"PUDV-01","Chato Agtarap","00001584","Joebert  Batain ","Jun 19 2018 07:02 PM","CASH","278.00"
"PUDV-01","Tower 3 Tonsy","00001596","Joebert  Batain ","Jun 27 2018 06:15 PM","CASH","415.00"
"PUDV-01","Eastwest Biointegrative Health Center ","00001602","Joebert  Batain ","Jun 23 2018 03:51 PM","CASH","400.00"
"PUDV-01","Baby Caceres","00001611","Joebert  Batain ","Jun 23 2018 03:53 PM","CASH","300.50"
"PUDV-01","Baby Caceres","00001612","Joebert  Batain ","Jun 23 2018 03:54 PM","CASH","570.00"
"PUDV-01","Veronica Aguas","00001614","Joebert  Batain ","Jun 25 2018 07:28 PM","CASH","250.00"
"PUDV-01","Jim Baretto","00001615","Joebert  Batain ","Jun 27 2018 06:13 PM","CASH","606.50"
"PUDV-01","Mel Macasaquit","00001622","Joebert  Batain ","Jun 25 2018 07:23 PM","CASH","1469.00"
"PUDV-01","Eastwest Biointegrative Health Center ","00001623","Joebert  Batain ","Jun 27 2018 06:14 PM","CASH","717.50"
"PUDV-01","Jojan Adolfo","00001624","Joebert  Batain ","Jun 28 2018 07:07 PM","CASH","423.00"
"PUDV-01","Dra. Quincy Raya","00001628","Joebert  Batain ","Jun 28 2018 07:05 PM","CASH","777.50"
"PUDV-01","Sarah Palmero","00001629","Joebert  Batain ","Jun 27 2018 06:16 PM","CASH","617.00"
"PUDV-01","Aida Timbreza","00001643","Joebert  Batain ","Jun 30 2018 02:48 PM","CASH","345.00"
"PUDV-01","Melissa Dimla","00001656","Joebert  Batain ","Jun 30 2018 02:55 PM","CASH","500.00"
"PUDV-02","William Jayson Aguinaldo","00001481","Joebert  Batain ","Jun 02 2018 03:09 PM","CASH","420.50"
"PUDV-02","Vanj Livera","00001488","Joebert  Batain ","Jun 07 2018 05:03 PM","CASH","107.50"
"PUDV-02","Veronica Aguas","00001497","Joebert  Batain ","Jun 08 2018 06:51 PM","CASH","195.00"
"PUDV-02","Rushelle Paat","00001498","Joebert  Batain ","Jun 07 2018 05:05 PM","CASH","543.00"
"PUDV-02","Vanj Livera","00001513","Joebert  Batain ","Jun 07 2018 05:04 PM","CASH","800.00"
"PUDV-02","Janica Reloxe","00001545","Joebert  Batain ","Jun 13 2018 06:36 PM","CASH","100.00"
"PUDV-02","ANDY SARE","00001558","Joebert  Batain ","Jun 15 2018 03:26 PM","CASH","130.00"
"PUDV-02","Gary Iribarren","00001559","Joebert  Batain ","Jun 15 2018 03:28 PM","CASH","560.00"
"PUDV-02","DOMINIC BIESCAS","00001577","Joebert  Batain ","Jun 19 2018 08:03 PM","CASH","107.50"
"PUDV-02","Ben  Ambata ","00001644","Joebert  Batain ","Jun 30 2018 03:50 PM","CASH","262.50"
"QPMM-01","Emie Castro","00001947","Maricar Aguilar","Jun 26 2018 08:24 PM","CASH","187.50"
"QPMM-01","Revin Delos Reyes","00002364","Maricar Aguilar","Jun 10 2018 10:10 AM","CASH","143.00"
"QPMM-01","neal calleja","00002470","Maricar Aguilar","Jun 16 2018 08:29 AM","CASH","149.50"
"QPMM-01","Jeremiah Padios","00002680","Maricar Aguilar","Jun 03 2018 07:22 PM","CASH","290.00"
"QPMM-01","Luis  Reyes","00002783","Maricar Aguilar","Jun 23 2018 01:13 PM","CASH","180.00"
"QPMM-01","Ra De Guzman","00002799","Maricar Aguilar","Jun 10 2018 07:15 PM","CASH","145.00"
"QPMM-01","Delnie Dantes","00002810","Maricar Aguilar","Jun 02 2018 09:09 AM","CASH","128.50"
"QPMM-01","Anna Estella","00002849","Maricar Aguilar","Jun 29 2018 08:19 PM","CASH","237.50"
"QPMM-01","JAKE CONTRERAS","00002867","Maricar Aguilar","Jun 03 2018 04:32 PM","CASH","147.00"
"QPMM-01","Edwin  Concha","00002891","Maricar Aguilar","Jun 05 2018 05:34 PM","CASH","105.00"
"QPMM-01","Benjie Clieto","00002910","Maricar Aguilar","Jun 25 2018 09:10 PM","CASH","219.50"
"QPMM-01","Benjie Clieto","00002911","Maricar Aguilar","Jun 26 2018 06:56 PM","CASH","140.00"
"QPMM-01","Leonardo Salcedo","00002918","Maricar Aguilar","Jun 02 2018 09:10 AM","CASH","177.00"
"QPMM-01","gellie ramos","00002935","Maricar Aguilar","Jun 06 2018 05:11 PM","CASH","65.00"
"QPMM-01","Darwin Barba","00002953","Maricar Aguilar","Jun 11 2018 01:02 PM","CASH","130.00"
"QPMM-01","Romeo Laconsay","00002955","Maricar Aguilar","Jun 03 2018 11:57 AM","CASH","162.50"
"QPMM-01","Noel Lumabao","00002973","Maricar Aguilar","Jun 02 2018 09:28 PM","CASH","120.00"
"QPMM-01","Danilo Borbo","00002981","Maricar Aguilar","Jun 03 2018 04:32 PM","CASH","102.50"
"QPMM-01","Bernadette Avancena","00002983","Maricar Aguilar","Jun 10 2018 10:50 AM","CASH","266.50"
"QPMM-01","Alex Sambilay","00002986","Maricar Aguilar","Jun 01 2018 08:35 PM","CASH","247.00"
"QPMM-01","jonathan fernandez","00002991","Maricar Aguilar","Jun 01 2018 08:36 PM","CASH","92.00"
"QPMM-01","jorge madridano","00002994","Maricar Aguilar","Jun 03 2018 07:25 PM","CASH","218.50"
"QPMM-01","STEPHEN GIL PENARANDA ","00002997","Maricar Aguilar","Jun 04 2018 07:11 PM","CASH","150.00"
"QPMM-01","Genaro Lumanlan","00002999","Maricar Aguilar","Jun 02 2018 09:29 PM","CASH","132.50"
"QPMM-01","Anne  Scott","00003001","Maricar Aguilar","Jun 02 2018 09:28 PM","CASH","375.00"
"QPMM-01","Maria Antonio","00003002","Maricar Aguilar","Jun 02 2018 09:28 PM","CASH","415.00"
"QPMM-01","Mary Grace Palomeras","00003004","Maricar Aguilar","Jun 03 2018 08:43 PM","CASH","265.00"
"QPMM-01","arnold azul","00003005","Maricar Aguilar","Jun 04 2018 08:56 AM","CASH","200.00"
"QPMM-01","MACSIMSON RELLEVE","00003008","Maricar Aguilar","Jun 17 2018 06:11 PM","CASH","210.00"
"QPMM-01","tristan maceda","00003009","Maricar Aguilar","Jun 03 2018 11:56 AM","CASH","162.50"
"QPMM-01","Dexter Alicabo","00003010","Maricar Aguilar","Jun 08 2018 07:19 PM","CASH","125.00"
"QPMM-01","Janice Pascua","00003011","Maricar Aguilar","Jun 04 2018 07:12 PM","CASH","210.00"
"QPMM-01","aldrin mejos","00003012","Maricar Aguilar","Jun 03 2018 11:57 AM","CASH","180.00"
"QPMM-01","gerlberto aguilor","00003013","Maricar Aguilar","Jun 03 2018 11:56 AM","CASH","150.00"
"QPMM-01","Carmela Callos","00003014","Maricar Aguilar","Jun 05 2018 08:17 PM","CASH","272.50"
"QPMM-01","Irish Erwin Fulgencio","00003015","Maricar Aguilar","Jun 08 2018 12:28 PM","CASH","217.00"
"QPMM-01","Archie Valerio","00003016","Maricar Aguilar","Jun 04 2018 07:12 PM","CASH","50.00"
"QPMM-01","Mandy Avinanto","00003017","Maricar Aguilar","Jun 04 2018 08:25 PM","CASH","85.00"
"QPMM-01","jennelyn llcedo","00003018","Maricar Aguilar","Jun 01 2018 08:55 PM","CASH","125.00"
"QPMM-01","Algerico Dangco","00003019","Maricar Aguilar","Jun 02 2018 09:51 AM","CASH","142.00"
"QPMM-01","Felix Pasay","00003020","Maricar Aguilar","Jun 05 2018 05:15 PM","CASH","265.00"
"QPMM-01","jonathan fernandez","00003021","Maricar Aguilar","Jun 06 2018 01:14 PM","CASH","75.00"
"QPMM-01","Mark Bryan Bechayda","00003022","Maricar Aguilar","Jun 03 2018 02:48 PM","CASH","120.00"
"QPMM-01","Lorina Oyales","00003023","Maricar Aguilar","Jun 04 2018 07:11 PM","CASH","105.00"
"QPMM-01","Danielle Anne Pelino","00003024","Maricar Aguilar","Jun 11 2018 06:05 PM","CASH","62.50"
"QPMM-01","Jay Ar Cabelin","00003025","Maricar Aguilar","Jun 06 2018 06:45 PM","CASH","50.00"
"QPMM-01","elena bautista","00003026","Maricar Aguilar","Jun 08 2018 06:02 PM","CASH","171.50"
"QPMM-01","Ariel Olay","00003027","Maricar Aguilar","Jun 03 2018 07:25 PM","CASH","120.00"
"QPMM-01","Joan Lumawag","00003028","Maricar Aguilar","Jun 04 2018 07:25 PM","CASH","157.50"
"QPMM-01","julie anne manito","00003029","Maricar Aguilar","Jun 17 2018 11:48 AM","CASH","182.50"
"QPMM-01","Lorina Oyales","00003030","Maricar Aguilar","Jun 03 2018 07:23 PM","CASH","200.00"
"QPMM-01","Rowel  Tolentino ","00003031","Maricar Aguilar","Jun 04 2018 07:25 PM","CASH","67.00"
"QPMM-01","Erenaldo Poller","00003032","Maricar Aguilar","Jun 05 2018 11:32 AM","CASH","155.00"
"QPMM-01","Axel Silvestre","00003033","Maricar Aguilar","Jun 02 2018 09:51 AM","CASH","102.50"
"QPMM-01","arnold mila","00003035","Maricar Aguilar","Jun 03 2018 07:15 PM","CASH","92.50"
"QPMM-01","Danilo Borbo","00003036","Maricar Aguilar","Jun 06 2018 04:04 PM","CASH","85.00"
"QPMM-01","Tintin Mangubat","00003037","Maricar Aguilar","Jun 09 2018 05:35 PM","CASH","85.00"
"QPMM-01","Emrick Manio","00003039","Maricar Aguilar","Jun 05 2018 08:00 PM","CASH","1087.50"
"QPMM-01","jc carneth","00003040","Maricar Aguilar","Jun 05 2018 06:22 PM","CASH","120.00"
"QPMM-01","eric jhon espinosa","00003041","Maricar Aguilar","Jun 06 2018 08:32 PM","CASH","113.00"
"QPMM-01","jun manalo","00003042","Maricar Aguilar","Jun 03 2018 11:57 AM","CASH","143.00"
"QPMM-01","Fe Adina","00003043","Maricar Aguilar","Jun 06 2018 03:43 PM","CASH","170.00"
"QPMM-01","JAKE CONTRERAS","00003044","Maricar Aguilar","Jun 17 2018 04:33 PM","CASH","105.00"
"QPMM-01","jorge madridano","00003046","Maricar Aguilar","Jun 10 2018 12:38 PM","CASH","215.00"
"QPMM-01","minerva laurel","00003048","Maricar Aguilar","Jun 05 2018 04:18 PM","CASH","100.00"
"QPMM-01","gellie ramos","00003049","Maricar Aguilar","Jun 06 2018 05:07 PM","CASH","62.50"
"QPMM-01","Alex Sambilay","00003050","Maricar Aguilar","Jun 07 2018 06:44 PM","CASH","275.00"
"QPMM-01","Janice Pascua","00003051","Maricar Aguilar","Jun 07 2018 08:05 AM","CASH","297.50"
"QPMM-01","Christian Kenneth  Del Villar","00003052","Maricar Aguilar","Jun 06 2018 09:09 PM","CASH","67.50"
"QPMM-01","Marites Lucero","00003053","Maricar Aguilar","Jun 10 2018 06:57 PM","CASH","108.50"
"QPMM-01","emma manio","00003054","Maricar Aguilar","Jun 12 2018 04:48 PM","CASH","261.50"
"QPMM-01","marvin  marvin","00003055","Maricar Aguilar","Jun 08 2018 05:32 PM","CASH","157.50"
"QPMM-01","arnold mila","00003056","Maricar Aguilar","Jun 09 2018 05:52 PM","CASH","50.00"
"QPMM-01","Earl Osorio","00003057","Maricar Aguilar","Jun 25 2018 08:09 AM","CASH","120.00"
"QPMM-01","Cloyd Insipne","00003058","Maricar Aguilar","Jun 07 2018 05:13 PM","CASH","150.00"
"QPMM-01","Joerian Viola","00003059","Maricar Aguilar","Jun 06 2018 07:44 PM","CASH","102.50"
"QPMM-01","Carmela Callos","00003060","Maricar Aguilar","Jun 08 2018 01:51 PM","CASH","180.00"
"QPMM-01","Melchor Casumpang","00003061","Anna Soriano","Jun 07 2018 06:54 PM","CASH","100.00"
"QPMM-01","jonathan fernandez","00003062","Anna Soriano","Jun 10 2018 11:28 AM","CASH","75.00"
"QPMM-01","brian villacorte","00003063","Anna Soriano","Jun 08 2018 03:12 PM","CASH","278.00"
"QPMM-01","Maribel Posadas","00003064","Anna Soriano","Jun 08 2018 01:01 PM","CASH","122.50"
"QPMM-01","Lorina Oyales","00003065","Anna Soriano","Jun 14 2018 10:27 AM","CASH","87.50"
"QPMM-01","tristan maceda","00003066","Anna Soriano","Jun 11 2018 08:54 PM","CASH","94.50"
"QPMM-01","Justin Fabian","00003069","Anna Soriano","Jun 09 2018 04:09 PM","CASH","192.50"
"QPMM-01","aleli buaquen","00003070","Anna Soriano","Jun 10 2018 01:29 PM","CASH","175.00"
"QPMM-01","Anne  Scott","00003071","Kristine  Oli","Jun 08 2018 05:33 PM","CASH","309.50"
"QPMM-01","Jojo Casipit","00003073","Kristine  Oli","Jun 10 2018 10:58 AM","CASH","65.00"
"QPMM-01","Carlito Carlos","00003074","Kristine  Oli","Jun 15 2018 02:26 PM","CASH","75.00"
"QPMM-01","Mark Bryan Bechayda","00003076","Kristine  Oli","Jun 09 2018 11:59 AM","CASH","102.50"
"QPMM-01","charisse  mani","00003077","Kristine  Oli","Jun 13 2018 04:00 PM","CASH","227.50"
"QPMM-01","Carmela Callos","00003078","Kristine  Oli","Jun 13 2018 03:04 PM","CASH","125.00"
"QPMM-01","Anne  Scott","00003079","Kristine  Oli","Jun 09 2018 06:13 PM","CASH","497.50"
"QPMM-01","Tony Tony","00003080","Kristine  Oli","Jun 29 2018 09:08 AM","CASH","545.00"
"QPMM-01","Mary Grace Palomeras","00003081","Kristine  Oli","Jun 10 2018 04:24 PM","CASH","347.50"
"QPMM-01","Irish Erwin Fulgencio","00003082","Kristine  Oli","Jun 14 2018 11:24 AM","CASH","205.50"
"QPMM-01","veronica sunga","00003083","Kristine  Oli","Jun 22 2018 10:37 AM","CASH","50.00"
"QPMM-01","stephanie espirito","00003084","Kristine  Oli","Jun 08 2018 02:45 PM","CASH","140.00"
"QPMM-01","Naths Labado","00003085","Kristine  Oli","Jun 10 2018 07:19 PM","CASH","62.50"
"QPMM-01","Leni Odiver","00003086","Kristine  Oli","Jun 10 2018 06:41 PM","CASH","283.50"
"QPMM-01","elena bautista","00003087","Kristine  Oli","Jun 15 2018 12:19 PM","CASH","226.00"
"QPMM-01","Maribel Posadas","00003088","Kristine  Oli","Jun 09 2018 12:14 PM","CASH","133.00"
"QPMM-01","Archie Valerio","00003089","Kristine  Oli","Jun 13 2018 08:24 PM","CASH","50.00"
"QPMM-01","Romeo Laconsay","00003090","Kristine  Oli","Jun 13 2018 09:05 AM","CASH","125.00"
"QPMM-01","Lorina Oyales","00003092","Kristine  Oli","Jun 11 2018 05:45 PM","CASH","200.00"
"QPMM-01","Joel Gayda","00003093","Kristine  Oli","Jun 11 2018 07:12 PM","CASH","173.00"
"QPMM-01","Ariel Olay","00003094","Kristine  Oli","Jun 11 2018 06:21 PM","CASH","127.50"
"QPMM-01","joshua manito","00003096","Kristine  Oli","Jun 17 2018 11:49 AM","CASH","161.00"
"QPMM-01","renato alivia","00003097","Kristine  Oli","Jun 12 2018 01:08 PM","CASH","55.00"
"QPMM-01","aldrin mejos","00003098","Kristine  Oli","Jun 12 2018 05:47 PM","CASH","142.00"
"QPMM-01","Justin Fabian","00003099","Kristine  Oli","Jun 10 2018 01:54 PM","CASH","185.50"
"QPMM-01","Rowel  Tolentino ","00003100","Kristine  Oli","Jun 11 2018 08:55 PM","CASH","62.50"
"QPMM-01","Tintin Mangubat","00003101","Kristine  Oli","Jun 12 2018 07:15 PM","CASH","50.00"
"QPMM-01","arnold mila","00003102","Kristine  Oli","Jun 14 2018 05:07 PM","CASH","50.00"
"QPMM-01","Jude Sinlao","00003103","Kristine  Oli","Jun 15 2018 12:58 PM","CASH","175.00"
"QPMM-01","Jovelino Ballesteros","00003104","Kristine  Oli","Jun 16 2018 08:58 PM","CASH","125.00"
"QPMM-01","Carlo Agno","00003105","Kristine  Oli","Jun 17 2018 09:19 AM","CASH","102.50"
"QPMM-01","desy sepreyano","00003106","Kristine  Oli","Jun 13 2018 08:46 PM","CASH","250.00"
"QPMM-01","Edwin  Concha","00003108","Kristine  Oli","Jun 10 2018 05:36 PM","CASH","75.00"
"QPMM-01","Genaro Lumanlan","00003109","Kristine  Oli","Jun 14 2018 01:11 PM","CASH","140.00"
"QPMM-01","joshua manito","00003110","Kristine  Oli","Jun 17 2018 11:49 AM","CASH","80.00"
"QPMM-01","Maribel Posadas","00003112","Kristine  Oli","Jun 12 2018 07:03 PM","CASH","105.00"
"QPMM-01","Gabrielle  Adina","00003114","Kristine  Oli","Jun 14 2018 09:43 AM","CASH","88.50"
"QPMM-01","jonathan fernandez","00003115","Kristine  Oli","Jun 14 2018 04:03 PM","CASH","55.00"
"QPMM-01","jorge madridano","00003116","Kristine  Oli","Jun 15 2018 09:52 AM","CASH","310.50"
"QPMM-01","feliciano  pactol","00003117","Kristine  Oli","Jun 12 2018 11:55 AM","CASH","205.00"
"QPMM-01","Ronald Tila","00003118","Kristine  Oli","Jun 13 2018 06:53 PM","CASH","75.00"
"QPMM-01","Mary Grace Palomeras","00003120","Kristine  Oli","Jun 17 2018 08:42 PM","CASH","177.50"
"QPMM-01","Tesie Agbo","00003122","Kristine  Oli","Jun 15 2018 08:48 PM","CASH","50.00"
"QPMM-01","rogie cesario","00003123","Kristine  Oli","Jun 14 2018 09:29 AM","CASH","315.00"
"QPMM-01","jimnest mendoza","00003124","Kristine  Oli","Jun 14 2018 05:10 PM","CASH","577.50"
"QPMM-01","edzel jade","00003125","Kristine  Oli","Jun 14 2018 06:33 PM","CASH","232.50"
"QPMM-01","Jervis Gangan","00003126","Kristine  Oli","Jun 15 2018 11:16 AM","CASH","50.00"
"QPMM-01","maricel ongue","00003127","Kristine  Oli","Jun 14 2018 11:51 AM","CASH","87.50"
"QPMM-01","merly calleja","00003128","Kristine  Oli","Jun 16 2018 08:28 AM","CASH","175.00"
"QPMM-01","Anne  Scott","00003130","Kristine  Oli","Jun 15 2018 12:19 PM","CASH","250.00"
"QPMM-01","Ria Sioxion","00003131","Kristine  Oli","Jun 15 2018 11:15 AM","CASH","120.00"
"QPMM-01","Heinson King","00003132","Kristine  Oli","Jun 14 2018 07:41 PM","CARD","254.50"
"QPMM-01","Marco Paolo Dayap","00003133","Kristine  Oli","Jun 14 2018 01:05 PM","CASH","109.50"
"QPMM-01","Shiela Mae Del Rosario","00003134","Kristine  Oli","Jun 18 2018 08:31 AM","CASH","98.00"
"QPMM-01","Naths Labado","00003135","Kristine  Oli","Jun 29 2018 06:37 PM","CASH","50.00"
"QPMM-01","Joan Lumawag","00003136","Kristine  Oli","Jun 14 2018 07:01 PM","CASH","140.00"
"QPMM-01","Corazon Opena","00003137","Kristine  Oli","Jun 15 2018 04:54 PM","CASH","145.00"
"QPMM-01","Jeff Pascua","00003138","Kristine  Oli","Jun 15 2018 10:29 AM","CASH","185.00"
"QPMM-01","Jeff Pascua","00003139","Kristine  Oli","Jun 21 2018 11:59 AM","CASH","225.00"
"QPMM-01","Algerico Dangco","00003141","Kristine  Oli","Jun 18 2018 09:48 AM","CASH","110.00"
"QPMM-01","Carmela Callos","00003142","Kristine  Oli","Jun 17 2018 11:50 AM","CASH","250.00"
"QPMM-01","Marivic Melitante","00003143","Kristine  Oli","Jun 15 2018 12:29 PM","CASH","140.00"
"QPMM-01","Michael Gariando","00003144","Kristine  Oli","Jun 17 2018 02:34 PM","CASH","147.00"
"QPMM-01","Noel Lumabao","00003146","Kristine  Oli","Jun 23 2018 04:30 PM","CASH","87.50"
"QPMM-01","bombay bombay","00003147","Kristine  Oli","Jun 17 2018 02:03 PM","CASH","154.50"
"QPMM-01","Joerian Viola","00003148","Kristine  Oli","Jun 15 2018 04:54 PM","CASH","120.50"
"QPMM-01","Leni Odiver","00003152","Kristine  Oli","Jun 18 2018 07:13 PM","CASH","147.50"
"QPMM-01","marialynalun alum","00003153","Kristine  Oli","Jun 18 2018 12:25 PM","CASH","62.50"
"QPMM-01","Irish Erwin Fulgencio","00003155","Kristine  Oli","Jun 22 2018 10:29 AM","CASH","157.50"
"QPMM-01","Mary Jane  Lamac","00003156","Kristine  Oli","Jun 18 2018 10:56 AM","CASH","167.50"
"QPMM-01","Marco Paolo Dayap","00003157","Kristine  Oli","Jun 22 2018 10:34 AM","CASH","142.50"
"QPMM-01","Jonathan Tenorio","00003158","Kristine  Oli","Jun 16 2018 08:59 PM","CASH","144.00"
"QPMM-01","Ch. Tirso  Estoque","00003160","Kristine  Oli","Jun 18 2018 08:30 AM","CASH","1385.00"
"QPMM-01","arnold mila","00003161","Kristine  Oli","Jun 20 2018 02:41 PM","CASH","50.00"
"QPMM-01","Jun Paulo Verano","00003162","Kristine  Oli","Jun 16 2018 01:46 PM","CASH","175.00"
"QPMM-01","Larken De Oca","00003163","Kristine  Oli","Jun 18 2018 07:16 PM","CASH","67.50"
"QPMM-01","Leo Anzano","00003164","Kristine  Oli","Jun 18 2018 03:39 PM","CASH","190.00"
"QPMM-01","jorge madridano","00003166","Kristine  Oli","Jun 22 2018 01:04 PM","CASH","297.50"
"QPMM-01","Nilo Generoso","00003167","Kristine  Oli","Jun 23 2018 01:14 PM","CASH","140.00"
"QPMM-01","Ria Sioxion","00003169","Kristine  Oli","Jun 18 2018 10:21 AM","CASH","105.00"
"QPMM-01","aleli buaquen","00003170","Kristine  Oli","Jun 18 2018 08:29 AM","CASH","510.00"
"QPMM-01","elena bautista","00003171","Kristine  Oli","Jun 24 2018 11:52 AM","CASH","225.00"
"QPMM-01","ardetlyn arizala","00003172","Kristine  Oli","Jun 18 2018 06:17 PM","CASH","90.00"
"QPMM-01","tristan maceda","00003173","Kristine  Oli","Jun 17 2018 04:24 PM","CASH","162.50"
"QPMM-01","Jude Sinlao","00003174","Kristine  Oli","Jun 21 2018 04:25 PM","CASH","287.50"
"QPMM-01","Carl jhon Ombid","00003175","Kristine  Oli","Jun 19 2018 03:37 PM","CASH","50.00"
"QPMM-01","Jojo Casipit","00003176","Kristine  Oli","Jun 18 2018 05:28 PM","CASH","62.50"
"QPMM-01","chistian jairo  palacio","00003177","Kristine  Oli","Jun 18 2018 08:31 AM","CASH","77.50"
"QPMM-01","nikko mendevil","00003178","Kristine  Oli","Jun 19 2018 02:37 PM","CASH","84.50"
"QPMM-01","Christian Kenneth  Del Villar","00003179","Kristine  Oli","Jun 18 2018 08:55 PM","CASH","95.00"
"QPMM-01","Lorina Oyales","00003182","Kristine  Oli","Jun 17 2018 09:19 AM","CASH","150.00"
"QPMM-01","Ariel Olay","00003183","Kristine  Oli","Jun 18 2018 08:37 PM","CASH","102.50"
"QPMM-01","Ronald Tila","00003184","Kristine  Oli","Jun 20 2018 11:15 AM","CASH","85.00"
"QPMM-01","Joel Gayda","00003185","Kristine  Oli","Jun 19 2018 12:55 PM","CASH","127.50"
"QPMM-01","Gabrielle  Adina","00003186","Kristine  Oli","Jun 20 2018 08:39 AM","CASH","75.00"
"QPMM-01","Dexter Alicabo","00003187","Kristine  Oli","Jun 28 2018 02:46 PM","CASH","195.00"
"QPMM-01","Carmela Callos","00003188","Kristine  Oli","Jun 22 2018 01:44 PM","CASH","157.50"
"QPMM-01","Erenaldo Poller","00003189","Kristine  Oli","Jun 20 2018 05:25 PM","CASH","197.50"
"QPMM-01","Myrna Bello","00003190","Kristine  Oli","Jun 22 2018 07:28 PM","CASH","90.00"
"QPMM-01","Ludina Raymundo","00003191","Kristine  Oli","Jun 27 2018 04:47 PM","CASH","99.00"
"QPMM-01","Rowel  Tolentino ","00003192","Kristine  Oli","Jun 18 2018 08:18 PM","CASH","97.00"
"QPMM-01","Mayeth Mejia","00003194","Kristine  Oli","Jun 30 2018 08:18 PM","CASH","175.00"
"QPMM-01","marry ann lipanggi","00003195","Kristine  Oli","Jun 30 2018 03:25 PM","CASH","135.00"
"QPMM-01","desy sepreyano","00003196","Kristine  Oli","Jun 24 2018 11:39 AM","CASH","175.00"
"QPMM-01","joshua manito","00003197","Kristine  Oli","Jun 19 2018 06:54 PM","CASH","175.00"
"QPMM-01","joshua manito","00003198","Kristine  Oli","Jun 23 2018 07:09 PM","CASH","262.50"
"QPMM-01","jenny tanlim","00003199","Kristine  Oli","Jun 21 2018 11:58 AM","CASH","325.00"
"QPMM-01","renato alivia","00003200","Kristine  Oli","Jun 20 2018 06:04 PM","CASH","75.00"
"QPMM-01","ronaldo  espanola","00003201","Kristine  Oli","Jun 27 2018 03:51 PM","CASH","120.00"
"QPMM-01","Cloyd Insipne","00003202","Kristine  Oli","Jun 24 2018 11:13 AM","CASH","142.50"
"QPMM-01","Darwin  Calma","00003203","Kristine  Oli","Jun 24 2018 12:34 PM","CASH","100.00"
"QPMM-01","Mary Grace Palomeras","00003206","Kristine  Oli","Jun 24 2018 06:28 PM","CASH","230.00"
"QPMM-01","Ria Sioxion","00003208","Kristine  Oli","Jun 23 2018 11:28 AM","CASH","157.50"
"QPMM-01","Tintin Mangubat","00003210","Kristine  Oli","Jun 21 2018 03:09 PM","CASH","73.00"
"QPMM-01","arnold azul","00003212","Kristine  Oli","Jun 23 2018 08:15 PM","CASH","157.50"
"QPMM-01","Larken De Oca","00003213","Kristine  Oli","Jun 22 2018 05:40 PM","CASH","107.50"
"QPMM-01","STEPHEN GIL PENARANDA ","00003216","Kristine  Oli","Jun 20 2018 05:48 PM","CASH","187.50"
"QPMM-01","Janice Pascua","00003217","Kristine  Oli","Jun 25 2018 08:52 AM","CASH","232.50"
"QPMM-01","Lorina Oyales","00003219","Kristine  Oli","Jun 25 2018 11:12 AM","CASH","180.00"
"QPMM-01","Anne  Scott","00003220","Kristine  Oli","Jun 23 2018 03:12 PM","CASH","245.00"
"QPMM-01","Jun Paulo Verano","00003221","Kristine  Oli","Jun 22 2018 01:46 PM","CASH","55.00"
"QPMM-01","Alex Sambilay","00003222","Kristine  Oli","Jun 23 2018 08:07 AM","CASH","277.50"
"QPMM-01","feliciano  pactol","00003223","Kristine  Oli","Jun 23 2018 06:36 PM","CASH","155.00"
"QPMM-01","Donato Macapagal","00003224","Kristine  Oli","Jun 22 2018 05:41 PM","CASH","145.00"
"QPMM-01","Archie  Castaneda","00003225","Kristine  Oli","Jun 22 2018 04:17 PM","CASH","85.00"
"QPMM-01","arnold mila","00003226","Kristine  Oli","Jun 24 2018 11:18 AM","CASH","50.00"
"QPMM-01","Marco Paolo Dayap","00003227","Kristine  Oli","Jun 22 2018 10:35 AM","CASH","95.50"
"QPMM-01","Marvin  Lumanlan","00003229","Kristine  Oli","Jun 28 2018 09:23 AM","CASH","225.00"
"QPMM-01","Jayson Roloma","00003231","Kristine  Oli","Jun 24 2018 06:27 PM","CASH","140.00"
"QPMM-01","Mandy Avinanto","00003232","Kristine  Oli","Jun 25 2018 09:10 PM","CASH","100.00"
"QPMM-01","Carmela Callos","00003233","Kristine  Oli","Jun 25 2018 06:21 PM","CASH","212.50"
"QPMM-01","Joerian Viola","00003234","Kristine  Oli","Jun 24 2018 07:38 PM","CASH","172.50"
"QPMM-01","syn cleto","00003236","Kristine  Oli","Jun 30 2018 01:51 PM","CASH","287.50"
"QPMM-01","Ch. Tirso  Estoque","00003237","Kristine  Oli","Jun 24 2018 08:46 AM","CASH","360.00"
"QPMM-01","Mary Jane  Lamac","00003238","Kristine  Oli","Jun 27 2018 03:15 PM","CASH","207.50"
"QPMM-01","tristan maceda","00003239","Kristine  Oli","Jun 27 2018 09:04 AM","CASH","102.50"
"QPMM-01","John Erick Cabautan","00003241","Kristine  Oli","Jun 25 2018 07:00 PM","CASH","175.00"
"QPMM-01","marry ann acosta","00003242","Kristine  Oli","Jun 25 2018 12:24 PM","CASH","127.50"
"QPMM-01","rogie cesario","00003243","Kristine  Oli","Jun 25 2018 08:35 AM","CASH","292.50"
"QPMM-01","Gabrielle  Adina","00003244","Kristine  Oli","Jun 26 2018 06:32 PM","CASH","75.00"
"QPMM-01","feliciano  pactol","00003246","Kristine  Oli","Jun 25 2018 07:59 PM","CASH","190.00"
"QPMM-01","Joan Lumawag","00003247","Kristine  Oli","Jun 26 2018 04:00 PM","CASH","142.50"
"QPMM-01","rowel tolentino","00003248","Kristine  Oli","Jun 27 2018 08:14 PM","CASH","62.50"
"QPMM-01","Mara Veronica Fesarillo","00003249","Kristine  Oli","Jun 26 2018 07:48 PM","CASH","125.00"
"QPMM-01","Felix Pasay","00003250","Kristine  Oli","Jun 27 2018 05:33 PM","CASH","180.00"
"QPMM-01","Lorina Oyales","00003251","Kristine  Oli","Jun 24 2018 07:34 PM","CASH","200.00"
"QPMM-01","Anne  Scott","00003252","Kristine  Oli","Jun 25 2018 02:32 PM","CASH","175.00"
"QPMM-01","Myrna Bello","00003253","Kristine  Oli","Jun 28 2018 02:46 PM","CASH","107.50"
"QPMM-01","ronnie canto","00003255","Kristine  Oli","Jun 24 2018 07:36 PM","CASH","265.00"
"QPMM-01","Edwin  Concha","00003256","Kristine  Oli","Jun 27 2018 05:32 PM","CASH","125.00"
"QPMM-01","Joel Gayda","00003257","Kristine  Oli","Jun 25 2018 06:56 PM","CASH","195.00"
"QPMM-01","aleli buaquen","00003258","Kristine  Oli","Jun 24 2018 07:27 PM","CASH","320.00"
"QPMM-01","Genaro Lumanlan","00003261","Kristine  Oli","Jun 30 2018 05:21 PM","CASH","87.50"
"QPMM-01","Ch. Tirso  Estoque","00003262","Kristine  Oli","Jun 24 2018 08:47 AM","CASH","100.00"
"QPMM-01","Lorina Oyales","00003263","Kristine  Oli","Jun 27 2018 03:16 PM","CASH","150.00"
"QPMM-01","Alma  Vigo","00003264","Kristine  Oli","Jun 27 2018 09:15 PM","CASH","357.50"
"QPMM-01","elena bautista","00003268","Kristine  Oli","Jun 30 2018 08:22 AM","CASH","277.50"
"QPMM-01","renato alivia","00003269","Kristine  Oli","Jun 29 2018 06:05 PM","CASH","50.00"
"QPMM-01","Ross Rivera","00003271","Kristine  Oli","Jun 28 2018 10:36 AM","CASH","112.50"
"QPMM-01","Maria Antonio","00003272","Kristine  Oli","Jun 28 2018 05:12 PM","CASH","452.50"
"QPMM-01","marry ann acosta","00003275","Kristine  Oli","Jun 29 2018 09:10 AM","CASH","162.50"
"QPMM-01","Domingo Saludares","00003276","Kristine  Oli","Jun 30 2018 01:28 PM","CASH","195.00"
"QPMM-01","ANGEL LAYGAN","00003277","Kristine  Oli","Jun 28 2018 09:23 AM","CASH","195.00"
"QPMM-01","Emrick Manio","00003278","Kristine  Oli","Jun 30 2018 09:37 AM","CASH","1182.50"
"QPMM-01","jonathan fernandez","00003279","Kristine  Oli","Jun 28 2018 07:08 PM","CASH","125.00"
"QPMM-01","Joedy Catan","00003281","Kristine  Oli","Jun 30 2018 01:51 PM","CASH","132.50"
"QPMM-01","willie manalili","00003284","Kristine  Oli","Jun 29 2018 05:32 PM","CASH","173.00"
"QPMM-01","Tintin Mangubat","00003286","Kristine  Oli","Jun 29 2018 11:43 AM","CASH","50.00"
"QPMM-01","Carl jhon Ombid","00003287","Kristine  Oli","Jun 29 2018 01:25 PM","CASH","125.00"
"QPMM-01","Rico  Abuena","00003289","Kristine  Oli","Jun 29 2018 09:11 AM","CASH","55.00"
"QPMM-01","Sonny Boyaljecera","00003290","Kristine  Oli","Jun 30 2018 08:20 PM","CASH","50.00"
"QPMM-01","Charlie Moreno","00003291","Kristine  Oli","Jun 29 2018 12:37 PM","CASH","257.50"
"QPMM-01","Anne  Scott","00003293","Kristine  Oli","Jun 30 2018 09:37 AM","CASH","200.00"
"QPMM-01","Alexandra  Nidua","00003294","Kristine  Oli","Jun 29 2018 05:22 PM","CASH","77.50"
"QPMM-01","kenneth garcia","00003296","Kristine  Oli","Jun 30 2018 06:00 PM","CASH","125.00"
